path,label,prediction,n_detections
IARA_my_logs/images1/lane_00000.png,2,2,2
IARA_my_logs/images1/lane_00001.png,2,2,2
IARA_my_logs/images1/lane_00002.png,2,2,2
IARA_my_logs/images1/lane_00003.png,2,2,2
IARA_my_logs/images1/lane_00004.png,2,2,2
IARA_my_logs/images1/lane_00005.png,2,2,2
IARA_my_logs/images1/lane_00006.png,2,2,2
IARA_my_logs/images1/lane_00007.png,2,2,2
IARA_my_logs/images1/lane_00008.png,2,2,2
IARA_my_logs/images1/lane_00009.png,2,2,2
IARA_my_logs/images1/lane_00010.png,2,2,2
IARA_my_logs/images1/lane_00011.png,2,2,2
IARA_my_logs/images1/lane_00012.png,2,2,2
IARA_my_logs/images1/lane_00013.png,2,2,2
IARA_my_logs/images1/lane_00014.png,2,1,2
IARA_my_logs/images1/lane_00015.png,2,1,2
IARA_my_logs/images1/lane_00016.png,2,1,2
IARA_my_logs/images1/lane_00017.png,2,1,2
IARA_my_logs/images1/lane_00018.png,2,1,2
IARA_my_logs/images1/lane_00019.png,2,1,2
IARA_my_logs/images1/lane_00020.png,2,1,3
IARA_my_logs/images1/lane_00021.png,2,1,3
IARA_my_logs/images1/lane_00022.png,2,1,3
IARA_my_logs/images1/lane_00023.png,2,1,3
IARA_my_logs/images1/lane_00024.png,2,1,3
IARA_my_logs/images1/lane_00025.png,2,1,3
IARA_my_logs/images1/lane_00026.png,2,1,2
IARA_my_logs/images1/lane_00027.png,2,1,2
IARA_my_logs/images1/lane_00028.png,2,1,3
IARA_my_logs/images1/lane_00029.png,2,1,3
IARA_my_logs/images1/lane_00030.png,2,1,2
IARA_my_logs/images1/lane_00031.png,2,1,2
IARA_my_logs/images1/lane_00032.png,2,1,2
IARA_my_logs/images1/lane_00033.png,0,1,1
IARA_my_logs/images1/lane_00034.png,0,1,1
IARA_my_logs/images1/lane_00035.png,0,1,1
IARA_my_logs/images1/lane_00036.png,0,1,1
IARA_my_logs/images1/lane_00037.png,0,1,1
IARA_my_logs/images2/lane_00487.png,2,2,3
IARA_my_logs/images2/lane_00488.png,2,2,3
IARA_my_logs/images2/lane_00489.png,2,2,4
IARA_my_logs/images2/lane_00490.png,2,2,4
IARA_my_logs/images2/lane_00491.png,2,2,3
IARA_my_logs/images2/lane_00492.png,2,2,3
IARA_my_logs/images2/lane_00493.png,2,2,3
IARA_my_logs/images2/lane_00494.png,2,2,3
IARA_my_logs/images2/lane_00495.png,2,2,3
IARA_my_logs/images2/lane_00496.png,2,2,3
IARA_my_logs/images2/lane_00497.png,2,2,4
IARA_my_logs/images2/lane_00498.png,2,2,4
IARA_my_logs/images2/lane_00499.png,2,2,2
IARA_my_logs/images2/lane_00500.png,2,2,2
IARA_my_logs/images2/lane_00501.png,2,2,3
IARA_my_logs/images2/lane_00502.png,2,2,3
IARA_my_logs/images2/lane_00503.png,2,2,3
IARA_my_logs/images2/lane_00504.png,2,2,3
IARA_my_logs/images2/lane_00505.png,2,2,3
IARA_my_logs/images2/lane_00506.png,2,2,3
IARA_my_logs/images2/lane_00507.png,2,2,3
IARA_my_logs/images2/lane_00508.png,2,2,3
IARA_my_logs/images2/lane_00509.png,2,2,3
IARA_my_logs/images2/lane_00510.png,2,2,3
IARA_my_logs/images2/lane_00511.png,2,2,3
IARA_my_logs/images2/lane_02289.png,2,2,2
IARA_my_logs/images2/lane_02290.png,2,2,2
IARA_my_logs/images2/lane_02291.png,2,2,2
IARA_my_logs/images2/lane_02292.png,2,2,2
IARA_my_logs/images2/lane_02293.png,2,2,2
IARA_my_logs/images2/lane_02294.png,2,2,2
IARA_my_logs/images2/lane_02295.png,2,2,2
IARA_my_logs/images2/lane_02296.png,2,2,2
IARA_my_logs/images2/lane_02297.png,2,2,2
IARA_my_logs/images2/lane_02298.png,2,2,2
IARA_my_logs/images2/lane_02299.png,2,2,2
IARA_my_logs/images2/lane_02300.png,2,2,2
IARA_my_logs/images2/lane_02301.png,2,2,2
IARA_my_logs/images2/lane_02302.png,2,2,2
IARA_my_logs/images2/lane_02303.png,2,2,2
IARA_my_logs/images2/lane_02304.png,2,2,2
IARA_my_logs/images2/lane_02305.png,2,2,2
IARA_my_logs/images2/lane_02306.png,2,2,2
IARA_my_logs/images2/lane_02307.png,2,2,2
IARA_my_logs/images2/lane_02308.png,2,2,2
IARA_my_logs/images2/lane_02309.png,2,2,2
IARA_my_logs/images2/lane_02310.png,2,2,2
IARA_my_logs/images2/lane_02311.png,2,2,2
IARA_my_logs/images2/lane_02312.png,2,2,2
IARA_my_logs/images2/lane_02313.png,2,2,2
IARA_my_logs/images2/lane_02314.png,2,2,2
IARA_my_logs/images2/lane_02315.png,2,2,2
IARA_my_logs/images2/lane_02316.png,2,2,2
IARA_my_logs/images2/lane_02317.png,2,2,2
IARA_my_logs/images2/lane_02318.png,2,2,2
IARA_my_logs/images2/lane_02319.png,2,2,2
IARA_my_logs/images2/lane_02320.png,2,2,2
IARA_my_logs/images2/lane_02321.png,2,2,2
IARA_my_logs/images2/lane_02322.png,2,2,2
IARA_my_logs/images2/lane_02323.png,2,2,2
IARA_my_logs/images2/lane_02324.png,2,2,2
IARA_my_logs/images2/lane_02325.png,2,2,2
IARA_my_logs/images2/lane_02326.png,2,2,2
IARA_my_logs/images2/lane_02327.png,2,2,2
IARA_my_logs/images2/lane_02328.png,2,2,2
IARA_my_logs/images4/lane_00243.png,2,1,3
IARA_my_logs/images4/lane_00244.png,2,1,3
IARA_my_logs/images4/lane_00245.png,2,1,5
IARA_my_logs/images4/lane_00246.png,2,1,4
IARA_my_logs/images4/lane_00247.png,2,1,4
IARA_my_logs/images4/lane_00248.png,2,1,4
IARA_my_logs/images4/lane_00249.png,2,1,4
IARA_my_logs/images4/lane_00250.png,2,1,4
IARA_my_logs/images4/lane_00251.png,2,1,3
IARA_my_logs/images4/lane_00252.png,2,1,3
IARA_my_logs/images4/lane_00253.png,2,2,3
IARA_my_logs/images4/lane_00254.png,2,2,3
IARA_my_logs/images4/lane_00255.png,2,2,3
IARA_my_logs/images4/lane_00256.png,2,2,3
IARA_my_logs/images4/lane_00257.png,2,2,3
IARA_my_logs/images4/lane_00258.png,2,2,3
IARA_my_logs/images4/lane_00259.png,2,2,3
IARA_my_logs/images4/lane_00260.png,2,2,3
IARA_traffic_light/images/image_1683_1487599428.706195.png,2,0,0
IARA_traffic_light/images/image_1684_1487599428.794505.png,2,0,0
IARA_traffic_light/images/image_1685_1487599428.959405_7755061.764464_-364241.206214.png,2,1,1
IARA_traffic_light/images/image_1686_1487599429.122287_7755061.764464_-364241.206214.png,2,1,1
IARA_traffic_light/images/image_1687_1487599429.286023.png,2,1,1
IARA_traffic_light/images/image_1688_1487599429.449050.png,2,2,2
IARA_traffic_light/images/image_1689_1487599429.612320_7755061.764464_-364241.206214.png,2,1,3
IARA_traffic_light/images/image_1690_1487599429.693562_7755061.764464_-364241.206214.png,2,1,3
IARA_traffic_light/images/image_1691_1487599429.938686.png,2,2,2
IARA_traffic_light/images/image_1692_1487599430.022399.png,2,2,3
IARA_traffic_light/images/image_1693_1487599430.190399_7755061.764464_-364241.206214.png,2,2,3
IARA_traffic_light/images/image_1694_1487599430.438219_7755061.764464_-364241.206214.png,2,2,2
IARA_traffic_light/images/image_1695_1487599430.521633_7755061.764464_-364241.206214.png,2,2,3
IARA_traffic_light/images/image_1696_1487599430.685046_7755061.764464_-364241.206214.png,2,2,3
IARA_traffic_light/images/image_1697_1487599430.766523_7755061.764464_-364241.206214.png,2,2,3
IARA_traffic_light/images/image_1698_1487599430.848823_7755061.764464_-364241.206214.png,2,2,3
IARA_traffic_light/images/image_1699_1487599430.929972_7755061.764464_-364241.206214.png,2,2,3
IARA_traffic_light/images/image_1700_1487599431.011193_7755061.764464_-364241.206214.png,2,2,3
IARA_traffic_light/images/image_1701_1487599431.093100_7755061.764464_-364241.206214.png,2,2,3
IARA_traffic_light/images/image_1702_1487599431.262716_7755061.764464_-364241.206214.png,2,2,3
IARA_traffic_light/images/image_1703_1487599431.346835_7755061.764464_-364241.206214.png,2,2,3
IARA_traffic_light/images/image_1704_1487599431.517617_7755061.764464_-364241.206214.png,2,2,3
