LARA_traffic_light/Lara3D_UrbanSeq1_JPG/frame_003566.jpg,0
LARA_traffic_light/Lara3D_UrbanSeq1_JPG/frame_003567.jpg,0
LARA_traffic_light/Lara3D_UrbanSeq1_JPG/frame_003568.jpg,0
LARA_traffic_light/Lara3D_UrbanSeq1_JPG/frame_003569.jpg,0
LARA_traffic_light/Lara3D_UrbanSeq1_JPG/frame_003570.jpg,0
LARA_traffic_light/Lara3D_UrbanSeq1_JPG/frame_003571.jpg,0
LARA_traffic_light/Lara3D_UrbanSeq1_JPG/frame_003572.jpg,0
LARA_traffic_light/Lara3D_UrbanSeq1_JPG/frame_003573.jpg,0
LARA_traffic_light/Lara3D_UrbanSeq1_JPG/frame_003574.jpg,0
LARA_traffic_light/Lara3D_UrbanSeq1_JPG/frame_003575.jpg,0
LARA_traffic_light/Lara3D_UrbanSeq1_JPG/frame_003576.jpg,0
LARA_traffic_light/Lara3D_UrbanSeq1_JPG/frame_003577.jpg,0
LARA_traffic_light/Lara3D_UrbanSeq1_JPG/frame_003578.jpg,0
LARA_traffic_light/Lara3D_UrbanSeq1_JPG/frame_003579.jpg,0
LARA_traffic_light/Lara3D_UrbanSeq1_JPG/frame_003580.jpg,0
LARA_traffic_light/Lara3D_UrbanSeq1_JPG/frame_003581.jpg,0
LARA_traffic_light/Lara3D_UrbanSeq1_JPG/frame_003582.jpg,0
LARA_traffic_light/Lara3D_UrbanSeq1_JPG/frame_003583.jpg,0
LARA_traffic_light/Lara3D_UrbanSeq1_JPG/frame_003584.jpg,0
LARA_traffic_light/Lara3D_UrbanSeq1_JPG/frame_006105.jpg,2
LARA_traffic_light/Lara3D_UrbanSeq1_JPG/frame_006106.jpg,2
LARA_traffic_light/Lara3D_UrbanSeq1_JPG/frame_006107.jpg,2
LARA_traffic_light/Lara3D_UrbanSeq1_JPG/frame_006108.jpg,2
LARA_traffic_light/Lara3D_UrbanSeq1_JPG/frame_006109.jpg,2
LARA_traffic_light/Lara3D_UrbanSeq1_JPG/frame_006110.jpg,2
LARA_traffic_light/Lara3D_UrbanSeq1_JPG/frame_006111.jpg,2
LARA_traffic_light/Lara3D_UrbanSeq1_JPG/frame_006112.jpg,2
LARA_traffic_light/Lara3D_UrbanSeq1_JPG/frame_006113.jpg,2
LARA_traffic_light/Lara3D_UrbanSeq1_JPG/frame_006114.jpg,2
LARA_traffic_light/Lara3D_UrbanSeq1_JPG/frame_006115.jpg,2
LARA_traffic_light/Lara3D_UrbanSeq1_JPG/frame_006116.jpg,2
LARA_traffic_light/Lara3D_UrbanSeq1_JPG/frame_006117.jpg,2
LARA_traffic_light/Lara3D_UrbanSeq1_JPG/frame_006118.jpg,2
LARA_traffic_light/Lara3D_UrbanSeq1_JPG/frame_006119.jpg,2
LARA_traffic_light/Lara3D_UrbanSeq1_JPG/frame_006120.jpg,2
LARA_traffic_light/Lara3D_UrbanSeq1_JPG/frame_006121.jpg,2
LARA_traffic_light/Lara3D_UrbanSeq1_JPG/frame_006122.jpg,2
LARA_traffic_light/Lara3D_UrbanSeq1_JPG/frame_006123.jpg,2
LARA_traffic_light/Lara3D_UrbanSeq1_JPG/frame_006124.jpg,2
LARA_traffic_light/Lara3D_UrbanSeq1_JPG/frame_006125.jpg,2
LARA_traffic_light/Lara3D_UrbanSeq1_JPG/frame_006126.jpg,2
LARA_traffic_light/Lara3D_UrbanSeq1_JPG/frame_006127.jpg,2
LARA_traffic_light/Lara3D_UrbanSeq1_JPG/frame_006128.jpg,2
LARA_traffic_light/Lara3D_UrbanSeq1_JPG/frame_006129.jpg,2
LARA_traffic_light/Lara3D_UrbanSeq1_JPG/frame_006130.jpg,2
LARA_traffic_light/Lara3D_UrbanSeq1_JPG/frame_006131.jpg,2
LARA_traffic_light/Lara3D_UrbanSeq1_JPG/frame_006132.jpg,2
LARA_traffic_light/Lara3D_UrbanSeq1_JPG/frame_006133.jpg,2
LARA_traffic_light/Lara3D_UrbanSeq1_JPG/frame_006134.jpg,2
LARA_traffic_light/Lara3D_UrbanSeq1_JPG/frame_006135.jpg,2
LARA_traffic_light/Lara3D_UrbanSeq1_JPG/frame_006136.jpg,2
LARA_traffic_light/Lara3D_UrbanSeq1_JPG/frame_006137.jpg,2
LARA_traffic_light/Lara3D_UrbanSeq1_JPG/frame_006138.jpg,2
LARA_traffic_light/Lara3D_UrbanSeq1_JPG/frame_006139.jpg,2
LARA_traffic_light/Lara3D_UrbanSeq1_JPG/frame_006140.jpg,2
LARA_traffic_light/Lara3D_UrbanSeq1_JPG/frame_006141.jpg,2
LARA_traffic_light/Lara3D_UrbanSeq1_JPG/frame_006142.jpg,2
LARA_traffic_light/Lara3D_UrbanSeq1_JPG/frame_006143.jpg,2
LARA_traffic_light/Lara3D_UrbanSeq1_JPG/frame_006144.jpg,2
LARA_traffic_light/Lara3D_UrbanSeq1_JPG/frame_006145.jpg,2
LARA_traffic_light/Lara3D_UrbanSeq1_JPG/frame_006146.jpg,2
LARA_traffic_light/Lara3D_UrbanSeq1_JPG/frame_006147.jpg,2
LARA_traffic_light/Lara3D_UrbanSeq1_JPG/frame_006148.jpg,2
LARA_traffic_light/Lara3D_UrbanSeq1_JPG/frame_006149.jpg,2
LARA_traffic_light/Lara3D_UrbanSeq1_JPG/frame_006150.jpg,2
LARA_traffic_light/Lara3D_UrbanSeq1_JPG/frame_006151.jpg,2
LARA_traffic_light/Lara3D_UrbanSeq1_JPG/frame_006152.jpg,2
LARA_traffic_light/Lara3D_UrbanSeq1_JPG/frame_006153.jpg,2
LARA_traffic_light/Lara3D_UrbanSeq1_JPG/frame_006154.jpg,2
LARA_traffic_light/Lara3D_UrbanSeq1_JPG/frame_006155.jpg,2
LARA_traffic_light/Lara3D_UrbanSeq1_JPG/frame_006156.jpg,2
LARA_traffic_light/Lara3D_UrbanSeq1_JPG/frame_006157.jpg,2
LARA_traffic_light/Lara3D_UrbanSeq1_JPG/frame_006158.jpg,2
LARA_traffic_light/Lara3D_UrbanSeq1_JPG/frame_006159.jpg,2
LARA_traffic_light/Lara3D_UrbanSeq1_JPG/frame_006160.jpg,2
LARA_traffic_light/Lara3D_UrbanSeq1_JPG/frame_006161.jpg,2
LARA_traffic_light/Lara3D_UrbanSeq1_JPG/frame_006162.jpg,2
LARA_traffic_light/Lara3D_UrbanSeq1_JPG/frame_006163.jpg,2
LARA_traffic_light/Lara3D_UrbanSeq1_JPG/frame_006164.jpg,2
LARA_traffic_light/Lara3D_UrbanSeq1_JPG/frame_006165.jpg,2
LARA_traffic_light/Lara3D_UrbanSeq1_JPG/frame_006166.jpg,2
LARA_traffic_light/Lara3D_UrbanSeq1_JPG/frame_006167.jpg,2
LARA_traffic_light/Lara3D_UrbanSeq1_JPG/frame_006168.jpg,2
LARA_traffic_light/Lara3D_UrbanSeq1_JPG/frame_006169.jpg,2
LARA_traffic_light/Lara3D_UrbanSeq1_JPG/frame_006170.jpg,2
LARA_traffic_light/Lara3D_UrbanSeq1_JPG/frame_006171.jpg,2
LARA_traffic_light/Lara3D_UrbanSeq1_JPG/frame_006172.jpg,2
LARA_traffic_light/Lara3D_UrbanSeq1_JPG/frame_006173.jpg,2
LARA_traffic_light/Lara3D_UrbanSeq1_JPG/frame_006174.jpg,2
LARA_traffic_light/Lara3D_UrbanSeq1_JPG/frame_006175.jpg,2
LARA_traffic_light/Lara3D_UrbanSeq1_JPG/frame_006176.jpg,2
LARA_traffic_light/Lara3D_UrbanSeq1_JPG/frame_006177.jpg,2
LARA_traffic_light/Lara3D_UrbanSeq1_JPG/frame_006178.jpg,2
LARA_traffic_light/Lara3D_UrbanSeq1_JPG/frame_006179.jpg,2
LARA_traffic_light/Lara3D_UrbanSeq1_JPG/frame_006180.jpg,2
LARA_traffic_light/Lara3D_UrbanSeq1_JPG/frame_006181.jpg,2
LARA_traffic_light/Lara3D_UrbanSeq1_JPG/frame_006182.jpg,2
LARA_traffic_light/Lara3D_UrbanSeq1_JPG/frame_006183.jpg,2
LARA_traffic_light/Lara3D_UrbanSeq1_JPG/frame_006184.jpg,2
LARA_traffic_light/Lara3D_UrbanSeq1_JPG/frame_006185.jpg,2
LARA_traffic_light/Lara3D_UrbanSeq1_JPG/frame_006186.jpg,2
LARA_traffic_light/Lara3D_UrbanSeq1_JPG/frame_006187.jpg,2
LARA_traffic_light/Lara3D_UrbanSeq1_JPG/frame_006188.jpg,2
LARA_traffic_light/Lara3D_UrbanSeq1_JPG/frame_006189.jpg,2
LARA_traffic_light/Lara3D_UrbanSeq1_JPG/frame_006190.jpg,2
LARA_traffic_light/Lara3D_UrbanSeq1_JPG/frame_006191.jpg,2
LARA_traffic_light/Lara3D_UrbanSeq1_JPG/frame_006192.jpg,2
LARA_traffic_light/Lara3D_UrbanSeq1_JPG/frame_006193.jpg,2
LARA_traffic_light/Lara3D_UrbanSeq1_JPG/frame_006194.jpg,2
LARA_traffic_light/Lara3D_UrbanSeq1_JPG/frame_006195.jpg,2
LARA_traffic_light/Lara3D_UrbanSeq1_JPG/frame_006196.jpg,2
LARA_traffic_light/Lara3D_UrbanSeq1_JPG/frame_006197.jpg,2
LARA_traffic_light/Lara3D_UrbanSeq1_JPG/frame_006198.jpg,2
LARA_traffic_light/Lara3D_UrbanSeq1_JPG/frame_006199.jpg,2
LARA_traffic_light/Lara3D_UrbanSeq1_JPG/frame_006200.jpg,2
LARA_traffic_light/Lara3D_UrbanSeq1_JPG/frame_006201.jpg,2
LARA_traffic_light/Lara3D_UrbanSeq1_JPG/frame_006202.jpg,2
LARA_traffic_light/Lara3D_UrbanSeq1_JPG/frame_006203.jpg,2
LARA_traffic_light/Lara3D_UrbanSeq1_JPG/frame_006204.jpg,2
LARA_traffic_light/Lara3D_UrbanSeq1_JPG/frame_006205.jpg,2
LARA_traffic_light/Lara3D_UrbanSeq1_JPG/frame_006206.jpg,2
LARA_traffic_light/Lara3D_UrbanSeq1_JPG/frame_006207.jpg,2
LARA_traffic_light/Lara3D_UrbanSeq1_JPG/frame_006208.jpg,2
LARA_traffic_light/Lara3D_UrbanSeq1_JPG/frame_006209.jpg,2
LARA_traffic_light/Lara3D_UrbanSeq1_JPG/frame_006210.jpg,2
LARA_traffic_light/Lara3D_UrbanSeq1_JPG/frame_006211.jpg,2
LARA_traffic_light/Lara3D_UrbanSeq1_JPG/frame_006212.jpg,2
LARA_traffic_light/Lara3D_UrbanSeq1_JPG/frame_006213.jpg,2
LARA_traffic_light/Lara3D_UrbanSeq1_JPG/frame_006214.jpg,2
LARA_traffic_light/Lara3D_UrbanSeq1_JPG/frame_006215.jpg,2
LARA_traffic_light/Lara3D_UrbanSeq1_JPG/frame_006216.jpg,2
LARA_traffic_light/Lara3D_UrbanSeq1_JPG/frame_006217.jpg,2
LARA_traffic_light/Lara3D_UrbanSeq1_JPG/frame_006218.jpg,2
LARA_traffic_light/Lara3D_UrbanSeq1_JPG/frame_006219.jpg,2
LARA_traffic_light/Lara3D_UrbanSeq1_JPG/frame_006220.jpg,2
LARA_traffic_light/Lara3D_UrbanSeq1_JPG/frame_006221.jpg,2
LARA_traffic_light/Lara3D_UrbanSeq1_JPG/frame_006222.jpg,2
LARA_traffic_light/Lara3D_UrbanSeq1_JPG/frame_006223.jpg,2
LARA_traffic_light/Lara3D_UrbanSeq1_JPG/frame_006224.jpg,2
LARA_traffic_light/Lara3D_UrbanSeq1_JPG/frame_006225.jpg,2
LARA_traffic_light/Lara3D_UrbanSeq1_JPG/frame_006226.jpg,2
LARA_traffic_light/Lara3D_UrbanSeq1_JPG/frame_006227.jpg,2
LARA_traffic_light/Lara3D_UrbanSeq1_JPG/frame_006228.jpg,2
LARA_traffic_light/Lara3D_UrbanSeq1_JPG/frame_006229.jpg,2
LARA_traffic_light/Lara3D_UrbanSeq1_JPG/frame_006230.jpg,2
LARA_traffic_light/Lara3D_UrbanSeq1_JPG/frame_006231.jpg,2
LARA_traffic_light/Lara3D_UrbanSeq1_JPG/frame_006232.jpg,2
LARA_traffic_light/Lara3D_UrbanSeq1_JPG/frame_006233.jpg,2
LARA_traffic_light/Lara3D_UrbanSeq1_JPG/frame_006234.jpg,2
LARA_traffic_light/Lara3D_UrbanSeq1_JPG/frame_006235.jpg,2
LARA_traffic_light/Lara3D_UrbanSeq1_JPG/frame_006236.jpg,2
LARA_traffic_light/Lara3D_UrbanSeq1_JPG/frame_006237.jpg,2
LARA_traffic_light/Lara3D_UrbanSeq1_JPG/frame_006238.jpg,2
LARA_traffic_light/Lara3D_UrbanSeq1_JPG/frame_006239.jpg,2
LARA_traffic_light/Lara3D_UrbanSeq1_JPG/frame_006240.jpg,2
LARA_traffic_light/Lara3D_UrbanSeq1_JPG/frame_006241.jpg,2
LARA_traffic_light/Lara3D_UrbanSeq1_JPG/frame_006242.jpg,2
LARA_traffic_light/Lara3D_UrbanSeq1_JPG/frame_006243.jpg,2
LARA_traffic_light/Lara3D_UrbanSeq1_JPG/frame_006244.jpg,2
LARA_traffic_light/Lara3D_UrbanSeq1_JPG/frame_006245.jpg,2
LARA_traffic_light/Lara3D_UrbanSeq1_JPG/frame_006246.jpg,2
LARA_traffic_light/Lara3D_UrbanSeq1_JPG/frame_006247.jpg,2
LARA_traffic_light/Lara3D_UrbanSeq1_JPG/frame_006248.jpg,2
LARA_traffic_light/Lara3D_UrbanSeq1_JPG/frame_006249.jpg,2
LARA_traffic_light/Lara3D_UrbanSeq1_JPG/frame_006250.jpg,2
LARA_traffic_light/Lara3D_UrbanSeq1_JPG/frame_006251.jpg,2
LARA_traffic_light/Lara3D_UrbanSeq1_JPG/frame_006252.jpg,2
LARA_traffic_light/Lara3D_UrbanSeq1_JPG/frame_006253.jpg,2
LARA_traffic_light/Lara3D_UrbanSeq1_JPG/frame_006254.jpg,2
LARA_traffic_light/Lara3D_UrbanSeq1_JPG/frame_006255.jpg,2
LARA_traffic_light/Lara3D_UrbanSeq1_JPG/frame_006256.jpg,2
LARA_traffic_light/Lara3D_UrbanSeq1_JPG/frame_006257.jpg,2
LARA_traffic_light/Lara3D_UrbanSeq1_JPG/frame_006258.jpg,2
LARA_traffic_light/Lara3D_UrbanSeq1_JPG/frame_006259.jpg,2
LARA_traffic_light/Lara3D_UrbanSeq1_JPG/frame_006260.jpg,2
LARA_traffic_light/Lara3D_UrbanSeq1_JPG/frame_006261.jpg,2
LARA_traffic_light/Lara3D_UrbanSeq1_JPG/frame_006262.jpg,2
LARA_traffic_light/Lara3D_UrbanSeq1_JPG/frame_006263.jpg,2
LARA_traffic_light/Lara3D_UrbanSeq1_JPG/frame_006264.jpg,2
LARA_traffic_light/Lara3D_UrbanSeq1_JPG/frame_006265.jpg,2
LARA_traffic_light/Lara3D_UrbanSeq1_JPG/frame_006266.jpg,2
LARA_traffic_light/Lara3D_UrbanSeq1_JPG/frame_006267.jpg,2
LARA_traffic_light/Lara3D_UrbanSeq1_JPG/frame_006268.jpg,2
LARA_traffic_light/Lara3D_UrbanSeq1_JPG/frame_006269.jpg,2
LARA_traffic_light/Lara3D_UrbanSeq1_JPG/frame_006270.jpg,2
LARA_traffic_light/Lara3D_UrbanSeq1_JPG/frame_006271.jpg,2
LARA_traffic_light/Lara3D_UrbanSeq1_JPG/frame_006272.jpg,2
LARA_traffic_light/Lara3D_UrbanSeq1_JPG/frame_006273.jpg,2
LARA_traffic_light/Lara3D_UrbanSeq1_JPG/frame_006274.jpg,2
LARA_traffic_light/Lara3D_UrbanSeq1_JPG/frame_006275.jpg,2
LARA_traffic_light/Lara3D_UrbanSeq1_JPG/frame_006276.jpg,2
LARA_traffic_light/Lara3D_UrbanSeq1_JPG/frame_006277.jpg,2
LARA_traffic_light/Lara3D_UrbanSeq1_JPG/frame_006278.jpg,2
LARA_traffic_light/Lara3D_UrbanSeq1_JPG/frame_006279.jpg,2
LARA_traffic_light/Lara3D_UrbanSeq1_JPG/frame_006280.jpg,2
LARA_traffic_light/Lara3D_UrbanSeq1_JPG/frame_006281.jpg,2
LARA_traffic_light/Lara3D_UrbanSeq1_JPG/frame_006282.jpg,2
LARA_traffic_light/Lara3D_UrbanSeq1_JPG/frame_006283.jpg,2
LARA_traffic_light/Lara3D_UrbanSeq1_JPG/frame_006284.jpg,2
LARA_traffic_light/Lara3D_UrbanSeq1_JPG/frame_006285.jpg,2
LARA_traffic_light/Lara3D_UrbanSeq1_JPG/frame_006286.jpg,2
LARA_traffic_light/Lara3D_UrbanSeq1_JPG/frame_006287.jpg,2
LARA_traffic_light/Lara3D_UrbanSeq1_JPG/frame_006288.jpg,2
LARA_traffic_light/Lara3D_UrbanSeq1_JPG/frame_006289.jpg,2
LARA_traffic_light/Lara3D_UrbanSeq1_JPG/frame_006290.jpg,2
LARA_traffic_light/Lara3D_UrbanSeq1_JPG/frame_006291.jpg,2
LARA_traffic_light/Lara3D_UrbanSeq1_JPG/frame_006292.jpg,2
LARA_traffic_light/Lara3D_UrbanSeq1_JPG/frame_006293.jpg,2
LARA_traffic_light/Lara3D_UrbanSeq1_JPG/frame_006294.jpg,2
LARA_traffic_light/Lara3D_UrbanSeq1_JPG/frame_006295.jpg,2
LARA_traffic_light/Lara3D_UrbanSeq1_JPG/frame_006296.jpg,2
LARA_traffic_light/Lara3D_UrbanSeq1_JPG/frame_006297.jpg,2
LARA_traffic_light/Lara3D_UrbanSeq1_JPG/frame_006298.jpg,2
LARA_traffic_light/Lara3D_UrbanSeq1_JPG/frame_006299.jpg,2
LARA_traffic_light/Lara3D_UrbanSeq1_JPG/frame_006300.jpg,2
LARA_traffic_light/Lara3D_UrbanSeq1_JPG/frame_006301.jpg,2
LARA_traffic_light/Lara3D_UrbanSeq1_JPG/frame_006302.jpg,2
LARA_traffic_light/Lara3D_UrbanSeq1_JPG/frame_006303.jpg,2
LARA_traffic_light/Lara3D_UrbanSeq1_JPG/frame_006304.jpg,2
LARA_traffic_light/Lara3D_UrbanSeq1_JPG/frame_006305.jpg,2
LARA_traffic_light/Lara3D_UrbanSeq1_JPG/frame_006306.jpg,2
LARA_traffic_light/Lara3D_UrbanSeq1_JPG/frame_006307.jpg,2
LARA_traffic_light/Lara3D_UrbanSeq1_JPG/frame_006308.jpg,2
LARA_traffic_light/Lara3D_UrbanSeq1_JPG/frame_006309.jpg,2
LARA_traffic_light/Lara3D_UrbanSeq1_JPG/frame_006310.jpg,2
LARA_traffic_light/Lara3D_UrbanSeq1_JPG/frame_006311.jpg,2
LARA_traffic_light/Lara3D_UrbanSeq1_JPG/frame_006312.jpg,2
LARA_traffic_light/Lara3D_UrbanSeq1_JPG/frame_006313.jpg,2
LARA_traffic_light/Lara3D_UrbanSeq1_JPG/frame_006314.jpg,2
LARA_traffic_light/Lara3D_UrbanSeq1_JPG/frame_006315.jpg,2
LARA_traffic_light/Lara3D_UrbanSeq1_JPG/frame_006316.jpg,2
LARA_traffic_light/Lara3D_UrbanSeq1_JPG/frame_006317.jpg,2
LARA_traffic_light/Lara3D_UrbanSeq1_JPG/frame_006318.jpg,2
LARA_traffic_light/Lara3D_UrbanSeq1_JPG/frame_006319.jpg,2
LARA_traffic_light/Lara3D_UrbanSeq1_JPG/frame_006320.jpg,2
LARA_traffic_light/Lara3D_UrbanSeq1_JPG/frame_006321.jpg,2
LARA_traffic_light/Lara3D_UrbanSeq1_JPG/frame_006322.jpg,2
LARA_traffic_light/Lara3D_UrbanSeq1_JPG/frame_006323.jpg,2
LARA_traffic_light/Lara3D_UrbanSeq1_JPG/frame_006324.jpg,2
LARA_traffic_light/Lara3D_UrbanSeq1_JPG/frame_006325.jpg,2
LARA_traffic_light/Lara3D_UrbanSeq1_JPG/frame_006326.jpg,2
LARA_traffic_light/Lara3D_UrbanSeq1_JPG/frame_006327.jpg,2
LARA_traffic_light/Lara3D_UrbanSeq1_JPG/frame_006328.jpg,2
LARA_traffic_light/Lara3D_UrbanSeq1_JPG/frame_006329.jpg,2
LARA_traffic_light/Lara3D_UrbanSeq1_JPG/frame_006330.jpg,2
LARA_traffic_light/Lara3D_UrbanSeq1_JPG/frame_008073.jpg,1
LARA_traffic_light/Lara3D_UrbanSeq1_JPG/frame_008074.jpg,1
LARA_traffic_light/Lara3D_UrbanSeq1_JPG/frame_008075.jpg,1
LARA_traffic_light/Lara3D_UrbanSeq1_JPG/frame_008076.jpg,1
LARA_traffic_light/Lara3D_UrbanSeq1_JPG/frame_008077.jpg,1
LARA_traffic_light/Lara3D_UrbanSeq1_JPG/frame_008078.jpg,1
LARA_traffic_light/Lara3D_UrbanSeq1_JPG/frame_008079.jpg,1
LARA_traffic_light/Lara3D_UrbanSeq1_JPG/frame_008080.jpg,1
LARA_traffic_light/Lara3D_UrbanSeq1_JPG/frame_008081.jpg,1
LARA_traffic_light/Lara3D_UrbanSeq1_JPG/frame_008082.jpg,1
LARA_traffic_light/Lara3D_UrbanSeq1_JPG/frame_008083.jpg,1
LARA_traffic_light/Lara3D_UrbanSeq1_JPG/frame_008084.jpg,1
LARA_traffic_light/Lara3D_UrbanSeq1_JPG/frame_008085.jpg,1
LARA_traffic_light/Lara3D_UrbanSeq1_JPG/frame_008086.jpg,1
LARA_traffic_light/Lara3D_UrbanSeq1_JPG/frame_008087.jpg,1
LARA_traffic_light/Lara3D_UrbanSeq1_JPG/frame_008088.jpg,1
LARA_traffic_light/Lara3D_UrbanSeq1_JPG/frame_008089.jpg,1
LARA_traffic_light/Lara3D_UrbanSeq1_JPG/frame_008090.jpg,1
LARA_traffic_light/Lara3D_UrbanSeq1_JPG/frame_008091.jpg,1
LARA_traffic_light/Lara3D_UrbanSeq1_JPG/frame_008092.jpg,1
LARA_traffic_light/Lara3D_UrbanSeq1_JPG/frame_008093.jpg,1
LARA_traffic_light/Lara3D_UrbanSeq1_JPG/frame_008094.jpg,1
LARA_traffic_light/Lara3D_UrbanSeq1_JPG/frame_008095.jpg,1
LARA_traffic_light/Lara3D_UrbanSeq1_JPG/frame_008096.jpg,1
LARA_traffic_light/Lara3D_UrbanSeq1_JPG/frame_008097.jpg,1
LARA_traffic_light/Lara3D_UrbanSeq1_JPG/frame_008098.jpg,1
LARA_traffic_light/Lara3D_UrbanSeq1_JPG/frame_008099.jpg,1
LARA_traffic_light/Lara3D_UrbanSeq1_JPG/frame_008100.jpg,1
LARA_traffic_light/Lara3D_UrbanSeq1_JPG/frame_008101.jpg,1
LARA_traffic_light/Lara3D_UrbanSeq1_JPG/frame_008102.jpg,1
LARA_traffic_light/Lara3D_UrbanSeq1_JPG/frame_008103.jpg,1
LARA_traffic_light/Lara3D_UrbanSeq1_JPG/frame_008104.jpg,1
LARA_traffic_light/Lara3D_UrbanSeq1_JPG/frame_008105.jpg,1
LARA_traffic_light/Lara3D_UrbanSeq1_JPG/frame_008106.jpg,1
LARA_traffic_light/Lara3D_UrbanSeq1_JPG/frame_008107.jpg,1
LARA_traffic_light/Lara3D_UrbanSeq1_JPG/frame_008108.jpg,1
LARA_traffic_light/Lara3D_UrbanSeq1_JPG/frame_008109.jpg,1
LARA_traffic_light/Lara3D_UrbanSeq1_JPG/frame_008110.jpg,1
LARA_traffic_light/Lara3D_UrbanSeq1_JPG/frame_008111.jpg,1
LARA_traffic_light/Lara3D_UrbanSeq1_JPG/frame_008112.jpg,1
LARA_traffic_light/Lara3D_UrbanSeq1_JPG/frame_008113.jpg,1
LARA_traffic_light/Lara3D_UrbanSeq1_JPG/frame_008114.jpg,1
LARA_traffic_light/Lara3D_UrbanSeq1_JPG/frame_008115.jpg,1
LARA_traffic_light/Lara3D_UrbanSeq1_JPG/frame_008116.jpg,1
LARA_traffic_light/Lara3D_UrbanSeq1_JPG/frame_008117.jpg,1
LARA_traffic_light/Lara3D_UrbanSeq1_JPG/frame_008118.jpg,1
LARA_traffic_light/Lara3D_UrbanSeq1_JPG/frame_008119.jpg,1
LARA_traffic_light/Lara3D_UrbanSeq1_JPG/frame_008120.jpg,1
LARA_traffic_light/Lara3D_UrbanSeq1_JPG/frame_008121.jpg,1
LARA_traffic_light/Lara3D_UrbanSeq1_JPG/frame_008122.jpg,1
LARA_traffic_light/Lara3D_UrbanSeq1_JPG/frame_008123.jpg,1
LARA_traffic_light/Lara3D_UrbanSeq1_JPG/frame_008124.jpg,1
LARA_traffic_light/Lara3D_UrbanSeq1_JPG/frame_008125.jpg,1
LARA_traffic_light/Lara3D_UrbanSeq1_JPG/frame_008126.jpg,1
LARA_traffic_light/Lara3D_UrbanSeq1_JPG/frame_008127.jpg,1
LARA_traffic_light/Lara3D_UrbanSeq1_JPG/frame_008128.jpg,1
LARA_traffic_light/Lara3D_UrbanSeq1_JPG/frame_008129.jpg,1
LARA_traffic_light/Lara3D_UrbanSeq1_JPG/frame_008130.jpg,1
LARA_traffic_light/Lara3D_UrbanSeq1_JPG/frame_008131.jpg,1
LARA_traffic_light/Lara3D_UrbanSeq1_JPG/frame_008132.jpg,1
LARA_traffic_light/Lara3D_UrbanSeq1_JPG/frame_008133.jpg,1
LARA_traffic_light/Lara3D_UrbanSeq1_JPG/frame_008134.jpg,1
LARA_traffic_light/Lara3D_UrbanSeq1_JPG/frame_008135.jpg,1
LARA_traffic_light/Lara3D_UrbanSeq1_JPG/frame_008136.jpg,1
LARA_traffic_light/Lara3D_UrbanSeq1_JPG/frame_008137.jpg,1
LARA_traffic_light/Lara3D_UrbanSeq1_JPG/frame_008138.jpg,1
LARA_traffic_light/Lara3D_UrbanSeq1_JPG/frame_008139.jpg,1
LARA_traffic_light/Lara3D_UrbanSeq1_JPG/frame_008140.jpg,1
LARA_traffic_light/Lara3D_UrbanSeq1_JPG/frame_008141.jpg,1
LARA_traffic_light/Lara3D_UrbanSeq1_JPG/frame_008142.jpg,1
LARA_traffic_light/Lara3D_UrbanSeq1_JPG/frame_008143.jpg,1
LARA_traffic_light/Lara3D_UrbanSeq1_JPG/frame_008144.jpg,1
LARA_traffic_light/Lara3D_UrbanSeq1_JPG/frame_008145.jpg,1
LARA_traffic_light/Lara3D_UrbanSeq1_JPG/frame_008146.jpg,1
LARA_traffic_light/Lara3D_UrbanSeq1_JPG/frame_008147.jpg,1
LARA_traffic_light/Lara3D_UrbanSeq1_JPG/frame_008148.jpg,1
LARA_traffic_light/Lara3D_UrbanSeq1_JPG/frame_008149.jpg,1
LARA_traffic_light/Lara3D_UrbanSeq1_JPG/frame_008150.jpg,1
LARA_traffic_light/Lara3D_UrbanSeq1_JPG/frame_008151.jpg,1
LARA_traffic_light/Lara3D_UrbanSeq1_JPG/frame_008152.jpg,1
LARA_traffic_light/Lara3D_UrbanSeq1_JPG/frame_008153.jpg,1
LARA_traffic_light/Lara3D_UrbanSeq1_JPG/frame_008154.jpg,1
LARA_traffic_light/Lara3D_UrbanSeq1_JPG/frame_008155.jpg,1
LARA_traffic_light/Lara3D_UrbanSeq1_JPG/frame_008156.jpg,1
LARA_traffic_light/Lara3D_UrbanSeq1_JPG/frame_008157.jpg,1
LARA_traffic_light/Lara3D_UrbanSeq1_JPG/frame_008158.jpg,1
LARA_traffic_light/Lara3D_UrbanSeq1_JPG/frame_008159.jpg,1
LARA_traffic_light/Lara3D_UrbanSeq1_JPG/frame_008160.jpg,1
LARA_traffic_light/Lara3D_UrbanSeq1_JPG/frame_008161.jpg,1
LARA_traffic_light/Lara3D_UrbanSeq1_JPG/frame_008162.jpg,1
LARA_traffic_light/Lara3D_UrbanSeq1_JPG/frame_008163.jpg,1
LARA_traffic_light/Lara3D_UrbanSeq1_JPG/frame_008164.jpg,1
LARA_traffic_light/Lara3D_UrbanSeq1_JPG/frame_008165.jpg,1
LARA_traffic_light/Lara3D_UrbanSeq1_JPG/frame_008166.jpg,1
LARA_traffic_light/Lara3D_UrbanSeq1_JPG/frame_008167.jpg,1
LARA_traffic_light/Lara3D_UrbanSeq1_JPG/frame_008168.jpg,1
LARA_traffic_light/Lara3D_UrbanSeq1_JPG/frame_008169.jpg,1
LARA_traffic_light/Lara3D_UrbanSeq1_JPG/frame_008170.jpg,1
LARA_traffic_light/Lara3D_UrbanSeq1_JPG/frame_008171.jpg,1
LARA_traffic_light/Lara3D_UrbanSeq1_JPG/frame_008172.jpg,1
LARA_traffic_light/Lara3D_UrbanSeq1_JPG/frame_008173.jpg,1
LARA_traffic_light/Lara3D_UrbanSeq1_JPG/frame_008174.jpg,1
LARA_traffic_light/Lara3D_UrbanSeq1_JPG/frame_008175.jpg,1
LARA_traffic_light/Lara3D_UrbanSeq1_JPG/frame_008176.jpg,1
LARA_traffic_light/Lara3D_UrbanSeq1_JPG/frame_008177.jpg,1
LARA_traffic_light/Lara3D_UrbanSeq1_JPG/frame_008178.jpg,1
LARA_traffic_light/Lara3D_UrbanSeq1_JPG/frame_008179.jpg,1
LARA_traffic_light/Lara3D_UrbanSeq1_JPG/frame_008180.jpg,1
LARA_traffic_light/Lara3D_UrbanSeq1_JPG/frame_008181.jpg,1
LARA_traffic_light/Lara3D_UrbanSeq1_JPG/frame_008182.jpg,1
LARA_traffic_light/Lara3D_UrbanSeq1_JPG/frame_008183.jpg,1
LARA_traffic_light/Lara3D_UrbanSeq1_JPG/frame_008184.jpg,1
LARA_traffic_light/Lara3D_UrbanSeq1_JPG/frame_008185.jpg,1
LARA_traffic_light/Lara3D_UrbanSeq1_JPG/frame_008186.jpg,1
LARA_traffic_light/Lara3D_UrbanSeq1_JPG/frame_008187.jpg,1
LARA_traffic_light/Lara3D_UrbanSeq1_JPG/frame_008188.jpg,1
LARA_traffic_light/Lara3D_UrbanSeq1_JPG/frame_008189.jpg,1
LARA_traffic_light/Lara3D_UrbanSeq1_JPG/frame_008190.jpg,1
LARA_traffic_light/Lara3D_UrbanSeq1_JPG/frame_008191.jpg,1
LARA_traffic_light/Lara3D_UrbanSeq1_JPG/frame_008192.jpg,1
LARA_traffic_light/Lara3D_UrbanSeq1_JPG/frame_008193.jpg,1
LARA_traffic_light/Lara3D_UrbanSeq1_JPG/frame_008194.jpg,1
LARA_traffic_light/Lara3D_UrbanSeq1_JPG/frame_008195.jpg,1
LARA_traffic_light/Lara3D_UrbanSeq1_JPG/frame_008196.jpg,1
LARA_traffic_light/Lara3D_UrbanSeq1_JPG/frame_008197.jpg,1
LARA_traffic_light/Lara3D_UrbanSeq1_JPG/frame_008198.jpg,1
LARA_traffic_light/Lara3D_UrbanSeq1_JPG/frame_008199.jpg,1
LARA_traffic_light/Lara3D_UrbanSeq1_JPG/frame_008200.jpg,1
LARA_traffic_light/Lara3D_UrbanSeq1_JPG/frame_008201.jpg,1
LARA_traffic_light/Lara3D_UrbanSeq1_JPG/frame_008202.jpg,1
LARA_traffic_light/Lara3D_UrbanSeq1_JPG/frame_008203.jpg,1
LARA_traffic_light/Lara3D_UrbanSeq1_JPG/frame_008204.jpg,1
LARA_traffic_light/Lara3D_UrbanSeq1_JPG/frame_008205.jpg,1
LARA_traffic_light/Lara3D_UrbanSeq1_JPG/frame_008206.jpg,1
LARA_traffic_light/Lara3D_UrbanSeq1_JPG/frame_008207.jpg,1
LARA_traffic_light/Lara3D_UrbanSeq1_JPG/frame_008208.jpg,1
LARA_traffic_light/Lara3D_UrbanSeq1_JPG/frame_008209.jpg,1
LARA_traffic_light/Lara3D_UrbanSeq1_JPG/frame_008210.jpg,1
LARA_traffic_light/Lara3D_UrbanSeq1_JPG/frame_008211.jpg,1
LARA_traffic_light/Lara3D_UrbanSeq1_JPG/frame_008212.jpg,1
LARA_traffic_light/Lara3D_UrbanSeq1_JPG/frame_008213.jpg,1
LARA_traffic_light/Lara3D_UrbanSeq1_JPG/frame_008214.jpg,1
LARA_traffic_light/Lara3D_UrbanSeq1_JPG/frame_008215.jpg,1
LARA_traffic_light/Lara3D_UrbanSeq1_JPG/frame_008216.jpg,1
LARA_traffic_light/Lara3D_UrbanSeq1_JPG/frame_008217.jpg,1
LARA_traffic_light/Lara3D_UrbanSeq1_JPG/frame_008218.jpg,1
LARA_traffic_light/Lara3D_UrbanSeq1_JPG/frame_008219.jpg,1
LARA_traffic_light/Lara3D_UrbanSeq1_JPG/frame_008220.jpg,1
LARA_traffic_light/Lara3D_UrbanSeq1_JPG/frame_008221.jpg,1
LARA_traffic_light/Lara3D_UrbanSeq1_JPG/frame_008222.jpg,1
LARA_traffic_light/Lara3D_UrbanSeq1_JPG/frame_008223.jpg,1
LARA_traffic_light/Lara3D_UrbanSeq1_JPG/frame_008224.jpg,1
LARA_traffic_light/Lara3D_UrbanSeq1_JPG/frame_008225.jpg,1
LARA_traffic_light/Lara3D_UrbanSeq1_JPG/frame_008226.jpg,1
LARA_traffic_light/Lara3D_UrbanSeq1_JPG/frame_008227.jpg,1
LARA_traffic_light/Lara3D_UrbanSeq1_JPG/frame_008228.jpg,1
LARA_traffic_light/Lara3D_UrbanSeq1_JPG/frame_008229.jpg,1
LARA_traffic_light/Lara3D_UrbanSeq1_JPG/frame_008230.jpg,1
LARA_traffic_light/Lara3D_UrbanSeq1_JPG/frame_008231.jpg,1
LARA_traffic_light/Lara3D_UrbanSeq1_JPG/frame_008232.jpg,1
LARA_traffic_light/Lara3D_UrbanSeq1_JPG/frame_008233.jpg,1
LARA_traffic_light/Lara3D_UrbanSeq1_JPG/frame_008234.jpg,1
LARA_traffic_light/Lara3D_UrbanSeq1_JPG/frame_008235.jpg,1
LARA_traffic_light/Lara3D_UrbanSeq1_JPG/frame_008236.jpg,1
LARA_traffic_light/Lara3D_UrbanSeq1_JPG/frame_008237.jpg,1
LARA_traffic_light/Lara3D_UrbanSeq1_JPG/frame_008238.jpg,1
LARA_traffic_light/Lara3D_UrbanSeq1_JPG/frame_008239.jpg,1
LARA_traffic_light/Lara3D_UrbanSeq1_JPG/frame_008240.jpg,1
LARA_traffic_light/Lara3D_UrbanSeq1_JPG/frame_008241.jpg,1
LARA_traffic_light/Lara3D_UrbanSeq1_JPG/frame_008242.jpg,1
LARA_traffic_light/Lara3D_UrbanSeq1_JPG/frame_008243.jpg,1
LARA_traffic_light/Lara3D_UrbanSeq1_JPG/frame_008244.jpg,1
LARA_traffic_light/Lara3D_UrbanSeq1_JPG/frame_008245.jpg,1
LARA_traffic_light/Lara3D_UrbanSeq1_JPG/frame_008246.jpg,1
LARA_traffic_light/Lara3D_UrbanSeq1_JPG/frame_008247.jpg,1
LARA_traffic_light/Lara3D_UrbanSeq1_JPG/frame_008248.jpg,1
LARA_traffic_light/Lara3D_UrbanSeq1_JPG/frame_008249.jpg,1
LARA_traffic_light/Lara3D_UrbanSeq1_JPG/frame_008250.jpg,1
LARA_traffic_light/Lara3D_UrbanSeq1_JPG/frame_008251.jpg,1
LARA_traffic_light/Lara3D_UrbanSeq1_JPG/frame_008252.jpg,1
LARA_traffic_light/Lara3D_UrbanSeq1_JPG/frame_008253.jpg,1
LARA_traffic_light/Lara3D_UrbanSeq1_JPG/frame_008254.jpg,1
LARA_traffic_light/Lara3D_UrbanSeq1_JPG/frame_008255.jpg,1
LARA_traffic_light/Lara3D_UrbanSeq1_JPG/frame_008256.jpg,1
LARA_traffic_light/Lara3D_UrbanSeq1_JPG/frame_008257.jpg,1
LARA_traffic_light/Lara3D_UrbanSeq1_JPG/frame_008258.jpg,1
LARA_traffic_light/Lara3D_UrbanSeq1_JPG/frame_008259.jpg,1
LARA_traffic_light/Lara3D_UrbanSeq1_JPG/frame_008260.jpg,1
LARA_traffic_light/Lara3D_UrbanSeq1_JPG/frame_008261.jpg,1
LARA_traffic_light/Lara3D_UrbanSeq1_JPG/frame_008262.jpg,1
LARA_traffic_light/Lara3D_UrbanSeq1_JPG/frame_008263.jpg,1
LARA_traffic_light/Lara3D_UrbanSeq1_JPG/frame_008264.jpg,1
LARA_traffic_light/Lara3D_UrbanSeq1_JPG/frame_008265.jpg,1
LARA_traffic_light/Lara3D_UrbanSeq1_JPG/frame_008266.jpg,1
LARA_traffic_light/Lara3D_UrbanSeq1_JPG/frame_008267.jpg,1
LARA_traffic_light/Lara3D_UrbanSeq1_JPG/frame_008268.jpg,1
LARA_traffic_light/Lara3D_UrbanSeq1_JPG/frame_008269.jpg,1
LARA_traffic_light/Lara3D_UrbanSeq1_JPG/frame_008270.jpg,1
LARA_traffic_light/Lara3D_UrbanSeq1_JPG/frame_008271.jpg,1
LARA_traffic_light/Lara3D_UrbanSeq1_JPG/frame_008272.jpg,1
LARA_traffic_light/Lara3D_UrbanSeq1_JPG/frame_008273.jpg,1
LARA_traffic_light/Lara3D_UrbanSeq1_JPG/frame_008274.jpg,1
LARA_traffic_light/Lara3D_UrbanSeq1_JPG/frame_008275.jpg,1
LARA_traffic_light/Lara3D_UrbanSeq1_JPG/frame_008276.jpg,1
LARA_traffic_light/Lara3D_UrbanSeq1_JPG/frame_008277.jpg,1
LARA_traffic_light/Lara3D_UrbanSeq1_JPG/frame_008278.jpg,1
LARA_traffic_light/Lara3D_UrbanSeq1_JPG/frame_008279.jpg,1
LARA_traffic_light/Lara3D_UrbanSeq1_JPG/frame_008280.jpg,1
LARA_traffic_light/Lara3D_UrbanSeq1_JPG/frame_008281.jpg,1
LARA_traffic_light/Lara3D_UrbanSeq1_JPG/frame_008282.jpg,1
LARA_traffic_light/Lara3D_UrbanSeq1_JPG/frame_008283.jpg,1
LARA_traffic_light/Lara3D_UrbanSeq1_JPG/frame_008284.jpg,1
LARA_traffic_light/Lara3D_UrbanSeq1_JPG/frame_008285.jpg,1
LARA_traffic_light/Lara3D_UrbanSeq1_JPG/frame_008286.jpg,1
LARA_traffic_light/Lara3D_UrbanSeq1_JPG/frame_008287.jpg,1
LARA_traffic_light/Lara3D_UrbanSeq1_JPG/frame_008288.jpg,1
LARA_traffic_light/Lara3D_UrbanSeq1_JPG/frame_008289.jpg,1
LARA_traffic_light/Lara3D_UrbanSeq1_JPG/frame_008290.jpg,1
LARA_traffic_light/Lara3D_UrbanSeq1_JPG/frame_008291.jpg,1
LARA_traffic_light/Lara3D_UrbanSeq1_JPG/frame_008292.jpg,1
LARA_traffic_light/Lara3D_UrbanSeq1_JPG/frame_008293.jpg,1
LARA_traffic_light/Lara3D_UrbanSeq1_JPG/frame_008294.jpg,1
LARA_traffic_light/Lara3D_UrbanSeq1_JPG/frame_008295.jpg,1
LARA_traffic_light/Lara3D_UrbanSeq1_JPG/frame_008296.jpg,1
LARA_traffic_light/Lara3D_UrbanSeq1_JPG/frame_008297.jpg,1
LARA_traffic_light/Lara3D_UrbanSeq1_JPG/frame_008298.jpg,1
LARA_traffic_light/Lara3D_UrbanSeq1_JPG/frame_008299.jpg,1
LARA_traffic_light/Lara3D_UrbanSeq1_JPG/frame_008300.jpg,1
LARA_traffic_light/Lara3D_UrbanSeq1_JPG/frame_008301.jpg,1
LARA_traffic_light/Lara3D_UrbanSeq1_JPG/frame_008302.jpg,1
LARA_traffic_light/Lara3D_UrbanSeq1_JPG/frame_008303.jpg,1
LARA_traffic_light/Lara3D_UrbanSeq1_JPG/frame_008304.jpg,1
LARA_traffic_light/Lara3D_UrbanSeq1_JPG/frame_008305.jpg,1
LARA_traffic_light/Lara3D_UrbanSeq1_JPG/frame_008306.jpg,1
LARA_traffic_light/Lara3D_UrbanSeq1_JPG/frame_008307.jpg,1
LARA_traffic_light/Lara3D_UrbanSeq1_JPG/frame_008308.jpg,1
LARA_traffic_light/Lara3D_UrbanSeq1_JPG/frame_008309.jpg,1
LARA_traffic_light/Lara3D_UrbanSeq1_JPG/frame_008310.jpg,1
LARA_traffic_light/Lara3D_UrbanSeq1_JPG/frame_008311.jpg,1
LARA_traffic_light/Lara3D_UrbanSeq1_JPG/frame_008312.jpg,1
LARA_traffic_light/Lara3D_UrbanSeq1_JPG/frame_008313.jpg,1
LARA_traffic_light/Lara3D_UrbanSeq1_JPG/frame_008314.jpg,1
LARA_traffic_light/Lara3D_UrbanSeq1_JPG/frame_008315.jpg,1
LARA_traffic_light/Lara3D_UrbanSeq1_JPG/frame_008316.jpg,1
LARA_traffic_light/Lara3D_UrbanSeq1_JPG/frame_008317.jpg,1
LARA_traffic_light/Lara3D_UrbanSeq1_JPG/frame_008318.jpg,1
LARA_traffic_light/Lara3D_UrbanSeq1_JPG/frame_008319.jpg,1
LARA_traffic_light/Lara3D_UrbanSeq1_JPG/frame_008320.jpg,1
LARA_traffic_light/Lara3D_UrbanSeq1_JPG/frame_008321.jpg,1
LARA_traffic_light/Lara3D_UrbanSeq1_JPG/frame_008322.jpg,1
LARA_traffic_light/Lara3D_UrbanSeq1_JPG/frame_008323.jpg,1
LARA_traffic_light/Lara3D_UrbanSeq1_JPG/frame_008324.jpg,1
LARA_traffic_light/Lara3D_UrbanSeq1_JPG/frame_008325.jpg,1
LARA_traffic_light/Lara3D_UrbanSeq1_JPG/frame_008326.jpg,1
LARA_traffic_light/Lara3D_UrbanSeq1_JPG/frame_008327.jpg,1
LARA_traffic_light/Lara3D_UrbanSeq1_JPG/frame_008328.jpg,1
LARA_traffic_light/Lara3D_UrbanSeq1_JPG/frame_008329.jpg,1
LARA_traffic_light/Lara3D_UrbanSeq1_JPG/frame_008330.jpg,1
LARA_traffic_light/Lara3D_UrbanSeq1_JPG/frame_008331.jpg,1
LARA_traffic_light/Lara3D_UrbanSeq1_JPG/frame_008332.jpg,1
LARA_traffic_light/Lara3D_UrbanSeq1_JPG/frame_008333.jpg,1
LARA_traffic_light/Lara3D_UrbanSeq1_JPG/frame_008334.jpg,1
LARA_traffic_light/Lara3D_UrbanSeq1_JPG/frame_008335.jpg,1
LARA_traffic_light/Lara3D_UrbanSeq1_JPG/frame_008336.jpg,1
LARA_traffic_light/Lara3D_UrbanSeq1_JPG/frame_008337.jpg,1
LARA_traffic_light/Lara3D_UrbanSeq1_JPG/frame_008338.jpg,1
LARA_traffic_light/Lara3D_UrbanSeq1_JPG/frame_008339.jpg,1
LARA_traffic_light/Lara3D_UrbanSeq1_JPG/frame_008340.jpg,1
LARA_traffic_light/Lara3D_UrbanSeq1_JPG/frame_008341.jpg,1
LARA_traffic_light/Lara3D_UrbanSeq1_JPG/frame_008342.jpg,1
LARA_traffic_light/Lara3D_UrbanSeq1_JPG/frame_008343.jpg,1
LARA_traffic_light/Lara3D_UrbanSeq1_JPG/frame_008344.jpg,1
LARA_traffic_light/Lara3D_UrbanSeq1_JPG/frame_008345.jpg,1
LARA_traffic_light/Lara3D_UrbanSeq1_JPG/frame_008346.jpg,1
LARA_traffic_light/Lara3D_UrbanSeq1_JPG/frame_008347.jpg,1
LARA_traffic_light/Lara3D_UrbanSeq1_JPG/frame_008348.jpg,1
LARA_traffic_light/Lara3D_UrbanSeq1_JPG/frame_008349.jpg,1
LARA_traffic_light/Lara3D_UrbanSeq1_JPG/frame_008350.jpg,1
LARA_traffic_light/Lara3D_UrbanSeq1_JPG/frame_008351.jpg,1
LARA_traffic_light/Lara3D_UrbanSeq1_JPG/frame_008352.jpg,1
LARA_traffic_light/Lara3D_UrbanSeq1_JPG/frame_008353.jpg,1
LARA_traffic_light/Lara3D_UrbanSeq1_JPG/frame_008354.jpg,1
LARA_traffic_light/Lara3D_UrbanSeq1_JPG/frame_008355.jpg,1
LARA_traffic_light/Lara3D_UrbanSeq1_JPG/frame_008356.jpg,1
LARA_traffic_light/Lara3D_UrbanSeq1_JPG/frame_008357.jpg,1
LARA_traffic_light/Lara3D_UrbanSeq1_JPG/frame_008358.jpg,1
LARA_traffic_light/Lara3D_UrbanSeq1_JPG/frame_008359.jpg,1
LARA_traffic_light/Lara3D_UrbanSeq1_JPG/frame_008360.jpg,1
LARA_traffic_light/Lara3D_UrbanSeq1_JPG/frame_008361.jpg,1
LARA_traffic_light/Lara3D_UrbanSeq1_JPG/frame_008362.jpg,1
LARA_traffic_light/Lara3D_UrbanSeq1_JPG/frame_008363.jpg,1
LARA_traffic_light/Lara3D_UrbanSeq1_JPG/frame_008364.jpg,1
LARA_traffic_light/Lara3D_UrbanSeq1_JPG/frame_008365.jpg,1
LARA_traffic_light/Lara3D_UrbanSeq1_JPG/frame_008366.jpg,1
LARA_traffic_light/Lara3D_UrbanSeq1_JPG/frame_008367.jpg,1
LARA_traffic_light/Lara3D_UrbanSeq1_JPG/frame_008368.jpg,1
LARA_traffic_light/Lara3D_UrbanSeq1_JPG/frame_008369.jpg,1
LARA_traffic_light/Lara3D_UrbanSeq1_JPG/frame_008370.jpg,1
LARA_traffic_light/Lara3D_UrbanSeq1_JPG/frame_008371.jpg,1
LARA_traffic_light/Lara3D_UrbanSeq1_JPG/frame_008372.jpg,1
LARA_traffic_light/Lara3D_UrbanSeq1_JPG/frame_008373.jpg,1
LARA_traffic_light/Lara3D_UrbanSeq1_JPG/frame_008374.jpg,1
LARA_traffic_light/Lara3D_UrbanSeq1_JPG/frame_008375.jpg,1
LARA_traffic_light/Lara3D_UrbanSeq1_JPG/frame_008376.jpg,1
LARA_traffic_light/Lara3D_UrbanSeq1_JPG/frame_008377.jpg,1
LARA_traffic_light/Lara3D_UrbanSeq1_JPG/frame_008378.jpg,1
LARA_traffic_light/Lara3D_UrbanSeq1_JPG/frame_008379.jpg,1
LARA_traffic_light/Lara3D_UrbanSeq1_JPG/frame_008380.jpg,1
LARA_traffic_light/Lara3D_UrbanSeq1_JPG/frame_008381.jpg,1
LARA_traffic_light/Lara3D_UrbanSeq1_JPG/frame_008382.jpg,1
LARA_traffic_light/Lara3D_UrbanSeq1_JPG/frame_008383.jpg,1
LARA_traffic_light/Lara3D_UrbanSeq1_JPG/frame_008384.jpg,1
LARA_traffic_light/Lara3D_UrbanSeq1_JPG/frame_008385.jpg,1
LARA_traffic_light/Lara3D_UrbanSeq1_JPG/frame_008386.jpg,1
LARA_traffic_light/Lara3D_UrbanSeq1_JPG/frame_008387.jpg,1
LARA_traffic_light/Lara3D_UrbanSeq1_JPG/frame_008388.jpg,1
LARA_traffic_light/Lara3D_UrbanSeq1_JPG/frame_008389.jpg,1
LARA_traffic_light/Lara3D_UrbanSeq1_JPG/frame_008390.jpg,1
LARA_traffic_light/Lara3D_UrbanSeq1_JPG/frame_008391.jpg,1
LARA_traffic_light/Lara3D_UrbanSeq1_JPG/frame_008392.jpg,1
LARA_traffic_light/Lara3D_UrbanSeq1_JPG/frame_008393.jpg,1
LARA_traffic_light/Lara3D_UrbanSeq1_JPG/frame_008394.jpg,1
LARA_traffic_light/Lara3D_UrbanSeq1_JPG/frame_008395.jpg,1
LARA_traffic_light/Lara3D_UrbanSeq1_JPG/frame_008396.jpg,1
LARA_traffic_light/Lara3D_UrbanSeq1_JPG/frame_008397.jpg,1
LARA_traffic_light/Lara3D_UrbanSeq1_JPG/frame_008398.jpg,1
LARA_traffic_light/Lara3D_UrbanSeq1_JPG/frame_008399.jpg,1
LARA_traffic_light/Lara3D_UrbanSeq1_JPG/frame_008400.jpg,1
LARA_traffic_light/Lara3D_UrbanSeq1_JPG/frame_008401.jpg,1
LARA_traffic_light/Lara3D_UrbanSeq1_JPG/frame_008402.jpg,1
LARA_traffic_light/Lara3D_UrbanSeq1_JPG/frame_008403.jpg,1
LARA_traffic_light/Lara3D_UrbanSeq1_JPG/frame_008404.jpg,1
LARA_traffic_light/Lara3D_UrbanSeq1_JPG/frame_008405.jpg,1
LARA_traffic_light/Lara3D_UrbanSeq1_JPG/frame_008406.jpg,1
LARA_traffic_light/Lara3D_UrbanSeq1_JPG/frame_008407.jpg,1
LARA_traffic_light/Lara3D_UrbanSeq1_JPG/frame_008408.jpg,1
LARA_traffic_light/Lara3D_UrbanSeq1_JPG/frame_008409.jpg,1
LARA_traffic_light/Lara3D_UrbanSeq1_JPG/frame_008410.jpg,1
LARA_traffic_light/Lara3D_UrbanSeq1_JPG/frame_008411.jpg,1
LARA_traffic_light/Lara3D_UrbanSeq1_JPG/frame_008412.jpg,1
LARA_traffic_light/Lara3D_UrbanSeq1_JPG/frame_008413.jpg,1
LARA_traffic_light/Lara3D_UrbanSeq1_JPG/frame_008414.jpg,1
LARA_traffic_light/Lara3D_UrbanSeq1_JPG/frame_008415.jpg,1
LARA_traffic_light/Lara3D_UrbanSeq1_JPG/frame_008416.jpg,1
LARA_traffic_light/Lara3D_UrbanSeq1_JPG/frame_008417.jpg,1
LARA_traffic_light/Lara3D_UrbanSeq1_JPG/frame_008418.jpg,1
LARA_traffic_light/Lara3D_UrbanSeq1_JPG/frame_008419.jpg,1
LARA_traffic_light/Lara3D_UrbanSeq1_JPG/frame_008420.jpg,1
LARA_traffic_light/Lara3D_UrbanSeq1_JPG/frame_008421.jpg,1
LARA_traffic_light/Lara3D_UrbanSeq1_JPG/frame_008422.jpg,1
LARA_traffic_light/Lara3D_UrbanSeq1_JPG/frame_008423.jpg,1
LARA_traffic_light/Lara3D_UrbanSeq1_JPG/frame_008424.jpg,1
LARA_traffic_light/Lara3D_UrbanSeq1_JPG/frame_008425.jpg,1
LARA_traffic_light/Lara3D_UrbanSeq1_JPG/frame_008426.jpg,1
LARA_traffic_light/Lara3D_UrbanSeq1_JPG/frame_008427.jpg,1
LARA_traffic_light/Lara3D_UrbanSeq1_JPG/frame_008428.jpg,1
LARA_traffic_light/Lara3D_UrbanSeq1_JPG/frame_008429.jpg,1
LARA_traffic_light/Lara3D_UrbanSeq1_JPG/frame_008430.jpg,1
LARA_traffic_light/Lara3D_UrbanSeq1_JPG/frame_008431.jpg,1
LARA_traffic_light/Lara3D_UrbanSeq1_JPG/frame_008432.jpg,1
LARA_traffic_light/Lara3D_UrbanSeq1_JPG/frame_008433.jpg,1
LARA_traffic_light/Lara3D_UrbanSeq1_JPG/frame_008434.jpg,1
LARA_traffic_light/Lara3D_UrbanSeq1_JPG/frame_008435.jpg,1
LARA_traffic_light/Lara3D_UrbanSeq1_JPG/frame_008436.jpg,1
LARA_traffic_light/Lara3D_UrbanSeq1_JPG/frame_008437.jpg,1
LARA_traffic_light/Lara3D_UrbanSeq1_JPG/frame_008438.jpg,1
LARA_traffic_light/Lara3D_UrbanSeq1_JPG/frame_008439.jpg,1
LARA_traffic_light/Lara3D_UrbanSeq1_JPG/frame_008440.jpg,1
LARA_traffic_light/Lara3D_UrbanSeq1_JPG/frame_008441.jpg,1
LARA_traffic_light/Lara3D_UrbanSeq1_JPG/frame_008442.jpg,1
LARA_traffic_light/Lara3D_UrbanSeq1_JPG/frame_008443.jpg,1
LARA_traffic_light/Lara3D_UrbanSeq1_JPG/frame_008444.jpg,1
LARA_traffic_light/Lara3D_UrbanSeq1_JPG/frame_008445.jpg,1
LARA_traffic_light/Lara3D_UrbanSeq1_JPG/frame_008446.jpg,1
LARA_traffic_light/Lara3D_UrbanSeq1_JPG/frame_008447.jpg,1
LARA_traffic_light/Lara3D_UrbanSeq1_JPG/frame_008448.jpg,1
LARA_traffic_light/Lara3D_UrbanSeq1_JPG/frame_008449.jpg,1
LARA_traffic_light/Lara3D_UrbanSeq1_JPG/frame_008450.jpg,1
LARA_traffic_light/Lara3D_UrbanSeq1_JPG/frame_008451.jpg,1
LARA_traffic_light/Lara3D_UrbanSeq1_JPG/frame_008452.jpg,1
LARA_traffic_light/Lara3D_UrbanSeq1_JPG/frame_008453.jpg,1
LARA_traffic_light/Lara3D_UrbanSeq1_JPG/frame_008454.jpg,1
LARA_traffic_light/Lara3D_UrbanSeq1_JPG/frame_008455.jpg,1
LARA_traffic_light/Lara3D_UrbanSeq1_JPG/frame_008456.jpg,1
LARA_traffic_light/Lara3D_UrbanSeq1_JPG/frame_008457.jpg,1
LARA_traffic_light/Lara3D_UrbanSeq1_JPG/frame_008458.jpg,1
LARA_traffic_light/Lara3D_UrbanSeq1_JPG/frame_008459.jpg,1
LARA_traffic_light/Lara3D_UrbanSeq1_JPG/frame_008460.jpg,1
LARA_traffic_light/Lara3D_UrbanSeq1_JPG/frame_008461.jpg,1
LARA_traffic_light/Lara3D_UrbanSeq1_JPG/frame_008462.jpg,1
LARA_traffic_light/Lara3D_UrbanSeq1_JPG/frame_008463.jpg,1
LARA_traffic_light/Lara3D_UrbanSeq1_JPG/frame_008464.jpg,1
LARA_traffic_light/Lara3D_UrbanSeq1_JPG/frame_008465.jpg,1
LARA_traffic_light/Lara3D_UrbanSeq1_JPG/frame_008466.jpg,1
LARA_traffic_light/Lara3D_UrbanSeq1_JPG/frame_008467.jpg,1
LARA_traffic_light/Lara3D_UrbanSeq1_JPG/frame_008468.jpg,1
LARA_traffic_light/Lara3D_UrbanSeq1_JPG/frame_008469.jpg,1
LARA_traffic_light/Lara3D_UrbanSeq1_JPG/frame_008470.jpg,1
LARA_traffic_light/Lara3D_UrbanSeq1_JPG/frame_008471.jpg,1
LARA_traffic_light/Lara3D_UrbanSeq1_JPG/frame_008472.jpg,1
LARA_traffic_light/Lara3D_UrbanSeq1_JPG/frame_008473.jpg,1
LARA_traffic_light/Lara3D_UrbanSeq1_JPG/frame_008474.jpg,1
LARA_traffic_light/Lara3D_UrbanSeq1_JPG/frame_008475.jpg,1
LARA_traffic_light/Lara3D_UrbanSeq1_JPG/frame_008476.jpg,1
LARA_traffic_light/Lara3D_UrbanSeq1_JPG/frame_008477.jpg,1
LARA_traffic_light/Lara3D_UrbanSeq1_JPG/frame_008478.jpg,1
LARA_traffic_light/Lara3D_UrbanSeq1_JPG/frame_008479.jpg,1
LARA_traffic_light/Lara3D_UrbanSeq1_JPG/frame_008480.jpg,1
LARA_traffic_light/Lara3D_UrbanSeq1_JPG/frame_008481.jpg,1
LARA_traffic_light/Lara3D_UrbanSeq1_JPG/frame_008482.jpg,1
LARA_traffic_light/Lara3D_UrbanSeq1_JPG/frame_008483.jpg,1
LARA_traffic_light/Lara3D_UrbanSeq1_JPG/frame_008484.jpg,1
LARA_traffic_light/Lara3D_UrbanSeq1_JPG/frame_008485.jpg,1
LARA_traffic_light/Lara3D_UrbanSeq1_JPG/frame_008486.jpg,1
LARA_traffic_light/Lara3D_UrbanSeq1_JPG/frame_008487.jpg,1
LARA_traffic_light/Lara3D_UrbanSeq1_JPG/frame_008488.jpg,1
LARA_traffic_light/Lara3D_UrbanSeq1_JPG/frame_008489.jpg,1
LARA_traffic_light/Lara3D_UrbanSeq1_JPG/frame_008490.jpg,1
LARA_traffic_light/Lara3D_UrbanSeq1_JPG/frame_008491.jpg,1
LARA_traffic_light/Lara3D_UrbanSeq1_JPG/frame_008492.jpg,1
LARA_traffic_light/Lara3D_UrbanSeq1_JPG/frame_008493.jpg,1
LARA_traffic_light/Lara3D_UrbanSeq1_JPG/frame_008494.jpg,1
LARA_traffic_light/Lara3D_UrbanSeq1_JPG/frame_008495.jpg,1
LARA_traffic_light/Lara3D_UrbanSeq1_JPG/frame_008496.jpg,1
LARA_traffic_light/Lara3D_UrbanSeq1_JPG/frame_008497.jpg,1
LARA_traffic_light/Lara3D_UrbanSeq1_JPG/frame_008498.jpg,1
LARA_traffic_light/Lara3D_UrbanSeq1_JPG/frame_008499.jpg,1
LARA_traffic_light/Lara3D_UrbanSeq1_JPG/frame_008500.jpg,1
LARA_traffic_light/Lara3D_UrbanSeq1_JPG/frame_008501.jpg,1
LARA_traffic_light/Lara3D_UrbanSeq1_JPG/frame_008502.jpg,1
LARA_traffic_light/Lara3D_UrbanSeq1_JPG/frame_008503.jpg,1
LARA_traffic_light/Lara3D_UrbanSeq1_JPG/frame_008504.jpg,1
LARA_traffic_light/Lara3D_UrbanSeq1_JPG/frame_008505.jpg,1
LARA_traffic_light/Lara3D_UrbanSeq1_JPG/frame_008506.jpg,1
LARA_traffic_light/Lara3D_UrbanSeq1_JPG/frame_008507.jpg,1
LARA_traffic_light/Lara3D_UrbanSeq1_JPG/frame_008508.jpg,1
LARA_traffic_light/Lara3D_UrbanSeq1_JPG/frame_008509.jpg,1
LARA_traffic_light/Lara3D_UrbanSeq1_JPG/frame_008510.jpg,1
LARA_traffic_light/Lara3D_UrbanSeq1_JPG/frame_008511.jpg,1
LARA_traffic_light/Lara3D_UrbanSeq1_JPG/frame_008512.jpg,1
LARA_traffic_light/Lara3D_UrbanSeq1_JPG/frame_008513.jpg,1
LARA_traffic_light/Lara3D_UrbanSeq1_JPG/frame_008514.jpg,1
LARA_traffic_light/Lara3D_UrbanSeq1_JPG/frame_008515.jpg,1
LARA_traffic_light/Lara3D_UrbanSeq1_JPG/frame_008516.jpg,1
LARA_traffic_light/Lara3D_UrbanSeq1_JPG/frame_008517.jpg,1
LARA_traffic_light/Lara3D_UrbanSeq1_JPG/frame_008518.jpg,1
LARA_traffic_light/Lara3D_UrbanSeq1_JPG/frame_008519.jpg,1
LARA_traffic_light/Lara3D_UrbanSeq1_JPG/frame_008520.jpg,1
LARA_traffic_light/Lara3D_UrbanSeq1_JPG/frame_008521.jpg,1
LARA_traffic_light/Lara3D_UrbanSeq1_JPG/frame_008522.jpg,1
LARA_traffic_light/Lara3D_UrbanSeq1_JPG/frame_008523.jpg,1
LARA_traffic_light/Lara3D_UrbanSeq1_JPG/frame_008524.jpg,1
LARA_traffic_light/Lara3D_UrbanSeq1_JPG/frame_008525.jpg,1
LARA_traffic_light/Lara3D_UrbanSeq1_JPG/frame_008526.jpg,1
LARA_traffic_light/Lara3D_UrbanSeq1_JPG/frame_008527.jpg,1
LARA_traffic_light/Lara3D_UrbanSeq1_JPG/frame_008528.jpg,1
LARA_traffic_light/Lara3D_UrbanSeq1_JPG/frame_008529.jpg,1
LARA_traffic_light/Lara3D_UrbanSeq1_JPG/frame_008530.jpg,1
LARA_traffic_light/Lara3D_UrbanSeq1_JPG/frame_008531.jpg,1
LARA_traffic_light/Lara3D_UrbanSeq1_JPG/frame_008532.jpg,1
LARA_traffic_light/Lara3D_UrbanSeq1_JPG/frame_008533.jpg,1
LARA_traffic_light/Lara3D_UrbanSeq1_JPG/frame_008534.jpg,1
LARA_traffic_light/Lara3D_UrbanSeq1_JPG/frame_008535.jpg,1
LARA_traffic_light/Lara3D_UrbanSeq1_JPG/frame_008536.jpg,1
LARA_traffic_light/Lara3D_UrbanSeq1_JPG/frame_008537.jpg,1
LARA_traffic_light/Lara3D_UrbanSeq1_JPG/frame_008538.jpg,1
LARA_traffic_light/Lara3D_UrbanSeq1_JPG/frame_008539.jpg,1
LARA_traffic_light/Lara3D_UrbanSeq1_JPG/frame_008540.jpg,1
LARA_traffic_light/Lara3D_UrbanSeq1_JPG/frame_008541.jpg,1
LARA_traffic_light/Lara3D_UrbanSeq1_JPG/frame_008542.jpg,1
LARA_traffic_light/Lara3D_UrbanSeq1_JPG/frame_008543.jpg,1
LARA_traffic_light/Lara3D_UrbanSeq1_JPG/frame_008544.jpg,1
LARA_traffic_light/Lara3D_UrbanSeq1_JPG/frame_008545.jpg,1
LARA_traffic_light/Lara3D_UrbanSeq1_JPG/frame_008546.jpg,1
LARA_traffic_light/Lara3D_UrbanSeq1_JPG/frame_008547.jpg,1
LARA_traffic_light/Lara3D_UrbanSeq1_JPG/frame_008548.jpg,1
LARA_traffic_light/Lara3D_UrbanSeq1_JPG/frame_008549.jpg,1
LARA_traffic_light/Lara3D_UrbanSeq1_JPG/frame_008550.jpg,1
LARA_traffic_light/Lara3D_UrbanSeq1_JPG/frame_008551.jpg,1
LARA_traffic_light/Lara3D_UrbanSeq1_JPG/frame_008552.jpg,1
LARA_traffic_light/Lara3D_UrbanSeq1_JPG/frame_008553.jpg,1
LARA_traffic_light/Lara3D_UrbanSeq1_JPG/frame_008583.jpg,2
LARA_traffic_light/Lara3D_UrbanSeq1_JPG/frame_008584.jpg,2
LARA_traffic_light/Lara3D_UrbanSeq1_JPG/frame_008585.jpg,2
LARA_traffic_light/Lara3D_UrbanSeq1_JPG/frame_008586.jpg,2
LARA_traffic_light/Lara3D_UrbanSeq1_JPG/frame_008587.jpg,2
LARA_traffic_light/Lara3D_UrbanSeq1_JPG/frame_008588.jpg,2
LARA_traffic_light/Lara3D_UrbanSeq1_JPG/frame_008589.jpg,2
LARA_traffic_light/Lara3D_UrbanSeq1_JPG/frame_008590.jpg,2
LARA_traffic_light/Lara3D_UrbanSeq1_JPG/frame_008591.jpg,2
LARA_traffic_light/Lara3D_UrbanSeq1_JPG/frame_008592.jpg,2
LARA_traffic_light/Lara3D_UrbanSeq1_JPG/frame_008593.jpg,2
LARA_traffic_light/Lara3D_UrbanSeq1_JPG/frame_008594.jpg,2
LARA_traffic_light/Lara3D_UrbanSeq1_JPG/frame_008595.jpg,2
LARA_traffic_light/Lara3D_UrbanSeq1_JPG/frame_008596.jpg,2
LARA_traffic_light/Lara3D_UrbanSeq1_JPG/frame_008597.jpg,2
LARA_traffic_light/Lara3D_UrbanSeq1_JPG/frame_008598.jpg,2
LARA_traffic_light/Lara3D_UrbanSeq1_JPG/frame_008599.jpg,2
LARA_traffic_light/Lara3D_UrbanSeq1_JPG/frame_008600.jpg,2
LARA_traffic_light/Lara3D_UrbanSeq1_JPG/frame_008601.jpg,2
LARA_traffic_light/Lara3D_UrbanSeq1_JPG/frame_008602.jpg,2
LARA_traffic_light/Lara3D_UrbanSeq1_JPG/frame_008603.jpg,2
LARA_traffic_light/Lara3D_UrbanSeq1_JPG/frame_008604.jpg,2
LARA_traffic_light/Lara3D_UrbanSeq1_JPG/frame_008605.jpg,2
LARA_traffic_light/Lara3D_UrbanSeq1_JPG/frame_008606.jpg,2
LARA_traffic_light/Lara3D_UrbanSeq1_JPG/frame_008607.jpg,2
LARA_traffic_light/Lara3D_UrbanSeq1_JPG/frame_008608.jpg,2
LARA_traffic_light/Lara3D_UrbanSeq1_JPG/frame_008609.jpg,2
LARA_traffic_light/Lara3D_UrbanSeq1_JPG/frame_008610.jpg,2
LARA_traffic_light/Lara3D_UrbanSeq1_JPG/frame_008611.jpg,2
LARA_traffic_light/Lara3D_UrbanSeq1_JPG/frame_008612.jpg,2
LARA_traffic_light/Lara3D_UrbanSeq1_JPG/frame_008613.jpg,2
LARA_traffic_light/Lara3D_UrbanSeq1_JPG/frame_008614.jpg,2
LARA_traffic_light/Lara3D_UrbanSeq1_JPG/frame_008615.jpg,2
LARA_traffic_light/Lara3D_UrbanSeq1_JPG/frame_008616.jpg,2
LARA_traffic_light/Lara3D_UrbanSeq1_JPG/frame_008617.jpg,2
LARA_traffic_light/Lara3D_UrbanSeq1_JPG/frame_008618.jpg,2
LARA_traffic_light/Lara3D_UrbanSeq1_JPG/frame_008619.jpg,2
LARA_traffic_light/Lara3D_UrbanSeq1_JPG/frame_008620.jpg,2
LARA_traffic_light/Lara3D_UrbanSeq1_JPG/frame_008621.jpg,2
LARA_traffic_light/Lara3D_UrbanSeq1_JPG/frame_008622.jpg,2
LARA_traffic_light/Lara3D_UrbanSeq1_JPG/frame_008623.jpg,2
LARA_traffic_light/Lara3D_UrbanSeq1_JPG/frame_008624.jpg,2
LARA_traffic_light/Lara3D_UrbanSeq1_JPG/frame_008625.jpg,2
LARA_traffic_light/Lara3D_UrbanSeq1_JPG/frame_008626.jpg,2
LARA_traffic_light/Lara3D_UrbanSeq1_JPG/frame_008627.jpg,2
LARA_traffic_light/Lara3D_UrbanSeq1_JPG/frame_008628.jpg,2
LARA_traffic_light/Lara3D_UrbanSeq1_JPG/frame_008629.jpg,2
LARA_traffic_light/Lara3D_UrbanSeq1_JPG/frame_008630.jpg,2
LARA_traffic_light/Lara3D_UrbanSeq1_JPG/frame_008631.jpg,2
LARA_traffic_light/Lara3D_UrbanSeq1_JPG/frame_008632.jpg,2
LARA_traffic_light/Lara3D_UrbanSeq1_JPG/frame_008633.jpg,2
LARA_traffic_light/Lara3D_UrbanSeq1_JPG/frame_008634.jpg,2
LARA_traffic_light/Lara3D_UrbanSeq1_JPG/frame_008635.jpg,2
LARA_traffic_light/Lara3D_UrbanSeq1_JPG/frame_008636.jpg,2
LARA_traffic_light/Lara3D_UrbanSeq1_JPG/frame_008637.jpg,2
LARA_traffic_light/Lara3D_UrbanSeq1_JPG/frame_008638.jpg,2
LARA_traffic_light/Lara3D_UrbanSeq1_JPG/frame_008639.jpg,2
LARA_traffic_light/Lara3D_UrbanSeq1_JPG/frame_008640.jpg,2
LARA_traffic_light/Lara3D_UrbanSeq1_JPG/frame_008641.jpg,2
LARA_traffic_light/Lara3D_UrbanSeq1_JPG/frame_008642.jpg,2
LARA_traffic_light/Lara3D_UrbanSeq1_JPG/frame_008643.jpg,2
LARA_traffic_light/Lara3D_UrbanSeq1_JPG/frame_008644.jpg,2
LARA_traffic_light/Lara3D_UrbanSeq1_JPG/frame_008645.jpg,2
LARA_traffic_light/Lara3D_UrbanSeq1_JPG/frame_008646.jpg,2
LARA_traffic_light/Lara3D_UrbanSeq1_JPG/frame_008647.jpg,2
LARA_traffic_light/Lara3D_UrbanSeq1_JPG/frame_008648.jpg,2
LARA_traffic_light/Lara3D_UrbanSeq1_JPG/frame_008649.jpg,2
LARA_traffic_light/Lara3D_UrbanSeq1_JPG/frame_008650.jpg,2
LARA_traffic_light/Lara3D_UrbanSeq1_JPG/frame_008651.jpg,2
LARA_traffic_light/Lara3D_UrbanSeq1_JPG/frame_008652.jpg,2
LARA_traffic_light/Lara3D_UrbanSeq1_JPG/frame_008653.jpg,2
LARA_traffic_light/Lara3D_UrbanSeq1_JPG/frame_008654.jpg,2
LARA_traffic_light/Lara3D_UrbanSeq1_JPG/frame_008655.jpg,2
LARA_traffic_light/Lara3D_UrbanSeq1_JPG/frame_008656.jpg,2
LARA_traffic_light/Lara3D_UrbanSeq1_JPG/frame_008657.jpg,2
LARA_traffic_light/Lara3D_UrbanSeq1_JPG/frame_008658.jpg,2
LARA_traffic_light/Lara3D_UrbanSeq1_JPG/frame_008659.jpg,2
LARA_traffic_light/Lara3D_UrbanSeq1_JPG/frame_008660.jpg,2
LARA_traffic_light/Lara3D_UrbanSeq1_JPG/frame_008661.jpg,2
LARA_traffic_light/Lara3D_UrbanSeq1_JPG/frame_008662.jpg,2
LARA_traffic_light/Lara3D_UrbanSeq1_JPG/frame_008663.jpg,2
LARA_traffic_light/Lara3D_UrbanSeq1_JPG/frame_008664.jpg,2
LARA_traffic_light/Lara3D_UrbanSeq1_JPG/frame_008665.jpg,2
LARA_traffic_light/Lara3D_UrbanSeq1_JPG/frame_008666.jpg,2
LARA_traffic_light/Lara3D_UrbanSeq1_JPG/frame_008667.jpg,2
LARA_traffic_light/Lara3D_UrbanSeq1_JPG/frame_008668.jpg,2
LARA_traffic_light/Lara3D_UrbanSeq1_JPG/frame_008669.jpg,2
LARA_traffic_light/Lara3D_UrbanSeq1_JPG/frame_008670.jpg,2
LARA_traffic_light/Lara3D_UrbanSeq1_JPG/frame_008671.jpg,2
LARA_traffic_light/Lara3D_UrbanSeq1_JPG/frame_008672.jpg,2
LARA_traffic_light/Lara3D_UrbanSeq1_JPG/frame_008673.jpg,2
LARA_traffic_light/Lara3D_UrbanSeq1_JPG/frame_008674.jpg,2
LARA_traffic_light/Lara3D_UrbanSeq1_JPG/frame_008675.jpg,2
LARA_traffic_light/Lara3D_UrbanSeq1_JPG/frame_008676.jpg,2
LARA_traffic_light/Lara3D_UrbanSeq1_JPG/frame_008677.jpg,2
LARA_traffic_light/Lara3D_UrbanSeq1_JPG/frame_008678.jpg,2
LARA_traffic_light/Lara3D_UrbanSeq1_JPG/frame_008679.jpg,2
LARA_traffic_light/Lara3D_UrbanSeq1_JPG/frame_008680.jpg,2
LARA_traffic_light/Lara3D_UrbanSeq1_JPG/frame_008681.jpg,2
LARA_traffic_light/Lara3D_UrbanSeq1_JPG/frame_008682.jpg,2
LARA_traffic_light/Lara3D_UrbanSeq1_JPG/frame_008683.jpg,2
LARA_traffic_light/Lara3D_UrbanSeq1_JPG/frame_008684.jpg,2
LARA_traffic_light/Lara3D_UrbanSeq1_JPG/frame_008685.jpg,2
LARA_traffic_light/Lara3D_UrbanSeq1_JPG/frame_008686.jpg,2
LARA_traffic_light/Lara3D_UrbanSeq1_JPG/frame_008687.jpg,2
LARA_traffic_light/Lara3D_UrbanSeq1_JPG/frame_008688.jpg,2
LARA_traffic_light/Lara3D_UrbanSeq1_JPG/frame_008689.jpg,2
LARA_traffic_light/Lara3D_UrbanSeq1_JPG/frame_008690.jpg,2
LARA_traffic_light/Lara3D_UrbanSeq1_JPG/frame_008691.jpg,2
LARA_traffic_light/Lara3D_UrbanSeq1_JPG/frame_008692.jpg,2
LARA_traffic_light/Lara3D_UrbanSeq1_JPG/frame_008693.jpg,2
LARA_traffic_light/Lara3D_UrbanSeq1_JPG/frame_008694.jpg,2
LARA_traffic_light/Lara3D_UrbanSeq1_JPG/frame_008695.jpg,2
LARA_traffic_light/Lara3D_UrbanSeq1_JPG/frame_008696.jpg,2
LARA_traffic_light/Lara3D_UrbanSeq1_JPG/frame_008697.jpg,2
LARA_traffic_light/Lara3D_UrbanSeq1_JPG/frame_008698.jpg,2
LARA_traffic_light/Lara3D_UrbanSeq1_JPG/frame_008699.jpg,2
LARA_traffic_light/Lara3D_UrbanSeq1_JPG/frame_008700.jpg,2
LARA_traffic_light/Lara3D_UrbanSeq1_JPG/frame_008701.jpg,2
LARA_traffic_light/Lara3D_UrbanSeq1_JPG/frame_008702.jpg,2
LARA_traffic_light/Lara3D_UrbanSeq1_JPG/frame_008703.jpg,2
LARA_traffic_light/Lara3D_UrbanSeq1_JPG/frame_008704.jpg,2
LARA_traffic_light/Lara3D_UrbanSeq1_JPG/frame_008705.jpg,2
LARA_traffic_light/Lara3D_UrbanSeq1_JPG/frame_008706.jpg,2
LARA_traffic_light/Lara3D_UrbanSeq1_JPG/frame_008707.jpg,2
LARA_traffic_light/Lara3D_UrbanSeq1_JPG/frame_008708.jpg,2
LARA_traffic_light/Lara3D_UrbanSeq1_JPG/frame_008709.jpg,2
LARA_traffic_light/Lara3D_UrbanSeq1_JPG/frame_008710.jpg,2
LARA_traffic_light/Lara3D_UrbanSeq1_JPG/frame_008711.jpg,2
LARA_traffic_light/Lara3D_UrbanSeq1_JPG/frame_008712.jpg,2
LARA_traffic_light/Lara3D_UrbanSeq1_JPG/frame_008713.jpg,2
LARA_traffic_light/Lara3D_UrbanSeq1_JPG/frame_008714.jpg,2
LARA_traffic_light/Lara3D_UrbanSeq1_JPG/frame_008715.jpg,2
LARA_traffic_light/Lara3D_UrbanSeq1_JPG/frame_008716.jpg,2
LARA_traffic_light/Lara3D_UrbanSeq1_JPG/frame_008717.jpg,2
LARA_traffic_light/Lara3D_UrbanSeq1_JPG/frame_008718.jpg,2
LARA_traffic_light/Lara3D_UrbanSeq1_JPG/frame_008719.jpg,2
LARA_traffic_light/Lara3D_UrbanSeq1_JPG/frame_008720.jpg,2
LARA_traffic_light/Lara3D_UrbanSeq1_JPG/frame_008721.jpg,2
LARA_traffic_light/Lara3D_UrbanSeq1_JPG/frame_008722.jpg,2
LARA_traffic_light/Lara3D_UrbanSeq1_JPG/frame_008723.jpg,2
LARA_traffic_light/Lara3D_UrbanSeq1_JPG/frame_008724.jpg,2
LARA_traffic_light/Lara3D_UrbanSeq1_JPG/frame_008725.jpg,2
LARA_traffic_light/Lara3D_UrbanSeq1_JPG/frame_008726.jpg,2
LARA_traffic_light/Lara3D_UrbanSeq1_JPG/frame_008727.jpg,2
LARA_traffic_light/Lara3D_UrbanSeq1_JPG/frame_008728.jpg,2
LARA_traffic_light/Lara3D_UrbanSeq1_JPG/frame_008729.jpg,2
LARA_traffic_light/Lara3D_UrbanSeq1_JPG/frame_008730.jpg,2
LARA_traffic_light/Lara3D_UrbanSeq1_JPG/frame_008731.jpg,2
LARA_traffic_light/Lara3D_UrbanSeq1_JPG/frame_008732.jpg,2
LARA_traffic_light/Lara3D_UrbanSeq1_JPG/frame_008733.jpg,2
LARA_traffic_light/Lara3D_UrbanSeq1_JPG/frame_008734.jpg,2
LARA_traffic_light/Lara3D_UrbanSeq1_JPG/frame_008735.jpg,2
LARA_traffic_light/Lara3D_UrbanSeq1_JPG/frame_008736.jpg,2
LARA_traffic_light/Lara3D_UrbanSeq1_JPG/frame_008737.jpg,2
LARA_traffic_light/Lara3D_UrbanSeq1_JPG/frame_008738.jpg,2
LARA_traffic_light/Lara3D_UrbanSeq1_JPG/frame_008739.jpg,2
LARA_traffic_light/Lara3D_UrbanSeq1_JPG/frame_008740.jpg,2
LARA_traffic_light/Lara3D_UrbanSeq1_JPG/frame_008741.jpg,2
LARA_traffic_light/Lara3D_UrbanSeq1_JPG/frame_008742.jpg,2
LARA_traffic_light/Lara3D_UrbanSeq1_JPG/frame_008743.jpg,2
LARA_traffic_light/Lara3D_UrbanSeq1_JPG/frame_008744.jpg,2
LARA_traffic_light/Lara3D_UrbanSeq1_JPG/frame_008745.jpg,2
LARA_traffic_light/Lara3D_UrbanSeq1_JPG/frame_008746.jpg,2
LARA_traffic_light/Lara3D_UrbanSeq1_JPG/frame_008747.jpg,2
LARA_traffic_light/Lara3D_UrbanSeq1_JPG/frame_008748.jpg,2
LARA_traffic_light/Lara3D_UrbanSeq1_JPG/frame_008749.jpg,2
LARA_traffic_light/Lara3D_UrbanSeq1_JPG/frame_008750.jpg,2
LARA_traffic_light/Lara3D_UrbanSeq1_JPG/frame_008751.jpg,2
LARA_traffic_light/Lara3D_UrbanSeq1_JPG/frame_008752.jpg,2
LARA_traffic_light/Lara3D_UrbanSeq1_JPG/frame_008753.jpg,2
LARA_traffic_light/Lara3D_UrbanSeq1_JPG/frame_008754.jpg,2
LARA_traffic_light/Lara3D_UrbanSeq1_JPG/frame_008755.jpg,2
LARA_traffic_light/Lara3D_UrbanSeq1_JPG/frame_008756.jpg,2
LARA_traffic_light/Lara3D_UrbanSeq1_JPG/frame_008757.jpg,2
LARA_traffic_light/Lara3D_UrbanSeq1_JPG/frame_008758.jpg,2
LARA_traffic_light/Lara3D_UrbanSeq1_JPG/frame_008759.jpg,2
LARA_traffic_light/Lara3D_UrbanSeq1_JPG/frame_008760.jpg,2
LARA_traffic_light/Lara3D_UrbanSeq1_JPG/frame_008761.jpg,2
LARA_traffic_light/Lara3D_UrbanSeq1_JPG/frame_008762.jpg,2
LARA_traffic_light/Lara3D_UrbanSeq1_JPG/frame_008763.jpg,2
LARA_traffic_light/Lara3D_UrbanSeq1_JPG/frame_008764.jpg,2
LARA_traffic_light/Lara3D_UrbanSeq1_JPG/frame_008765.jpg,2
LARA_traffic_light/Lara3D_UrbanSeq1_JPG/frame_008766.jpg,2
LARA_traffic_light/Lara3D_UrbanSeq1_JPG/frame_008767.jpg,2
LARA_traffic_light/Lara3D_UrbanSeq1_JPG/frame_008768.jpg,2
LARA_traffic_light/Lara3D_UrbanSeq1_JPG/frame_008769.jpg,2
LARA_traffic_light/Lara3D_UrbanSeq1_JPG/frame_008770.jpg,2
LARA_traffic_light/Lara3D_UrbanSeq1_JPG/frame_008771.jpg,2
LARA_traffic_light/Lara3D_UrbanSeq1_JPG/frame_008772.jpg,2
LARA_traffic_light/Lara3D_UrbanSeq1_JPG/frame_008773.jpg,2
LARA_traffic_light/Lara3D_UrbanSeq1_JPG/frame_008774.jpg,2
LARA_traffic_light/Lara3D_UrbanSeq1_JPG/frame_008775.jpg,2
LARA_traffic_light/Lara3D_UrbanSeq1_JPG/frame_008776.jpg,2
LARA_traffic_light/Lara3D_UrbanSeq1_JPG/frame_008777.jpg,2
LARA_traffic_light/Lara3D_UrbanSeq1_JPG/frame_008778.jpg,2
LARA_traffic_light/Lara3D_UrbanSeq1_JPG/frame_008779.jpg,2
LARA_traffic_light/Lara3D_UrbanSeq1_JPG/frame_008780.jpg,2
LARA_traffic_light/Lara3D_UrbanSeq1_JPG/frame_008781.jpg,2
LARA_traffic_light/Lara3D_UrbanSeq1_JPG/frame_008782.jpg,2
LARA_traffic_light/Lara3D_UrbanSeq1_JPG/frame_008783.jpg,2
LARA_traffic_light/Lara3D_UrbanSeq1_JPG/frame_008784.jpg,2
LARA_traffic_light/Lara3D_UrbanSeq1_JPG/frame_008785.jpg,2
LARA_traffic_light/Lara3D_UrbanSeq1_JPG/frame_008786.jpg,2
LARA_traffic_light/Lara3D_UrbanSeq1_JPG/frame_008787.jpg,2
LARA_traffic_light/Lara3D_UrbanSeq1_JPG/frame_008788.jpg,2
LARA_traffic_light/Lara3D_UrbanSeq1_JPG/frame_008789.jpg,2
LARA_traffic_light/Lara3D_UrbanSeq1_JPG/frame_008790.jpg,2
LARA_traffic_light/Lara3D_UrbanSeq1_JPG/frame_008791.jpg,2
LARA_traffic_light/Lara3D_UrbanSeq1_JPG/frame_008792.jpg,2
LARA_traffic_light/Lara3D_UrbanSeq1_JPG/frame_008793.jpg,2
LARA_traffic_light/Lara3D_UrbanSeq1_JPG/frame_008794.jpg,2
LARA_traffic_light/Lara3D_UrbanSeq1_JPG/frame_008795.jpg,2
LARA_traffic_light/Lara3D_UrbanSeq1_JPG/frame_008796.jpg,2
LARA_traffic_light/Lara3D_UrbanSeq1_JPG/frame_008797.jpg,2
LARA_traffic_light/Lara3D_UrbanSeq1_JPG/frame_008798.jpg,2
LARA_traffic_light/Lara3D_UrbanSeq1_JPG/frame_008799.jpg,2
LARA_traffic_light/Lara3D_UrbanSeq1_JPG/frame_008800.jpg,2
LARA_traffic_light/Lara3D_UrbanSeq1_JPG/frame_008801.jpg,2
LARA_traffic_light/Lara3D_UrbanSeq1_JPG/frame_008802.jpg,2
LARA_traffic_light/Lara3D_UrbanSeq1_JPG/frame_008803.jpg,2
LARA_traffic_light/Lara3D_UrbanSeq1_JPG/frame_008804.jpg,2
LARA_traffic_light/Lara3D_UrbanSeq1_JPG/frame_008805.jpg,2
LARA_traffic_light/Lara3D_UrbanSeq1_JPG/frame_008806.jpg,2
LARA_traffic_light/Lara3D_UrbanSeq1_JPG/frame_008807.jpg,2
LARA_traffic_light/Lara3D_UrbanSeq1_JPG/frame_008808.jpg,2
LARA_traffic_light/Lara3D_UrbanSeq1_JPG/frame_008809.jpg,2
LARA_traffic_light/Lara3D_UrbanSeq1_JPG/frame_008810.jpg,2
LARA_traffic_light/Lara3D_UrbanSeq1_JPG/frame_008811.jpg,2
LARA_traffic_light/Lara3D_UrbanSeq1_JPG/frame_008812.jpg,2
LARA_traffic_light/Lara3D_UrbanSeq1_JPG/frame_008813.jpg,2
LARA_traffic_light/Lara3D_UrbanSeq1_JPG/frame_008814.jpg,2
LARA_traffic_light/Lara3D_UrbanSeq1_JPG/frame_008815.jpg,2
LARA_traffic_light/Lara3D_UrbanSeq1_JPG/frame_008816.jpg,2
LARA_traffic_light/Lara3D_UrbanSeq1_JPG/frame_008817.jpg,2
LARA_traffic_light/Lara3D_UrbanSeq1_JPG/frame_008818.jpg,2
LARA_traffic_light/Lara3D_UrbanSeq1_JPG/frame_008819.jpg,2
LARA_traffic_light/Lara3D_UrbanSeq1_JPG/frame_008820.jpg,2
LARA_traffic_light/Lara3D_UrbanSeq1_JPG/frame_008821.jpg,2
LARA_traffic_light/Lara3D_UrbanSeq1_JPG/frame_008822.jpg,2
LARA_traffic_light/Lara3D_UrbanSeq1_JPG/frame_008823.jpg,2
LARA_traffic_light/Lara3D_UrbanSeq1_JPG/frame_008824.jpg,2
LARA_traffic_light/Lara3D_UrbanSeq1_JPG/frame_008825.jpg,2
LARA_traffic_light/Lara3D_UrbanSeq1_JPG/frame_008826.jpg,2
LARA_traffic_light/Lara3D_UrbanSeq1_JPG/frame_008827.jpg,2
LARA_traffic_light/Lara3D_UrbanSeq1_JPG/frame_008828.jpg,2
LARA_traffic_light/Lara3D_UrbanSeq1_JPG/frame_008829.jpg,2
LARA_traffic_light/Lara3D_UrbanSeq1_JPG/frame_008830.jpg,2
LARA_traffic_light/Lara3D_UrbanSeq1_JPG/frame_008831.jpg,2
LARA_traffic_light/Lara3D_UrbanSeq1_JPG/frame_008832.jpg,2
LARA_traffic_light/Lara3D_UrbanSeq1_JPG/frame_008833.jpg,2
LARA_traffic_light/Lara3D_UrbanSeq1_JPG/frame_008834.jpg,2
LARA_traffic_light/Lara3D_UrbanSeq1_JPG/frame_008835.jpg,2
LARA_traffic_light/Lara3D_UrbanSeq1_JPG/frame_008836.jpg,2
LARA_traffic_light/Lara3D_UrbanSeq1_JPG/frame_008837.jpg,2
LARA_traffic_light/Lara3D_UrbanSeq1_JPG/frame_008838.jpg,2
LARA_traffic_light/Lara3D_UrbanSeq1_JPG/frame_008839.jpg,2
LARA_traffic_light/Lara3D_UrbanSeq1_JPG/frame_008840.jpg,2
LARA_traffic_light/Lara3D_UrbanSeq1_JPG/frame_008841.jpg,2
LARA_traffic_light/Lara3D_UrbanSeq1_JPG/frame_008842.jpg,2
LARA_traffic_light/Lara3D_UrbanSeq1_JPG/frame_008843.jpg,2
LARA_traffic_light/Lara3D_UrbanSeq1_JPG/frame_008844.jpg,2
LARA_traffic_light/Lara3D_UrbanSeq1_JPG/frame_008845.jpg,2
LARA_traffic_light/Lara3D_UrbanSeq1_JPG/frame_008846.jpg,2
LARA_traffic_light/Lara3D_UrbanSeq1_JPG/frame_008847.jpg,2
LARA_traffic_light/Lara3D_UrbanSeq1_JPG/frame_008848.jpg,2
LARA_traffic_light/Lara3D_UrbanSeq1_JPG/frame_008849.jpg,2
LARA_traffic_light/Lara3D_UrbanSeq1_JPG/frame_008850.jpg,2
LARA_traffic_light/Lara3D_UrbanSeq1_JPG/frame_008851.jpg,2
LARA_traffic_light/Lara3D_UrbanSeq1_JPG/frame_008852.jpg,2
LARA_traffic_light/Lara3D_UrbanSeq1_JPG/frame_008853.jpg,2
LARA_traffic_light/Lara3D_UrbanSeq1_JPG/frame_008854.jpg,2
LARA_traffic_light/Lara3D_UrbanSeq1_JPG/frame_008855.jpg,2
LARA_traffic_light/Lara3D_UrbanSeq1_JPG/frame_008856.jpg,2
LARA_traffic_light/Lara3D_UrbanSeq1_JPG/frame_008857.jpg,2
LARA_traffic_light/Lara3D_UrbanSeq1_JPG/frame_008858.jpg,2
LARA_traffic_light/Lara3D_UrbanSeq1_JPG/frame_008859.jpg,2
LARA_traffic_light/Lara3D_UrbanSeq1_JPG/frame_008860.jpg,2
LARA_traffic_light/Lara3D_UrbanSeq1_JPG/frame_008861.jpg,2
LARA_traffic_light/Lara3D_UrbanSeq1_JPG/frame_008862.jpg,2
LARA_traffic_light/Lara3D_UrbanSeq1_JPG/frame_008863.jpg,2
LARA_traffic_light/Lara3D_UrbanSeq1_JPG/frame_008864.jpg,2
LARA_traffic_light/Lara3D_UrbanSeq1_JPG/frame_008865.jpg,2
LARA_traffic_light/Lara3D_UrbanSeq1_JPG/frame_008866.jpg,2
LARA_traffic_light/Lara3D_UrbanSeq1_JPG/frame_008867.jpg,2
LARA_traffic_light/Lara3D_UrbanSeq1_JPG/frame_008868.jpg,2
LARA_traffic_light/Lara3D_UrbanSeq1_JPG/frame_008869.jpg,2
LARA_traffic_light/Lara3D_UrbanSeq1_JPG/frame_008870.jpg,2
LARA_traffic_light/Lara3D_UrbanSeq1_JPG/frame_008871.jpg,2
LARA_traffic_light/Lara3D_UrbanSeq1_JPG/frame_008872.jpg,2
LARA_traffic_light/Lara3D_UrbanSeq1_JPG/frame_008873.jpg,2
LARA_traffic_light/Lara3D_UrbanSeq1_JPG/frame_008874.jpg,2
LARA_traffic_light/Lara3D_UrbanSeq1_JPG/frame_008875.jpg,2
LARA_traffic_light/Lara3D_UrbanSeq1_JPG/frame_008876.jpg,2
LARA_traffic_light/Lara3D_UrbanSeq1_JPG/frame_008877.jpg,2
LARA_traffic_light/Lara3D_UrbanSeq1_JPG/frame_008878.jpg,2
LARA_traffic_light/Lara3D_UrbanSeq1_JPG/frame_008879.jpg,2
LARA_traffic_light/Lara3D_UrbanSeq1_JPG/frame_008880.jpg,2
LARA_traffic_light/Lara3D_UrbanSeq1_JPG/frame_008881.jpg,2
LARA_traffic_light/Lara3D_UrbanSeq1_JPG/frame_008882.jpg,2
LARA_traffic_light/Lara3D_UrbanSeq1_JPG/frame_008883.jpg,2
LARA_traffic_light/Lara3D_UrbanSeq1_JPG/frame_008884.jpg,2
LARA_traffic_light/Lara3D_UrbanSeq1_JPG/frame_008885.jpg,2
LARA_traffic_light/Lara3D_UrbanSeq1_JPG/frame_008886.jpg,2
LARA_traffic_light/Lara3D_UrbanSeq1_JPG/frame_008887.jpg,2
LARA_traffic_light/Lara3D_UrbanSeq1_JPG/frame_008888.jpg,2
LARA_traffic_light/Lara3D_UrbanSeq1_JPG/frame_008889.jpg,2
LARA_traffic_light/Lara3D_UrbanSeq1_JPG/frame_008890.jpg,2
LARA_traffic_light/Lara3D_UrbanSeq1_JPG/frame_008891.jpg,2
LARA_traffic_light/Lara3D_UrbanSeq1_JPG/frame_008892.jpg,2
LARA_traffic_light/Lara3D_UrbanSeq1_JPG/frame_008893.jpg,2
LARA_traffic_light/Lara3D_UrbanSeq1_JPG/frame_008894.jpg,2
LARA_traffic_light/Lara3D_UrbanSeq1_JPG/frame_008895.jpg,2
LARA_traffic_light/Lara3D_UrbanSeq1_JPG/frame_008896.jpg,2
LARA_traffic_light/Lara3D_UrbanSeq1_JPG/frame_008897.jpg,2
LARA_traffic_light/Lara3D_UrbanSeq1_JPG/frame_008898.jpg,2
LARA_traffic_light/Lara3D_UrbanSeq1_JPG/frame_008899.jpg,2
LARA_traffic_light/Lara3D_UrbanSeq1_JPG/frame_008900.jpg,2
LARA_traffic_light/Lara3D_UrbanSeq1_JPG/frame_008901.jpg,2
LARA_traffic_light/Lara3D_UrbanSeq1_JPG/frame_008902.jpg,2
LARA_traffic_light/Lara3D_UrbanSeq1_JPG/frame_008903.jpg,2
LARA_traffic_light/Lara3D_UrbanSeq1_JPG/frame_008904.jpg,2
LARA_traffic_light/Lara3D_UrbanSeq1_JPG/frame_008905.jpg,2
LARA_traffic_light/Lara3D_UrbanSeq1_JPG/frame_008906.jpg,2
LARA_traffic_light/Lara3D_UrbanSeq1_JPG/frame_008907.jpg,2
LARA_traffic_light/Lara3D_UrbanSeq1_JPG/frame_008908.jpg,2
LARA_traffic_light/Lara3D_UrbanSeq1_JPG/frame_008909.jpg,2
LARA_traffic_light/Lara3D_UrbanSeq1_JPG/frame_008910.jpg,2
LARA_traffic_light/Lara3D_UrbanSeq1_JPG/frame_008911.jpg,2
LARA_traffic_light/Lara3D_UrbanSeq1_JPG/frame_008912.jpg,2
LARA_traffic_light/Lara3D_UrbanSeq1_JPG/frame_008913.jpg,2
LARA_traffic_light/Lara3D_UrbanSeq1_JPG/frame_008914.jpg,2
LARA_traffic_light/Lara3D_UrbanSeq1_JPG/frame_008915.jpg,2
LARA_traffic_light/Lara3D_UrbanSeq1_JPG/frame_008916.jpg,2
LARA_traffic_light/Lara3D_UrbanSeq1_JPG/frame_008917.jpg,2
LARA_traffic_light/Lara3D_UrbanSeq1_JPG/frame_008918.jpg,2
LARA_traffic_light/Lara3D_UrbanSeq1_JPG/frame_008919.jpg,2
LARA_traffic_light/Lara3D_UrbanSeq1_JPG/frame_008920.jpg,2
LARA_traffic_light/Lara3D_UrbanSeq1_JPG/frame_008921.jpg,2
LARA_traffic_light/Lara3D_UrbanSeq1_JPG/frame_008922.jpg,2
LARA_traffic_light/Lara3D_UrbanSeq1_JPG/frame_008923.jpg,2
LARA_traffic_light/Lara3D_UrbanSeq1_JPG/frame_008924.jpg,2
LARA_traffic_light/Lara3D_UrbanSeq1_JPG/frame_008925.jpg,2
LARA_traffic_light/Lara3D_UrbanSeq1_JPG/frame_008926.jpg,2
LARA_traffic_light/Lara3D_UrbanSeq1_JPG/frame_008927.jpg,2
LARA_traffic_light/Lara3D_UrbanSeq1_JPG/frame_008928.jpg,2
LARA_traffic_light/Lara3D_UrbanSeq1_JPG/frame_008929.jpg,2
LARA_traffic_light/Lara3D_UrbanSeq1_JPG/frame_008930.jpg,2
LARA_traffic_light/Lara3D_UrbanSeq1_JPG/frame_008931.jpg,2
LARA_traffic_light/Lara3D_UrbanSeq1_JPG/frame_008932.jpg,2
LARA_traffic_light/Lara3D_UrbanSeq1_JPG/frame_008933.jpg,2
LARA_traffic_light/Lara3D_UrbanSeq1_JPG/frame_008934.jpg,2
LARA_traffic_light/Lara3D_UrbanSeq1_JPG/frame_008935.jpg,2
LARA_traffic_light/Lara3D_UrbanSeq1_JPG/frame_008936.jpg,2
LARA_traffic_light/Lara3D_UrbanSeq1_JPG/frame_008937.jpg,2
LARA_traffic_light/Lara3D_UrbanSeq1_JPG/frame_008938.jpg,2
LARA_traffic_light/Lara3D_UrbanSeq1_JPG/frame_008939.jpg,2
LARA_traffic_light/Lara3D_UrbanSeq1_JPG/frame_008940.jpg,2
LARA_traffic_light/Lara3D_UrbanSeq1_JPG/frame_008941.jpg,2
LARA_traffic_light/Lara3D_UrbanSeq1_JPG/frame_008942.jpg,2
LARA_traffic_light/Lara3D_UrbanSeq1_JPG/frame_008943.jpg,2
LARA_traffic_light/Lara3D_UrbanSeq1_JPG/frame_008944.jpg,2
LARA_traffic_light/Lara3D_UrbanSeq1_JPG/frame_008945.jpg,2
LARA_traffic_light/Lara3D_UrbanSeq1_JPG/frame_008946.jpg,2
LARA_traffic_light/Lara3D_UrbanSeq1_JPG/frame_008947.jpg,2
LARA_traffic_light/Lara3D_UrbanSeq1_JPG/frame_008948.jpg,2
LARA_traffic_light/Lara3D_UrbanSeq1_JPG/frame_008949.jpg,2
LARA_traffic_light/Lara3D_UrbanSeq1_JPG/frame_008950.jpg,2
LARA_traffic_light/Lara3D_UrbanSeq1_JPG/frame_008951.jpg,2
LARA_traffic_light/Lara3D_UrbanSeq1_JPG/frame_009000.jpg,0
LARA_traffic_light/Lara3D_UrbanSeq1_JPG/frame_009001.jpg,0
LARA_traffic_light/Lara3D_UrbanSeq1_JPG/frame_009002.jpg,0
LARA_traffic_light/Lara3D_UrbanSeq1_JPG/frame_009003.jpg,0
LARA_traffic_light/Lara3D_UrbanSeq1_JPG/frame_009004.jpg,0
LARA_traffic_light/Lara3D_UrbanSeq1_JPG/frame_009005.jpg,0
LARA_traffic_light/Lara3D_UrbanSeq1_JPG/frame_009006.jpg,0
LARA_traffic_light/Lara3D_UrbanSeq1_JPG/frame_009007.jpg,0
LARA_traffic_light/Lara3D_UrbanSeq1_JPG/frame_009008.jpg,0
LARA_traffic_light/Lara3D_UrbanSeq1_JPG/frame_009009.jpg,0
LARA_traffic_light/Lara3D_UrbanSeq1_JPG/frame_009010.jpg,0
LARA_traffic_light/Lara3D_UrbanSeq1_JPG/frame_009011.jpg,0
LARA_traffic_light/Lara3D_UrbanSeq1_JPG/frame_009012.jpg,0
LARA_traffic_light/Lara3D_UrbanSeq1_JPG/frame_009013.jpg,0
LARA_traffic_light/Lara3D_UrbanSeq1_JPG/frame_009014.jpg,0
LARA_traffic_light/Lara3D_UrbanSeq1_JPG/frame_009015.jpg,0
LARA_traffic_light/Lara3D_UrbanSeq1_JPG/frame_009016.jpg,0
LARA_traffic_light/Lara3D_UrbanSeq1_JPG/frame_009017.jpg,0
LARA_traffic_light/Lara3D_UrbanSeq1_JPG/frame_009018.jpg,0
LARA_traffic_light/Lara3D_UrbanSeq1_JPG/frame_009019.jpg,0
LARA_traffic_light/Lara3D_UrbanSeq1_JPG/frame_009020.jpg,0
LARA_traffic_light/Lara3D_UrbanSeq1_JPG/frame_009021.jpg,0
LARA_traffic_light/Lara3D_UrbanSeq1_JPG/frame_009022.jpg,0
LARA_traffic_light/Lara3D_UrbanSeq1_JPG/frame_009023.jpg,0
LARA_traffic_light/Lara3D_UrbanSeq1_JPG/frame_009024.jpg,0
LARA_traffic_light/Lara3D_UrbanSeq1_JPG/frame_009025.jpg,0
LARA_traffic_light/Lara3D_UrbanSeq1_JPG/frame_009026.jpg,0
LARA_traffic_light/Lara3D_UrbanSeq1_JPG/frame_009027.jpg,0
LARA_traffic_light/Lara3D_UrbanSeq1_JPG/frame_009028.jpg,0
LARA_traffic_light/Lara3D_UrbanSeq1_JPG/frame_009029.jpg,0
LARA_traffic_light/Lara3D_UrbanSeq1_JPG/frame_009030.jpg,0
LARA_traffic_light/Lara3D_UrbanSeq1_JPG/frame_009031.jpg,0
LARA_traffic_light/Lara3D_UrbanSeq1_JPG/frame_009032.jpg,0
LARA_traffic_light/Lara3D_UrbanSeq1_JPG/frame_009033.jpg,0
LARA_traffic_light/Lara3D_UrbanSeq1_JPG/frame_009034.jpg,0
LARA_traffic_light/Lara3D_UrbanSeq1_JPG/frame_009035.jpg,0
LARA_traffic_light/Lara3D_UrbanSeq1_JPG/frame_009036.jpg,0
LARA_traffic_light/Lara3D_UrbanSeq1_JPG/frame_009037.jpg,0
LARA_traffic_light/Lara3D_UrbanSeq1_JPG/frame_009038.jpg,0
LARA_traffic_light/Lara3D_UrbanSeq1_JPG/frame_009039.jpg,0
LARA_traffic_light/Lara3D_UrbanSeq1_JPG/frame_009040.jpg,0
LARA_traffic_light/Lara3D_UrbanSeq1_JPG/frame_009041.jpg,0
LARA_traffic_light/Lara3D_UrbanSeq1_JPG/frame_009042.jpg,0
LARA_traffic_light/Lara3D_UrbanSeq1_JPG/frame_009043.jpg,0
LARA_traffic_light/Lara3D_UrbanSeq1_JPG/frame_009044.jpg,0
LARA_traffic_light/Lara3D_UrbanSeq1_JPG/frame_009045.jpg,0
LARA_traffic_light/Lara3D_UrbanSeq1_JPG/frame_009046.jpg,0
LARA_traffic_light/Lara3D_UrbanSeq1_JPG/frame_009047.jpg,0
LARA_traffic_light/Lara3D_UrbanSeq1_JPG/frame_009048.jpg,0
LARA_traffic_light/Lara3D_UrbanSeq1_JPG/frame_009049.jpg,0
LARA_traffic_light/Lara3D_UrbanSeq1_JPG/frame_009050.jpg,0
LARA_traffic_light/Lara3D_UrbanSeq1_JPG/frame_009051.jpg,0
LARA_traffic_light/Lara3D_UrbanSeq1_JPG/frame_009052.jpg,0
LARA_traffic_light/Lara3D_UrbanSeq1_JPG/frame_009053.jpg,0
LARA_traffic_light/Lara3D_UrbanSeq1_JPG/frame_009054.jpg,0
LARA_traffic_light/Lara3D_UrbanSeq1_JPG/frame_009055.jpg,0
LARA_traffic_light/Lara3D_UrbanSeq1_JPG/frame_009056.jpg,0
LARA_traffic_light/Lara3D_UrbanSeq1_JPG/frame_009057.jpg,0
LARA_traffic_light/Lara3D_UrbanSeq1_JPG/frame_009058.jpg,0
LARA_traffic_light/Lara3D_UrbanSeq1_JPG/frame_009059.jpg,0
LARA_traffic_light/Lara3D_UrbanSeq1_JPG/frame_009364.jpg,0
LARA_traffic_light/Lara3D_UrbanSeq1_JPG/frame_009365.jpg,0
LARA_traffic_light/Lara3D_UrbanSeq1_JPG/frame_009366.jpg,0
LARA_traffic_light/Lara3D_UrbanSeq1_JPG/frame_009367.jpg,0
LARA_traffic_light/Lara3D_UrbanSeq1_JPG/frame_009385.jpg,2
LARA_traffic_light/Lara3D_UrbanSeq1_JPG/frame_009386.jpg,2
