LISA_Traffic_Light/dayTrain/dayClip10/frames/dayClip10--00041.png,0,0,0
LISA_Traffic_Light/dayTrain/dayClip10/frames/dayClip10--00042.png,0,0,0
LISA_Traffic_Light/dayTrain/dayClip10/frames/dayClip10--00043.png,0,0,0
LISA_Traffic_Light/dayTrain/dayClip10/frames/dayClip10--00044.png,0,0,0
LISA_Traffic_Light/dayTrain/dayClip10/frames/dayClip10--00045.png,0,0,0
LISA_Traffic_Light/dayTrain/dayClip10/frames/dayClip10--00046.png,0,0,0
LISA_Traffic_Light/dayTrain/dayClip10/frames/dayClip10--00047.png,0,0,0
LISA_Traffic_Light/dayTrain/dayClip10/frames/dayClip10--00048.png,0,0,0
LISA_Traffic_Light/dayTrain/dayClip11/frames/dayClip11--00348.png,0,0,0
LISA_Traffic_Light/dayTrain/dayClip11/frames/dayClip11--00349.png,0,0,0
LISA_Traffic_Light/dayTrain/dayClip11/frames/dayClip11--00350.png,0,0,0
LISA_Traffic_Light/dayTrain/dayClip11/frames/dayClip11--00351.png,0,0,0
LISA_Traffic_Light/dayTrain/dayClip11/frames/dayClip11--00352.png,0,0,0
LISA_Traffic_Light/dayTrain/dayClip11/frames/dayClip11--00353.png,0,0,0
LISA_Traffic_Light/dayTrain/dayClip11/frames/dayClip11--00354.png,0,0,0
LISA_Traffic_Light/dayTrain/dayClip11/frames/dayClip11--00355.png,0,0,0
LISA_Traffic_Light/dayTrain/dayClip11/frames/dayClip11--00356.png,0,0,0
LISA_Traffic_Light/dayTrain/dayClip11/frames/dayClip11--00357.png,0,0,0
LISA_Traffic_Light/dayTrain/dayClip11/frames/dayClip11--00358.png,0,0,0
LISA_Traffic_Light/dayTrain/dayClip11/frames/dayClip11--00359.png,0,0,0
LISA_Traffic_Light/dayTrain/dayClip11/frames/dayClip11--00360.png,0,0,0
LISA_Traffic_Light/dayTrain/dayClip11/frames/dayClip11--00361.png,0,0,0
LISA_Traffic_Light/dayTrain/dayClip11/frames/dayClip11--00362.png,0,0,0
LISA_Traffic_Light/dayTrain/dayClip11/frames/dayClip11--00363.png,0,0,0
LISA_Traffic_Light/dayTrain/dayClip11/frames/dayClip11--00364.png,0,0,0
LISA_Traffic_Light/dayTrain/dayClip11/frames/dayClip11--00365.png,0,0,0
LISA_Traffic_Light/dayTrain/dayClip11/frames/dayClip11--00366.png,0,0,0
LISA_Traffic_Light/dayTrain/dayClip11/frames/dayClip11--00367.png,0,0,0
LISA_Traffic_Light/dayTrain/dayClip11/frames/dayClip11--00368.png,0,0,0
LISA_Traffic_Light/dayTrain/dayClip11/frames/dayClip11--00369.png,0,0,0
LISA_Traffic_Light/dayTrain/dayClip11/frames/dayClip11--00370.png,0,0,0
LISA_Traffic_Light/dayTrain/dayClip11/frames/dayClip11--00371.png,0,0,0
LISA_Traffic_Light/dayTrain/dayClip11/frames/dayClip11--00372.png,0,0,0
LISA_Traffic_Light/dayTrain/dayClip11/frames/dayClip11--00373.png,0,0,0
LISA_Traffic_Light/dayTrain/dayClip11/frames/dayClip11--00374.png,0,0,0
LISA_Traffic_Light/dayTrain/dayClip11/frames/dayClip11--00375.png,0,0,0
LISA_Traffic_Light/dayTrain/dayClip11/frames/dayClip11--00376.png,0,0,0
LISA_Traffic_Light/dayTrain/dayClip11/frames/dayClip11--00377.png,0,0,0
LISA_Traffic_Light/dayTrain/dayClip11/frames/dayClip11--00378.png,0,0,0
LISA_Traffic_Light/dayTrain/dayClip11/frames/dayClip11--00379.png,0,0,0
LISA_Traffic_Light/dayTrain/dayClip11/frames/dayClip11--00380.png,0,0,0
LISA_Traffic_Light/dayTrain/dayClip11/frames/dayClip11--00381.png,0,0,0
LISA_Traffic_Light/dayTrain/dayClip11/frames/dayClip11--00382.png,0,0,0
LISA_Traffic_Light/dayTrain/dayClip11/frames/dayClip11--00383.png,0,0,0
LISA_Traffic_Light/dayTrain/dayClip11/frames/dayClip11--00384.png,0,0,0
LISA_Traffic_Light/dayTrain/dayClip11/frames/dayClip11--00385.png,0,0,0
LISA_Traffic_Light/dayTrain/dayClip11/frames/dayClip11--00386.png,0,0,0
LISA_Traffic_Light/dayTrain/dayClip11/frames/dayClip11--00387.png,0,0,0
LISA_Traffic_Light/dayTrain/dayClip11/frames/dayClip11--00388.png,0,0,0
LISA_Traffic_Light/dayTrain/dayClip11/frames/dayClip11--00389.png,0,0,0
LISA_Traffic_Light/dayTrain/dayClip11/frames/dayClip11--00390.png,0,0,0
LISA_Traffic_Light/dayTrain/dayClip11/frames/dayClip11--00391.png,0,0,0
LISA_Traffic_Light/dayTrain/dayClip11/frames/dayClip11--00392.png,0,0,0
LISA_Traffic_Light/dayTrain/dayClip11/frames/dayClip11--00393.png,0,0,0
LISA_Traffic_Light/dayTrain/dayClip11/frames/dayClip11--00394.png,0,0,0
LISA_Traffic_Light/dayTrain/dayClip11/frames/dayClip11--00395.png,0,0,0
LISA_Traffic_Light/dayTrain/dayClip11/frames/dayClip11--00396.png,0,0,0
LISA_Traffic_Light/dayTrain/dayClip11/frames/dayClip11--00397.png,0,0,0
LISA_Traffic_Light/dayTrain/dayClip11/frames/dayClip11--00398.png,0,0,0
LISA_Traffic_Light/dayTrain/dayClip11/frames/dayClip11--00399.png,0,0,0
LISA_Traffic_Light/dayTrain/dayClip11/frames/dayClip11--00400.png,0,0,0
LISA_Traffic_Light/dayTrain/dayClip11/frames/dayClip11--00401.png,0,0,0
LISA_Traffic_Light/dayTrain/dayClip11/frames/dayClip11--00402.png,0,0,0
LISA_Traffic_Light/dayTrain/dayClip11/frames/dayClip11--00403.png,0,0,0
LISA_Traffic_Light/dayTrain/dayClip11/frames/dayClip11--00404.png,0,0,0
LISA_Traffic_Light/dayTrain/dayClip11/frames/dayClip11--00405.png,0,0,0
LISA_Traffic_Light/dayTrain/dayClip11/frames/dayClip11--00406.png,0,0,0
LISA_Traffic_Light/dayTrain/dayClip11/frames/dayClip11--00407.png,0,0,0
LISA_Traffic_Light/dayTrain/dayClip11/frames/dayClip11--00408.png,0,0,0
LISA_Traffic_Light/dayTrain/dayClip11/frames/dayClip11--00409.png,0,0,0
LISA_Traffic_Light/dayTrain/dayClip11/frames/dayClip11--00410.png,0,0,0
LISA_Traffic_Light/dayTrain/dayClip11/frames/dayClip11--00411.png,0,0,0
LISA_Traffic_Light/dayTrain/dayClip11/frames/dayClip11--00412.png,0,0,0
LISA_Traffic_Light/dayTrain/dayClip11/frames/dayClip11--00413.png,0,0,0
LISA_Traffic_Light/dayTrain/dayClip11/frames/dayClip11--00414.png,0,0,0
LISA_Traffic_Light/dayTrain/dayClip11/frames/dayClip11--00415.png,0,0,0
LISA_Traffic_Light/dayTrain/dayClip11/frames/dayClip11--00416.png,0,0,0
LISA_Traffic_Light/dayTrain/dayClip11/frames/dayClip11--00417.png,0,0,0
LISA_Traffic_Light/dayTrain/dayClip11/frames/dayClip11--00418.png,0,0,0
LISA_Traffic_Light/dayTrain/dayClip11/frames/dayClip11--00419.png,0,0,0
LISA_Traffic_Light/dayTrain/dayClip11/frames/dayClip11--00420.png,0,0,0
LISA_Traffic_Light/dayTrain/dayClip11/frames/dayClip11--00421.png,0,0,0
LISA_Traffic_Light/dayTrain/dayClip11/frames/dayClip11--00422.png,0,0,0
LISA_Traffic_Light/dayTrain/dayClip11/frames/dayClip11--00423.png,0,0,0
LISA_Traffic_Light/dayTrain/dayClip11/frames/dayClip11--00424.png,0,0,0
LISA_Traffic_Light/dayTrain/dayClip11/frames/dayClip11--00425.png,0,0,0
LISA_Traffic_Light/dayTrain/dayClip11/frames/dayClip11--00426.png,0,0,0
LISA_Traffic_Light/dayTrain/dayClip11/frames/dayClip11--00427.png,0,0,0
LISA_Traffic_Light/dayTrain/dayClip11/frames/dayClip11--00428.png,0,0,0
LISA_Traffic_Light/dayTrain/dayClip11/frames/dayClip11--00429.png,0,0,0
LISA_Traffic_Light/dayTrain/dayClip11/frames/dayClip11--00430.png,0,0,0
LISA_Traffic_Light/dayTrain/dayClip11/frames/dayClip11--00431.png,0,0,0
LISA_Traffic_Light/dayTrain/dayClip11/frames/dayClip11--00432.png,0,0,0
LISA_Traffic_Light/dayTrain/dayClip11/frames/dayClip11--00433.png,0,0,0
LISA_Traffic_Light/dayTrain/dayClip11/frames/dayClip11--00434.png,0,0,0
LISA_Traffic_Light/dayTrain/dayClip11/frames/dayClip11--00435.png,0,0,0
LISA_Traffic_Light/dayTrain/dayClip11/frames/dayClip11--00436.png,0,0,0
LISA_Traffic_Light/dayTrain/dayClip11/frames/dayClip11--00437.png,0,0,0
LISA_Traffic_Light/dayTrain/dayClip11/frames/dayClip11--00438.png,0,0,0
LISA_Traffic_Light/dayTrain/dayClip11/frames/dayClip11--00439.png,0,0,0
LISA_Traffic_Light/dayTrain/dayClip11/frames/dayClip11--00440.png,0,0,0
LISA_Traffic_Light/dayTrain/dayClip11/frames/dayClip11--00441.png,0,0,0
LISA_Traffic_Light/dayTrain/dayClip11/frames/dayClip11--00442.png,0,0,0
LISA_Traffic_Light/dayTrain/dayClip11/frames/dayClip11--00443.png,0,0,0
LISA_Traffic_Light/dayTrain/dayClip11/frames/dayClip11--00444.png,0,0,0
LISA_Traffic_Light/dayTrain/dayClip11/frames/dayClip11--00445.png,0,0,0
LISA_Traffic_Light/dayTrain/dayClip11/frames/dayClip11--00446.png,0,0,0
LISA_Traffic_Light/dayTrain/dayClip11/frames/dayClip11--00447.png,0,0,0
LISA_Traffic_Light/dayTrain/dayClip11/frames/dayClip11--00448.png,0,0,0
LISA_Traffic_Light/dayTrain/dayClip11/frames/dayClip11--00449.png,0,0,0
LISA_Traffic_Light/dayTrain/dayClip11/frames/dayClip11--00450.png,0,0,0
LISA_Traffic_Light/dayTrain/dayClip11/frames/dayClip11--00451.png,0,0,0
LISA_Traffic_Light/dayTrain/dayClip11/frames/dayClip11--00452.png,0,0,0
LISA_Traffic_Light/dayTrain/dayClip11/frames/dayClip11--00453.png,0,0,0
LISA_Traffic_Light/dayTrain/dayClip11/frames/dayClip11--00454.png,0,0,0
LISA_Traffic_Light/dayTrain/dayClip11/frames/dayClip11--00455.png,0,0,0
LISA_Traffic_Light/dayTrain/dayClip11/frames/dayClip11--00456.png,0,0,0
LISA_Traffic_Light/dayTrain/dayClip11/frames/dayClip11--00457.png,0,0,0
LISA_Traffic_Light/dayTrain/dayClip11/frames/dayClip11--00458.png,0,0,0
LISA_Traffic_Light/dayTrain/dayClip11/frames/dayClip11--00459.png,0,0,0
LISA_Traffic_Light/dayTrain/dayClip11/frames/dayClip11--00460.png,0,0,0
LISA_Traffic_Light/dayTrain/dayClip11/frames/dayClip11--00461.png,0,0,0
LISA_Traffic_Light/dayTrain/dayClip11/frames/dayClip11--00462.png,0,0,0
LISA_Traffic_Light/dayTrain/dayClip11/frames/dayClip11--00463.png,0,0,0
LISA_Traffic_Light/dayTrain/dayClip11/frames/dayClip11--00464.png,0,0,0
LISA_Traffic_Light/dayTrain/dayClip11/frames/dayClip11--00465.png,0,0,0
LISA_Traffic_Light/dayTrain/dayClip11/frames/dayClip11--00466.png,0,0,0
LISA_Traffic_Light/dayTrain/dayClip11/frames/dayClip11--00467.png,0,0,0
LISA_Traffic_Light/dayTrain/dayClip11/frames/dayClip11--00468.png,0,0,0
LISA_Traffic_Light/dayTrain/dayClip11/frames/dayClip11--00469.png,0,0,0
LISA_Traffic_Light/dayTrain/dayClip11/frames/dayClip11--00470.png,0,0,0
LISA_Traffic_Light/dayTrain/dayClip11/frames/dayClip11--00471.png,0,0,0
LISA_Traffic_Light/dayTrain/dayClip11/frames/dayClip11--00472.png,0,0,0
LISA_Traffic_Light/dayTrain/dayClip11/frames/dayClip11--00473.png,0,0,0
LISA_Traffic_Light/dayTrain/dayClip11/frames/dayClip11--00474.png,0,0,0
LISA_Traffic_Light/dayTrain/dayClip11/frames/dayClip11--00475.png,0,0,0
LISA_Traffic_Light/dayTrain/dayClip11/frames/dayClip11--00476.png,0,0,0
LISA_Traffic_Light/dayTrain/dayClip11/frames/dayClip11--00477.png,0,0,0
LISA_Traffic_Light/dayTrain/dayClip11/frames/dayClip11--00478.png,0,0,0
LISA_Traffic_Light/dayTrain/dayClip11/frames/dayClip11--00479.png,0,0,0
LISA_Traffic_Light/dayTrain/dayClip11/frames/dayClip11--00480.png,0,0,0
LISA_Traffic_Light/dayTrain/dayClip11/frames/dayClip11--00481.png,0,0,0
LISA_Traffic_Light/dayTrain/dayClip11/frames/dayClip11--00482.png,0,0,0
LISA_Traffic_Light/dayTrain/dayClip11/frames/dayClip11--00483.png,0,0,0
LISA_Traffic_Light/dayTrain/dayClip11/frames/dayClip11--00484.png,0,0,0
LISA_Traffic_Light/dayTrain/dayClip11/frames/dayClip11--00485.png,0,0,0
LISA_Traffic_Light/dayTrain/dayClip11/frames/dayClip11--00486.png,0,0,0
LISA_Traffic_Light/dayTrain/dayClip11/frames/dayClip11--00487.png,0,0,0
LISA_Traffic_Light/dayTrain/dayClip11/frames/dayClip11--00488.png,0,0,0
LISA_Traffic_Light/dayTrain/dayClip11/frames/dayClip11--00489.png,0,0,0
LISA_Traffic_Light/dayTrain/dayClip11/frames/dayClip11--00490.png,0,0,0
LISA_Traffic_Light/dayTrain/dayClip11/frames/dayClip11--00491.png,0,0,0
LISA_Traffic_Light/dayTrain/dayClip11/frames/dayClip11--00492.png,0,0,0
LISA_Traffic_Light/dayTrain/dayClip11/frames/dayClip11--00493.png,0,0,0
LISA_Traffic_Light/dayTrain/dayClip11/frames/dayClip11--00494.png,0,0,0
LISA_Traffic_Light/dayTrain/dayClip11/frames/dayClip11--00495.png,0,0,0
LISA_Traffic_Light/dayTrain/dayClip11/frames/dayClip11--00496.png,0,0,0
LISA_Traffic_Light/dayTrain/dayClip11/frames/dayClip11--00497.png,0,0,0
LISA_Traffic_Light/dayTrain/dayClip11/frames/dayClip11--00498.png,0,0,0
LISA_Traffic_Light/dayTrain/dayClip11/frames/dayClip11--00499.png,0,0,0
LISA_Traffic_Light/dayTrain/dayClip11/frames/dayClip11--00500.png,0,0,0
LISA_Traffic_Light/dayTrain/dayClip11/frames/dayClip11--00501.png,0,0,0
LISA_Traffic_Light/dayTrain/dayClip11/frames/dayClip11--00502.png,0,0,0
LISA_Traffic_Light/dayTrain/dayClip11/frames/dayClip11--00503.png,0,0,0
LISA_Traffic_Light/dayTrain/dayClip11/frames/dayClip11--00504.png,0,0,0
LISA_Traffic_Light/dayTrain/dayClip11/frames/dayClip11--00505.png,0,0,0
LISA_Traffic_Light/dayTrain/dayClip11/frames/dayClip11--00506.png,0,0,0
LISA_Traffic_Light/dayTrain/dayClip11/frames/dayClip11--00507.png,0,0,0
LISA_Traffic_Light/dayTrain/dayClip11/frames/dayClip11--00508.png,0,0,0
LISA_Traffic_Light/dayTrain/dayClip11/frames/dayClip11--00509.png,0,0,0
LISA_Traffic_Light/dayTrain/dayClip11/frames/dayClip11--00510.png,0,0,0
LISA_Traffic_Light/dayTrain/dayClip11/frames/dayClip11--00511.png,0,0,0
LISA_Traffic_Light/dayTrain/dayClip11/frames/dayClip11--00512.png,0,0,0
LISA_Traffic_Light/dayTrain/dayClip11/frames/dayClip11--00513.png,0,0,0
LISA_Traffic_Light/dayTrain/dayClip11/frames/dayClip11--00514.png,0,0,0
LISA_Traffic_Light/dayTrain/dayClip11/frames/dayClip11--00515.png,0,0,0
LISA_Traffic_Light/dayTrain/dayClip11/frames/dayClip11--00516.png,0,0,0
LISA_Traffic_Light/dayTrain/dayClip11/frames/dayClip11--00517.png,0,0,0
LISA_Traffic_Light/dayTrain/dayClip11/frames/dayClip11--00518.png,0,0,0
LISA_Traffic_Light/dayTrain/dayClip11/frames/dayClip11--00519.png,0,0,0
LISA_Traffic_Light/dayTrain/dayClip11/frames/dayClip11--00520.png,0,0,0
LISA_Traffic_Light/dayTrain/dayClip11/frames/dayClip11--00521.png,0,0,0
LISA_Traffic_Light/dayTrain/dayClip11/frames/dayClip11--00522.png,0,0,0
LISA_Traffic_Light/dayTrain/dayClip11/frames/dayClip11--00523.png,0,0,0
LISA_Traffic_Light/dayTrain/dayClip11/frames/dayClip11--00524.png,0,0,0
LISA_Traffic_Light/dayTrain/dayClip11/frames/dayClip11--00525.png,0,0,0
LISA_Traffic_Light/dayTrain/dayClip11/frames/dayClip11--00526.png,0,0,0
LISA_Traffic_Light/dayTrain/dayClip11/frames/dayClip11--00527.png,0,0,0
LISA_Traffic_Light/dayTrain/dayClip11/frames/dayClip11--00528.png,0,0,0
LISA_Traffic_Light/dayTrain/dayClip11/frames/dayClip11--00529.png,0,0,0
LISA_Traffic_Light/dayTrain/dayClip11/frames/dayClip11--00530.png,0,0,0
LISA_Traffic_Light/dayTrain/dayClip11/frames/dayClip11--00531.png,0,0,0
LISA_Traffic_Light/dayTrain/dayClip11/frames/dayClip11--00532.png,0,0,0
LISA_Traffic_Light/dayTrain/dayClip11/frames/dayClip11--00533.png,0,0,0
LISA_Traffic_Light/dayTrain/dayClip11/frames/dayClip11--00534.png,0,0,0
LISA_Traffic_Light/dayTrain/dayClip11/frames/dayClip11--00535.png,0,0,0
LISA_Traffic_Light/dayTrain/dayClip11/frames/dayClip11--00536.png,0,0,0
LISA_Traffic_Light/dayTrain/dayClip11/frames/dayClip11--00537.png,0,0,0
LISA_Traffic_Light/dayTrain/dayClip11/frames/dayClip11--00538.png,0,0,0
LISA_Traffic_Light/dayTrain/dayClip11/frames/dayClip11--00539.png,0,0,0
LISA_Traffic_Light/dayTrain/dayClip11/frames/dayClip11--00540.png,0,0,0
LISA_Traffic_Light/dayTrain/dayClip11/frames/dayClip11--00541.png,0,0,0
LISA_Traffic_Light/dayTrain/dayClip11/frames/dayClip11--00542.png,0,0,0
LISA_Traffic_Light/dayTrain/dayClip11/frames/dayClip11--00543.png,0,0,0
LISA_Traffic_Light/dayTrain/dayClip11/frames/dayClip11--00544.png,0,0,0
LISA_Traffic_Light/dayTrain/dayClip11/frames/dayClip11--00545.png,0,0,0
LISA_Traffic_Light/dayTrain/dayClip11/frames/dayClip11--00546.png,0,0,0
LISA_Traffic_Light/dayTrain/dayClip11/frames/dayClip11--00547.png,0,0,0
LISA_Traffic_Light/dayTrain/dayClip11/frames/dayClip11--00548.png,0,0,0
LISA_Traffic_Light/dayTrain/dayClip11/frames/dayClip11--00549.png,0,0,0
LISA_Traffic_Light/dayTrain/dayClip11/frames/dayClip11--00550.png,0,0,0
LISA_Traffic_Light/dayTrain/dayClip11/frames/dayClip11--00551.png,0,0,0
LISA_Traffic_Light/dayTrain/dayClip11/frames/dayClip11--00552.png,0,0,0
LISA_Traffic_Light/dayTrain/dayClip11/frames/dayClip11--00553.png,0,0,0
LISA_Traffic_Light/dayTrain/dayClip11/frames/dayClip11--00554.png,0,0,0
LISA_Traffic_Light/dayTrain/dayClip11/frames/dayClip11--00555.png,0,0,0
LISA_Traffic_Light/dayTrain/dayClip11/frames/dayClip11--00556.png,0,0,0
LISA_Traffic_Light/dayTrain/dayClip11/frames/dayClip11--00557.png,0,0,0
LISA_Traffic_Light/dayTrain/dayClip11/frames/dayClip11--00558.png,0,0,0
LISA_Traffic_Light/dayTrain/dayClip11/frames/dayClip11--00559.png,0,0,0
LISA_Traffic_Light/dayTrain/dayClip11/frames/dayClip11--00560.png,0,0,0
LISA_Traffic_Light/dayTrain/dayClip11/frames/dayClip11--00561.png,0,0,0
LISA_Traffic_Light/dayTrain/dayClip11/frames/dayClip11--00562.png,0,0,0
LISA_Traffic_Light/dayTrain/dayClip11/frames/dayClip11--00563.png,0,0,0
LISA_Traffic_Light/dayTrain/dayClip11/frames/dayClip11--00564.png,0,0,0
LISA_Traffic_Light/dayTrain/dayClip11/frames/dayClip11--00565.png,0,0,0
LISA_Traffic_Light/dayTrain/dayClip11/frames/dayClip11--00566.png,0,0,0
LISA_Traffic_Light/dayTrain/dayClip11/frames/dayClip11--00567.png,0,0,0
LISA_Traffic_Light/dayTrain/dayClip11/frames/dayClip11--00568.png,0,0,0
LISA_Traffic_Light/dayTrain/dayClip11/frames/dayClip11--00569.png,0,0,0
LISA_Traffic_Light/dayTrain/dayClip11/frames/dayClip11--00570.png,0,0,0
LISA_Traffic_Light/dayTrain/dayClip11/frames/dayClip11--00571.png,0,0,0
LISA_Traffic_Light/dayTrain/dayClip11/frames/dayClip11--00572.png,0,0,0
LISA_Traffic_Light/dayTrain/dayClip11/frames/dayClip11--00573.png,0,0,0
LISA_Traffic_Light/dayTrain/dayClip11/frames/dayClip11--00574.png,0,0,0
LISA_Traffic_Light/dayTrain/dayClip11/frames/dayClip11--00575.png,0,0,0
LISA_Traffic_Light/dayTrain/dayClip11/frames/dayClip11--00576.png,0,0,0
LISA_Traffic_Light/dayTrain/dayClip11/frames/dayClip11--00577.png,0,0,0
LISA_Traffic_Light/dayTrain/dayClip11/frames/dayClip11--00578.png,0,0,0
LISA_Traffic_Light/dayTrain/dayClip11/frames/dayClip11--00579.png,0,0,0
LISA_Traffic_Light/dayTrain/dayClip11/frames/dayClip11--00580.png,0,0,0
LISA_Traffic_Light/dayTrain/dayClip11/frames/dayClip11--00581.png,0,0,0
LISA_Traffic_Light/dayTrain/dayClip11/frames/dayClip11--00582.png,0,0,0
LISA_Traffic_Light/dayTrain/dayClip11/frames/dayClip11--00583.png,0,0,0
LISA_Traffic_Light/dayTrain/dayClip11/frames/dayClip11--00584.png,0,0,0
LISA_Traffic_Light/dayTrain/dayClip11/frames/dayClip11--00585.png,0,0,0
LISA_Traffic_Light/dayTrain/dayClip11/frames/dayClip11--00586.png,0,0,0
LISA_Traffic_Light/dayTrain/dayClip11/frames/dayClip11--00587.png,0,0,0
LISA_Traffic_Light/dayTrain/dayClip11/frames/dayClip11--00588.png,0,0,0
LISA_Traffic_Light/dayTrain/dayClip11/frames/dayClip11--00589.png,0,0,0
LISA_Traffic_Light/dayTrain/dayClip11/frames/dayClip11--00590.png,0,0,0
LISA_Traffic_Light/dayTrain/dayClip11/frames/dayClip11--00591.png,0,0,0
LISA_Traffic_Light/dayTrain/dayClip11/frames/dayClip11--00592.png,0,0,0
LISA_Traffic_Light/dayTrain/dayClip11/frames/dayClip11--00593.png,0,0,0
LISA_Traffic_Light/dayTrain/dayClip11/frames/dayClip11--00594.png,0,0,0
LISA_Traffic_Light/dayTrain/dayClip11/frames/dayClip11--00595.png,0,0,0
LISA_Traffic_Light/dayTrain/dayClip11/frames/dayClip11--00596.png,0,0,0
LISA_Traffic_Light/dayTrain/dayClip11/frames/dayClip11--00597.png,0,0,0
LISA_Traffic_Light/dayTrain/dayClip11/frames/dayClip11--00598.png,0,0,0
LISA_Traffic_Light/dayTrain/dayClip11/frames/dayClip11--00599.png,0,0,0
LISA_Traffic_Light/dayTrain/dayClip11/frames/dayClip11--00600.png,0,0,0
LISA_Traffic_Light/dayTrain/dayClip11/frames/dayClip11--00601.png,0,0,0
LISA_Traffic_Light/dayTrain/dayClip11/frames/dayClip11--00602.png,0,0,0
LISA_Traffic_Light/dayTrain/dayClip11/frames/dayClip11--00603.png,0,0,0
LISA_Traffic_Light/dayTrain/dayClip11/frames/dayClip11--00604.png,0,0,0
LISA_Traffic_Light/dayTrain/dayClip11/frames/dayClip11--00605.png,0,0,0
LISA_Traffic_Light/dayTrain/dayClip11/frames/dayClip11--00606.png,0,0,0
LISA_Traffic_Light/dayTrain/dayClip11/frames/dayClip11--00607.png,0,0,0
LISA_Traffic_Light/dayTrain/dayClip11/frames/dayClip11--00608.png,0,0,0
LISA_Traffic_Light/dayTrain/dayClip11/frames/dayClip11--00609.png,0,0,0
LISA_Traffic_Light/dayTrain/dayClip11/frames/dayClip11--00610.png,0,0,0
LISA_Traffic_Light/dayTrain/dayClip11/frames/dayClip11--00611.png,0,0,0
LISA_Traffic_Light/dayTrain/dayClip11/frames/dayClip11--00612.png,0,0,0
LISA_Traffic_Light/dayTrain/dayClip11/frames/dayClip11--00613.png,0,0,0
LISA_Traffic_Light/dayTrain/dayClip11/frames/dayClip11--00614.png,0,0,0
LISA_Traffic_Light/dayTrain/dayClip11/frames/dayClip11--00615.png,0,0,0
LISA_Traffic_Light/dayTrain/dayClip11/frames/dayClip11--00616.png,0,0,0
LISA_Traffic_Light/dayTrain/dayClip11/frames/dayClip11--00617.png,0,0,0
LISA_Traffic_Light/dayTrain/dayClip11/frames/dayClip11--00618.png,0,0,0
LISA_Traffic_Light/dayTrain/dayClip11/frames/dayClip11--00619.png,0,0,0
LISA_Traffic_Light/dayTrain/dayClip11/frames/dayClip11--00620.png,0,0,0
LISA_Traffic_Light/dayTrain/dayClip11/frames/dayClip11--00621.png,0,0,0
LISA_Traffic_Light/dayTrain/dayClip11/frames/dayClip11--00622.png,0,0,0
LISA_Traffic_Light/dayTrain/dayClip11/frames/dayClip11--00623.png,0,0,0
LISA_Traffic_Light/dayTrain/dayClip11/frames/dayClip11--00624.png,0,0,0
LISA_Traffic_Light/dayTrain/dayClip11/frames/dayClip11--00625.png,0,0,0
LISA_Traffic_Light/dayTrain/dayClip11/frames/dayClip11--00626.png,0,0,0
LISA_Traffic_Light/dayTrain/dayClip11/frames/dayClip11--00627.png,0,0,0
LISA_Traffic_Light/dayTrain/dayClip11/frames/dayClip11--00628.png,0,0,0
LISA_Traffic_Light/dayTrain/dayClip11/frames/dayClip11--00629.png,0,0,0
LISA_Traffic_Light/dayTrain/dayClip11/frames/dayClip11--00630.png,0,0,0
LISA_Traffic_Light/dayTrain/dayClip11/frames/dayClip11--00631.png,0,0,0
LISA_Traffic_Light/dayTrain/dayClip11/frames/dayClip11--00632.png,0,0,0
LISA_Traffic_Light/dayTrain/dayClip11/frames/dayClip11--00633.png,0,0,0
LISA_Traffic_Light/dayTrain/dayClip11/frames/dayClip11--00634.png,0,0,0
LISA_Traffic_Light/dayTrain/dayClip11/frames/dayClip11--00635.png,0,0,0
LISA_Traffic_Light/dayTrain/dayClip11/frames/dayClip11--00636.png,0,0,0
LISA_Traffic_Light/dayTrain/dayClip11/frames/dayClip11--00637.png,0,0,0
LISA_Traffic_Light/dayTrain/dayClip11/frames/dayClip11--00638.png,0,0,0
LISA_Traffic_Light/dayTrain/dayClip11/frames/dayClip11--00639.png,0,0,0
LISA_Traffic_Light/dayTrain/dayClip11/frames/dayClip11--00640.png,0,0,0
LISA_Traffic_Light/dayTrain/dayClip11/frames/dayClip11--00641.png,0,0,0
LISA_Traffic_Light/dayTrain/dayClip11/frames/dayClip11--00642.png,0,0,0
LISA_Traffic_Light/dayTrain/dayClip11/frames/dayClip11--00643.png,0,0,0
LISA_Traffic_Light/dayTrain/dayClip11/frames/dayClip11--00644.png,0,0,0
LISA_Traffic_Light/dayTrain/dayClip11/frames/dayClip11--00645.png,0,0,0
LISA_Traffic_Light/dayTrain/dayClip11/frames/dayClip11--00646.png,0,0,0
LISA_Traffic_Light/dayTrain/dayClip11/frames/dayClip11--00647.png,0,0,0
LISA_Traffic_Light/dayTrain/dayClip11/frames/dayClip11--00648.png,0,0,0
LISA_Traffic_Light/dayTrain/dayClip11/frames/dayClip11--00649.png,0,0,0
LISA_Traffic_Light/dayTrain/dayClip11/frames/dayClip11--00650.png,0,0,0
LISA_Traffic_Light/dayTrain/dayClip11/frames/dayClip11--00651.png,0,0,0
LISA_Traffic_Light/dayTrain/dayClip11/frames/dayClip11--00652.png,0,0,0
LISA_Traffic_Light/dayTrain/dayClip11/frames/dayClip11--00653.png,0,0,0
LISA_Traffic_Light/dayTrain/dayClip11/frames/dayClip11--00654.png,0,0,0
LISA_Traffic_Light/dayTrain/dayClip11/frames/dayClip11--00655.png,0,0,0
LISA_Traffic_Light/dayTrain/dayClip11/frames/dayClip11--00656.png,0,0,0
LISA_Traffic_Light/dayTrain/dayClip11/frames/dayClip11--00657.png,0,0,0
LISA_Traffic_Light/dayTrain/dayClip11/frames/dayClip11--00658.png,0,0,0
LISA_Traffic_Light/dayTrain/dayClip11/frames/dayClip11--00659.png,0,0,0
LISA_Traffic_Light/dayTrain/dayClip11/frames/dayClip11--00660.png,0,0,0
LISA_Traffic_Light/dayTrain/dayClip11/frames/dayClip11--00661.png,0,0,0
LISA_Traffic_Light/dayTrain/dayClip11/frames/dayClip11--00662.png,0,0,0
LISA_Traffic_Light/dayTrain/dayClip11/frames/dayClip11--00663.png,0,0,0
LISA_Traffic_Light/dayTrain/dayClip11/frames/dayClip11--00664.png,0,0,0
LISA_Traffic_Light/dayTrain/dayClip11/frames/dayClip11--00665.png,0,0,0
LISA_Traffic_Light/dayTrain/dayClip11/frames/dayClip11--00666.png,0,0,0
LISA_Traffic_Light/dayTrain/dayClip11/frames/dayClip11--00667.png,0,0,0
LISA_Traffic_Light/dayTrain/dayClip11/frames/dayClip11--00668.png,0,0,0
LISA_Traffic_Light/dayTrain/dayClip11/frames/dayClip11--00669.png,0,0,0
LISA_Traffic_Light/dayTrain/dayClip11/frames/dayClip11--00670.png,0,0,0
LISA_Traffic_Light/dayTrain/dayClip11/frames/dayClip11--00671.png,0,0,0
LISA_Traffic_Light/dayTrain/dayClip11/frames/dayClip11--00672.png,0,0,0
LISA_Traffic_Light/dayTrain/dayClip11/frames/dayClip11--00673.png,0,0,0
LISA_Traffic_Light/dayTrain/dayClip11/frames/dayClip11--00674.png,0,0,0
LISA_Traffic_Light/dayTrain/dayClip11/frames/dayClip11--00675.png,0,0,0
LISA_Traffic_Light/dayTrain/dayClip11/frames/dayClip11--00676.png,0,0,0
LISA_Traffic_Light/dayTrain/dayClip11/frames/dayClip11--00677.png,0,0,0
LISA_Traffic_Light/dayTrain/dayClip11/frames/dayClip11--00678.png,0,0,0
LISA_Traffic_Light/dayTrain/dayClip11/frames/dayClip11--00679.png,0,0,0
LISA_Traffic_Light/dayTrain/dayClip11/frames/dayClip11--00680.png,0,0,0
LISA_Traffic_Light/dayTrain/dayClip11/frames/dayClip11--00681.png,0,0,0
LISA_Traffic_Light/dayTrain/dayClip11/frames/dayClip11--00682.png,0,0,0
LISA_Traffic_Light/dayTrain/dayClip11/frames/dayClip11--00683.png,0,0,0
LISA_Traffic_Light/dayTrain/dayClip11/frames/dayClip11--00684.png,0,0,0
LISA_Traffic_Light/dayTrain/dayClip11/frames/dayClip11--00685.png,0,0,0
LISA_Traffic_Light/dayTrain/dayClip11/frames/dayClip11--00686.png,0,0,0
LISA_Traffic_Light/dayTrain/dayClip11/frames/dayClip11--00687.png,0,0,0
LISA_Traffic_Light/dayTrain/dayClip11/frames/dayClip11--00688.png,0,0,0
LISA_Traffic_Light/dayTrain/dayClip11/frames/dayClip11--00689.png,0,0,0
LISA_Traffic_Light/dayTrain/dayClip11/frames/dayClip11--00690.png,0,0,0
LISA_Traffic_Light/dayTrain/dayClip11/frames/dayClip11--00691.png,0,0,0
LISA_Traffic_Light/dayTrain/dayClip11/frames/dayClip11--00692.png,0,0,0
LISA_Traffic_Light/dayTrain/dayClip11/frames/dayClip11--00693.png,0,0,0
LISA_Traffic_Light/dayTrain/dayClip11/frames/dayClip11--00694.png,0,0,0
LISA_Traffic_Light/dayTrain/dayClip11/frames/dayClip11--00695.png,0,0,0
LISA_Traffic_Light/dayTrain/dayClip11/frames/dayClip11--00696.png,0,0,0
LISA_Traffic_Light/dayTrain/dayClip11/frames/dayClip11--00697.png,0,0,0
LISA_Traffic_Light/dayTrain/dayClip11/frames/dayClip11--00698.png,0,0,0
LISA_Traffic_Light/dayTrain/dayClip11/frames/dayClip11--00699.png,0,0,0
LISA_Traffic_Light/dayTrain/dayClip11/frames/dayClip11--00700.png,0,0,0
LISA_Traffic_Light/dayTrain/dayClip11/frames/dayClip11--00701.png,0,0,0
LISA_Traffic_Light/dayTrain/dayClip11/frames/dayClip11--00702.png,0,0,0
LISA_Traffic_Light/dayTrain/dayClip11/frames/dayClip11--00703.png,0,0,0
LISA_Traffic_Light/dayTrain/dayClip11/frames/dayClip11--00704.png,0,0,0
LISA_Traffic_Light/dayTrain/dayClip11/frames/dayClip11--00705.png,0,0,0
LISA_Traffic_Light/dayTrain/dayClip11/frames/dayClip11--00706.png,0,0,0
LISA_Traffic_Light/dayTrain/dayClip11/frames/dayClip11--00707.png,0,0,0
LISA_Traffic_Light/dayTrain/dayClip11/frames/dayClip11--00708.png,0,0,0
LISA_Traffic_Light/dayTrain/dayClip11/frames/dayClip11--00709.png,0,0,0
LISA_Traffic_Light/dayTrain/dayClip11/frames/dayClip11--00710.png,0,0,0
LISA_Traffic_Light/dayTrain/dayClip11/frames/dayClip11--00711.png,0,0,0
LISA_Traffic_Light/dayTrain/dayClip11/frames/dayClip11--00712.png,0,0,0
LISA_Traffic_Light/dayTrain/dayClip11/frames/dayClip11--00713.png,0,0,0
LISA_Traffic_Light/dayTrain/dayClip11/frames/dayClip11--00714.png,0,0,0
LISA_Traffic_Light/dayTrain/dayClip11/frames/dayClip11--00715.png,0,0,0
LISA_Traffic_Light/dayTrain/dayClip11/frames/dayClip11--00716.png,0,0,0
LISA_Traffic_Light/dayTrain/dayClip11/frames/dayClip11--00717.png,0,0,0
LISA_Traffic_Light/dayTrain/dayClip11/frames/dayClip11--00718.png,0,0,0
LISA_Traffic_Light/dayTrain/dayClip11/frames/dayClip11--00719.png,0,0,0
LISA_Traffic_Light/dayTrain/dayClip11/frames/dayClip11--00720.png,0,0,0
LISA_Traffic_Light/dayTrain/dayClip11/frames/dayClip11--00721.png,0,0,0
LISA_Traffic_Light/dayTrain/dayClip11/frames/dayClip11--00722.png,0,0,0
LISA_Traffic_Light/dayTrain/dayClip11/frames/dayClip11--00723.png,0,0,0
LISA_Traffic_Light/dayTrain/dayClip11/frames/dayClip11--00724.png,0,0,0
LISA_Traffic_Light/dayTrain/dayClip11/frames/dayClip11--00725.png,0,0,0
LISA_Traffic_Light/dayTrain/dayClip11/frames/dayClip11--00726.png,0,0,0
LISA_Traffic_Light/dayTrain/dayClip11/frames/dayClip11--00727.png,0,0,0
LISA_Traffic_Light/dayTrain/dayClip11/frames/dayClip11--00728.png,0,0,0
LISA_Traffic_Light/dayTrain/dayClip11/frames/dayClip11--00729.png,0,0,0
LISA_Traffic_Light/dayTrain/dayClip11/frames/dayClip11--00730.png,0,0,0
LISA_Traffic_Light/dayTrain/dayClip11/frames/dayClip11--00731.png,0,0,0
LISA_Traffic_Light/dayTrain/dayClip11/frames/dayClip11--00732.png,0,0,0
LISA_Traffic_Light/dayTrain/dayClip11/frames/dayClip11--00733.png,0,0,0
LISA_Traffic_Light/dayTrain/dayClip11/frames/dayClip11--00734.png,0,0,0
LISA_Traffic_Light/dayTrain/dayClip11/frames/dayClip11--00735.png,0,0,0
LISA_Traffic_Light/dayTrain/dayClip11/frames/dayClip11--00736.png,0,0,0
LISA_Traffic_Light/dayTrain/dayClip11/frames/dayClip11--00737.png,0,0,0
LISA_Traffic_Light/dayTrain/dayClip11/frames/dayClip11--00738.png,0,0,0
LISA_Traffic_Light/dayTrain/dayClip11/frames/dayClip11--00739.png,0,0,0
LISA_Traffic_Light/dayTrain/dayClip11/frames/dayClip11--00740.png,0,0,0
LISA_Traffic_Light/dayTrain/dayClip11/frames/dayClip11--00741.png,0,0,0
LISA_Traffic_Light/dayTrain/dayClip11/frames/dayClip11--00742.png,0,0,0
LISA_Traffic_Light/dayTrain/dayClip11/frames/dayClip11--00743.png,0,0,0
LISA_Traffic_Light/dayTrain/dayClip11/frames/dayClip11--00744.png,0,0,0
LISA_Traffic_Light/dayTrain/dayClip11/frames/dayClip11--00745.png,0,0,0
LISA_Traffic_Light/dayTrain/dayClip11/frames/dayClip11--00746.png,0,0,0
LISA_Traffic_Light/dayTrain/dayClip11/frames/dayClip11--00747.png,0,0,0
LISA_Traffic_Light/dayTrain/dayClip11/frames/dayClip11--00748.png,0,0,0
LISA_Traffic_Light/dayTrain/dayClip11/frames/dayClip11--00749.png,0,0,0
LISA_Traffic_Light/dayTrain/dayClip11/frames/dayClip11--00750.png,0,0,0
LISA_Traffic_Light/dayTrain/dayClip11/frames/dayClip11--00751.png,0,0,0
LISA_Traffic_Light/dayTrain/dayClip11/frames/dayClip11--00752.png,0,0,0
LISA_Traffic_Light/dayTrain/dayClip11/frames/dayClip11--00753.png,0,0,0
LISA_Traffic_Light/dayTrain/dayClip11/frames/dayClip11--00754.png,0,0,0
LISA_Traffic_Light/dayTrain/dayClip11/frames/dayClip11--00755.png,0,0,0
LISA_Traffic_Light/dayTrain/dayClip11/frames/dayClip11--00756.png,0,0,0
LISA_Traffic_Light/dayTrain/dayClip11/frames/dayClip11--00757.png,0,0,0
LISA_Traffic_Light/dayTrain/dayClip11/frames/dayClip11--00758.png,0,0,0
LISA_Traffic_Light/dayTrain/dayClip11/frames/dayClip11--00759.png,0,0,0
LISA_Traffic_Light/dayTrain/dayClip11/frames/dayClip11--00760.png,0,0,0
LISA_Traffic_Light/dayTrain/dayClip11/frames/dayClip11--00761.png,0,0,0
LISA_Traffic_Light/dayTrain/dayClip11/frames/dayClip11--00762.png,0,0,0
LISA_Traffic_Light/dayTrain/dayClip12/frames/dayClip12--00099.png,0,0,0
LISA_Traffic_Light/dayTrain/dayClip12/frames/dayClip12--00100.png,0,0,0
LISA_Traffic_Light/dayTrain/dayClip12/frames/dayClip12--00101.png,0,0,0
LISA_Traffic_Light/dayTrain/dayClip12/frames/dayClip12--00102.png,0,0,0
LISA_Traffic_Light/dayTrain/dayClip12/frames/dayClip12--00103.png,0,0,0
LISA_Traffic_Light/dayTrain/dayClip12/frames/dayClip12--00104.png,0,0,0
LISA_Traffic_Light/dayTrain/dayClip12/frames/dayClip12--00105.png,0,0,0
LISA_Traffic_Light/dayTrain/dayClip12/frames/dayClip12--00106.png,0,0,0
LISA_Traffic_Light/dayTrain/dayClip12/frames/dayClip12--00107.png,0,0,0
LISA_Traffic_Light/dayTrain/dayClip12/frames/dayClip12--00108.png,0,0,0
LISA_Traffic_Light/dayTrain/dayClip12/frames/dayClip12--00109.png,0,0,0
LISA_Traffic_Light/dayTrain/dayClip12/frames/dayClip12--00110.png,0,0,0
LISA_Traffic_Light/dayTrain/dayClip12/frames/dayClip12--00111.png,0,0,0
LISA_Traffic_Light/dayTrain/dayClip12/frames/dayClip12--00112.png,0,0,0
LISA_Traffic_Light/dayTrain/dayClip12/frames/dayClip12--00113.png,0,0,0
LISA_Traffic_Light/dayTrain/dayClip12/frames/dayClip12--00114.png,0,0,0
LISA_Traffic_Light/dayTrain/dayClip12/frames/dayClip12--00115.png,0,0,0
LISA_Traffic_Light/dayTrain/dayClip12/frames/dayClip12--00143.png,0,0,0
LISA_Traffic_Light/dayTrain/dayClip12/frames/dayClip12--00144.png,0,0,0
LISA_Traffic_Light/dayTrain/dayClip12/frames/dayClip12--00145.png,0,0,0
LISA_Traffic_Light/dayTrain/dayClip12/frames/dayClip12--00146.png,0,0,0
LISA_Traffic_Light/dayTrain/dayClip12/frames/dayClip12--00147.png,0,0,0
LISA_Traffic_Light/dayTrain/dayClip12/frames/dayClip12--00148.png,0,0,0
LISA_Traffic_Light/dayTrain/dayClip12/frames/dayClip12--00149.png,0,0,0
LISA_Traffic_Light/dayTrain/dayClip12/frames/dayClip12--00150.png,0,0,0
LISA_Traffic_Light/dayTrain/dayClip12/frames/dayClip12--00151.png,0,0,0
LISA_Traffic_Light/dayTrain/dayClip13/frames/dayClip13--00685.png,0,0,0
LISA_Traffic_Light/dayTrain/dayClip13/frames/dayClip13--00686.png,0,0,0
LISA_Traffic_Light/dayTrain/dayClip13/frames/dayClip13--00687.png,0,0,0
LISA_Traffic_Light/dayTrain/dayClip13/frames/dayClip13--00688.png,0,0,0
LISA_Traffic_Light/dayTrain/dayClip13/frames/dayClip13--00689.png,0,0,0
LISA_Traffic_Light/dayTrain/dayClip13/frames/dayClip13--00690.png,0,0,0
LISA_Traffic_Light/dayTrain/dayClip13/frames/dayClip13--00691.png,0,0,0
LISA_Traffic_Light/dayTrain/dayClip13/frames/dayClip13--00692.png,0,0,0
LISA_Traffic_Light/dayTrain/dayClip2/frames/dayClip2--00944.png,0,0,0
LISA_Traffic_Light/dayTrain/dayClip2/frames/dayClip2--00945.png,0,0,0
LISA_Traffic_Light/dayTrain/dayClip2/frames/dayClip2--00946.png,0,0,0
LISA_Traffic_Light/dayTrain/dayClip2/frames/dayClip2--00947.png,0,0,0
LISA_Traffic_Light/dayTrain/dayClip2/frames/dayClip2--00948.png,0,0,0
LISA_Traffic_Light/dayTrain/dayClip2/frames/dayClip2--00949.png,0,0,0
LISA_Traffic_Light/dayTrain/dayClip2/frames/dayClip2--00950.png,0,0,0
LISA_Traffic_Light/dayTrain/dayClip2/frames/dayClip2--00951.png,0,0,0
LISA_Traffic_Light/dayTrain/dayClip2/frames/dayClip2--00980.png,0,0,0
LISA_Traffic_Light/dayTrain/dayClip2/frames/dayClip2--00981.png,0,0,0
LISA_Traffic_Light/dayTrain/dayClip2/frames/dayClip2--00982.png,0,0,0
LISA_Traffic_Light/dayTrain/dayClip2/frames/dayClip2--00983.png,0,0,0
LISA_Traffic_Light/dayTrain/dayClip2/frames/dayClip2--00984.png,0,0,0
LISA_Traffic_Light/dayTrain/dayClip2/frames/dayClip2--00985.png,0,0,0
LISA_Traffic_Light/dayTrain/dayClip2/frames/dayClip2--00986.png,0,0,0
LISA_Traffic_Light/dayTrain/dayClip2/frames/dayClip2--00987.png,0,0,0
LISA_Traffic_Light/dayTrain/dayClip2/frames/dayClip2--00988.png,0,0,0
LISA_Traffic_Light/dayTrain/dayClip2/frames/dayClip2--00989.png,0,0,0
LISA_Traffic_Light/dayTrain/dayClip2/frames/dayClip2--00990.png,0,0,0
LISA_Traffic_Light/dayTrain/dayClip2/frames/dayClip2--00991.png,0,0,0
LISA_Traffic_Light/dayTrain/dayClip2/frames/dayClip2--00992.png,0,0,0
LISA_Traffic_Light/dayTrain/dayClip2/frames/dayClip2--00993.png,0,2,1
LISA_Traffic_Light/dayTrain/dayClip2/frames/dayClip2--00994.png,0,2,1
LISA_Traffic_Light/dayTrain/dayClip2/frames/dayClip2--00995.png,0,0,0
LISA_Traffic_Light/dayTrain/dayClip2/frames/dayClip2--00996.png,0,0,0
LISA_Traffic_Light/dayTrain/dayClip2/frames/dayClip2--00997.png,0,2,1
LISA_Traffic_Light/dayTrain/dayClip2/frames/dayClip2--00998.png,0,0,0
LISA_Traffic_Light/dayTrain/dayClip2/frames/dayClip2--00999.png,0,0,0
LISA_Traffic_Light/dayTrain/dayClip2/frames/dayClip2--01000.png,0,0,0
LISA_Traffic_Light/dayTrain/dayClip2/frames/dayClip2--01001.png,0,0,0
LISA_Traffic_Light/dayTrain/dayClip2/frames/dayClip2--01002.png,0,0,0
LISA_Traffic_Light/dayTrain/dayClip2/frames/dayClip2--01003.png,0,0,0
LISA_Traffic_Light/dayTrain/dayClip2/frames/dayClip2--01004.png,0,0,0
LISA_Traffic_Light/dayTrain/dayClip2/frames/dayClip2--01005.png,0,0,0
LISA_Traffic_Light/dayTrain/dayClip2/frames/dayClip2--01006.png,0,0,0
LISA_Traffic_Light/dayTrain/dayClip2/frames/dayClip2--01007.png,0,0,0
LISA_Traffic_Light/dayTrain/dayClip2/frames/dayClip2--01008.png,0,0,0
LISA_Traffic_Light/dayTrain/dayClip2/frames/dayClip2--01009.png,0,0,0
LISA_Traffic_Light/dayTrain/dayClip2/frames/dayClip2--01010.png,0,0,0
LISA_Traffic_Light/dayTrain/dayClip2/frames/dayClip2--01011.png,0,0,0
LISA_Traffic_Light/dayTrain/dayClip2/frames/dayClip2--01012.png,0,0,0
LISA_Traffic_Light/dayTrain/dayClip2/frames/dayClip2--01013.png,0,0,0
LISA_Traffic_Light/dayTrain/dayClip2/frames/dayClip2--01014.png,0,0,0
LISA_Traffic_Light/dayTrain/dayClip2/frames/dayClip2--01015.png,0,0,0
LISA_Traffic_Light/dayTrain/dayClip2/frames/dayClip2--01016.png,0,0,0
LISA_Traffic_Light/dayTrain/dayClip2/frames/dayClip2--01017.png,0,0,0
LISA_Traffic_Light/dayTrain/dayClip2/frames/dayClip2--01018.png,0,0,0
LISA_Traffic_Light/dayTrain/dayClip2/frames/dayClip2--01019.png,0,0,0
LISA_Traffic_Light/dayTrain/dayClip2/frames/dayClip2--01020.png,0,0,0
LISA_Traffic_Light/dayTrain/dayClip2/frames/dayClip2--01021.png,0,0,0
LISA_Traffic_Light/dayTrain/dayClip2/frames/dayClip2--01022.png,0,0,0
LISA_Traffic_Light/dayTrain/dayClip2/frames/dayClip2--01023.png,0,0,0
LISA_Traffic_Light/dayTrain/dayClip2/frames/dayClip2--01024.png,0,0,0
LISA_Traffic_Light/dayTrain/dayClip2/frames/dayClip2--01025.png,0,0,0
LISA_Traffic_Light/dayTrain/dayClip2/frames/dayClip2--01026.png,0,0,0
LISA_Traffic_Light/dayTrain/dayClip2/frames/dayClip2--01027.png,0,0,0
LISA_Traffic_Light/dayTrain/dayClip2/frames/dayClip2--01028.png,0,0,0
LISA_Traffic_Light/dayTrain/dayClip2/frames/dayClip2--01029.png,0,0,0
LISA_Traffic_Light/dayTrain/dayClip2/frames/dayClip2--01030.png,0,0,0
LISA_Traffic_Light/dayTrain/dayClip3/frames/dayClip3--00620.png,0,0,0
LISA_Traffic_Light/dayTrain/dayClip3/frames/dayClip3--00621.png,0,0,0
LISA_Traffic_Light/dayTrain/dayClip3/frames/dayClip3--00622.png,0,0,0
LISA_Traffic_Light/dayTrain/dayClip3/frames/dayClip3--00623.png,0,0,0
LISA_Traffic_Light/dayTrain/dayClip3/frames/dayClip3--00624.png,0,0,0
LISA_Traffic_Light/dayTrain/dayClip3/frames/dayClip3--00625.png,0,0,0
LISA_Traffic_Light/dayTrain/dayClip3/frames/dayClip3--00626.png,0,0,0
LISA_Traffic_Light/dayTrain/dayClip3/frames/dayClip3--00627.png,0,0,0
LISA_Traffic_Light/dayTrain/dayClip3/frames/dayClip3--00628.png,0,0,0
LISA_Traffic_Light/dayTrain/dayClip3/frames/dayClip3--00629.png,0,0,0
LISA_Traffic_Light/dayTrain/dayClip3/frames/dayClip3--00630.png,0,0,0
LISA_Traffic_Light/dayTrain/dayClip3/frames/dayClip3--00631.png,0,0,0
LISA_Traffic_Light/dayTrain/dayClip3/frames/dayClip3--00632.png,0,0,0
LISA_Traffic_Light/dayTrain/dayClip3/frames/dayClip3--00633.png,0,0,0
LISA_Traffic_Light/dayTrain/dayClip3/frames/dayClip3--00634.png,0,0,0
LISA_Traffic_Light/dayTrain/dayClip3/frames/dayClip3--00635.png,0,0,0
LISA_Traffic_Light/dayTrain/dayClip3/frames/dayClip3--00636.png,0,0,0
LISA_Traffic_Light/dayTrain/dayClip3/frames/dayClip3--00637.png,0,0,0
LISA_Traffic_Light/dayTrain/dayClip3/frames/dayClip3--00638.png,0,0,0
LISA_Traffic_Light/dayTrain/dayClip3/frames/dayClip3--00639.png,0,0,0
LISA_Traffic_Light/dayTrain/dayClip3/frames/dayClip3--00640.png,0,0,0
LISA_Traffic_Light/dayTrain/dayClip3/frames/dayClip3--00641.png,0,0,0
LISA_Traffic_Light/dayTrain/dayClip3/frames/dayClip3--00642.png,0,0,0
LISA_Traffic_Light/dayTrain/dayClip5/frames/dayClip5--02629.png,0,2,2
LISA_Traffic_Light/dayTrain/dayClip5/frames/dayClip5--02630.png,0,2,2
LISA_Traffic_Light/dayTrain/dayClip5/frames/dayClip5--02631.png,0,2,2
LISA_Traffic_Light/dayTrain/dayClip5/frames/dayClip5--02632.png,0,2,3
LISA_Traffic_Light/dayTrain/dayClip5/frames/dayClip5--02633.png,0,2,2
LISA_Traffic_Light/dayTrain/dayClip5/frames/dayClip5--02634.png,0,2,3
LISA_Traffic_Light/dayTrain/dayClip6/frames/dayClip6--00415.png,0,0,0
LISA_Traffic_Light/dayTrain/dayClip6/frames/dayClip6--00416.png,0,0,0
LISA_Traffic_Light/dayTrain/dayClip6/frames/dayClip6--00417.png,0,0,0
LISA_Traffic_Light/dayTrain/dayClip6/frames/dayClip6--00418.png,0,0,0
LISA_Traffic_Light/dayTrain/dayClip6/frames/dayClip6--00419.png,0,0,0
LISA_Traffic_Light/dayTrain/dayClip6/frames/dayClip6--00420.png,0,0,0
LISA_Traffic_Light/dayTrain/dayClip6/frames/dayClip6--00421.png,0,0,0
LISA_Traffic_Light/dayTrain/dayClip6/frames/dayClip6--00422.png,0,0,0
LISA_Traffic_Light/dayTrain/dayClip6/frames/dayClip6--00423.png,0,0,0
LISA_Traffic_Light/dayTrain/dayClip6/frames/dayClip6--00424.png,0,0,0
LISA_Traffic_Light/dayTrain/dayClip6/frames/dayClip6--00425.png,0,0,0
LISA_Traffic_Light/dayTrain/dayClip6/frames/dayClip6--00426.png,0,0,0
LISA_Traffic_Light/dayTrain/dayClip6/frames/dayClip6--00427.png,0,0,0
LISA_Traffic_Light/dayTrain/dayClip6/frames/dayClip6--00428.png,0,0,0
LISA_Traffic_Light/dayTrain/dayClip6/frames/dayClip6--00429.png,0,0,0
LISA_Traffic_Light/dayTrain/dayClip6/frames/dayClip6--00430.png,0,0,0
LISA_Traffic_Light/dayTrain/dayClip6/frames/dayClip6--00431.png,0,0,0
LISA_Traffic_Light/dayTrain/dayClip6/frames/dayClip6--00432.png,0,0,0
LISA_Traffic_Light/dayTrain/dayClip6/frames/dayClip6--00433.png,0,0,0
LISA_Traffic_Light/dayTrain/dayClip6/frames/dayClip6--00434.png,0,0,0
LISA_Traffic_Light/dayTrain/dayClip6/frames/dayClip6--00435.png,0,0,0
LISA_Traffic_Light/dayTrain/dayClip6/frames/dayClip6--00436.png,0,0,0
LISA_Traffic_Light/dayTrain/dayClip6/frames/dayClip6--00437.png,0,0,0
LISA_Traffic_Light/dayTrain/dayClip6/frames/dayClip6--00438.png,0,0,0
LISA_Traffic_Light/dayTrain/dayClip6/frames/dayClip6--00439.png,0,0,0
LISA_Traffic_Light/dayTrain/dayClip6/frames/dayClip6--00440.png,0,0,0
LISA_Traffic_Light/dayTrain/dayClip6/frames/dayClip6--00441.png,0,0,0
LISA_Traffic_Light/dayTrain/dayClip6/frames/dayClip6--00442.png,0,0,0
LISA_Traffic_Light/dayTrain/dayClip6/frames/dayClip6--00443.png,0,0,0
LISA_Traffic_Light/dayTrain/dayClip6/frames/dayClip6--00444.png,0,0,0
LISA_Traffic_Light/dayTrain/dayClip6/frames/dayClip6--00445.png,0,0,0
LISA_Traffic_Light/dayTrain/dayClip6/frames/dayClip6--00446.png,0,0,0
LISA_Traffic_Light/dayTrain/dayClip6/frames/dayClip6--00447.png,0,0,0
LISA_Traffic_Light/dayTrain/dayClip6/frames/dayClip6--00448.png,0,0,0
LISA_Traffic_Light/dayTrain/dayClip6/frames/dayClip6--00449.png,0,0,0
LISA_Traffic_Light/dayTrain/dayClip6/frames/dayClip6--00450.png,0,0,0
LISA_Traffic_Light/dayTrain/dayClip6/frames/dayClip6--00451.png,0,0,0
LISA_Traffic_Light/dayTrain/dayClip6/frames/dayClip6--00452.png,0,0,0
LISA_Traffic_Light/dayTrain/dayClip6/frames/dayClip6--00453.png,0,0,0
LISA_Traffic_Light/dayTrain/dayClip6/frames/dayClip6--00454.png,0,0,0
LISA_Traffic_Light/dayTrain/dayClip6/frames/dayClip6--00455.png,0,0,0
LISA_Traffic_Light/dayTrain/dayClip6/frames/dayClip6--00456.png,0,0,0
LISA_Traffic_Light/dayTrain/dayClip6/frames/dayClip6--00457.png,0,0,0
LISA_Traffic_Light/dayTrain/dayClip6/frames/dayClip6--00458.png,0,0,0
LISA_Traffic_Light/dayTrain/dayClip6/frames/dayClip6--00459.png,0,0,0
LISA_Traffic_Light/dayTrain/dayClip6/frames/dayClip6--00460.png,0,0,0
LISA_Traffic_Light/dayTrain/dayClip6/frames/dayClip6--00461.png,0,0,0
LISA_Traffic_Light/dayTrain/dayClip6/frames/dayClip6--00462.png,0,0,0
LISA_Traffic_Light/dayTrain/dayClip6/frames/dayClip6--00463.png,0,0,0
LISA_Traffic_Light/dayTrain/dayClip6/frames/dayClip6--00464.png,0,0,0
LISA_Traffic_Light/dayTrain/dayClip6/frames/dayClip6--00465.png,0,0,0
LISA_Traffic_Light/dayTrain/dayClip6/frames/dayClip6--00466.png,0,0,0
LISA_Traffic_Light/dayTrain/dayClip6/frames/dayClip6--00467.png,0,0,0
LISA_Traffic_Light/dayTrain/dayClip7/frames/dayClip7--02675.png,0,0,0
LISA_Traffic_Light/dayTrain/dayClip7/frames/dayClip7--02676.png,0,2,2
LISA_Traffic_Light/dayTrain/dayClip7/frames/dayClip7--02677.png,0,0,0
LISA_Traffic_Light/dayTrain/dayClip7/frames/dayClip7--02678.png,0,2,1
LISA_Traffic_Light/dayTrain/dayClip7/frames/dayClip7--02679.png,0,0,0
LISA_Traffic_Light/dayTrain/dayClip7/frames/dayClip7--02680.png,0,0,0
LISA_Traffic_Light/dayTrain/dayClip7/frames/dayClip7--02717.png,0,0,0
LISA_Traffic_Light/dayTrain/dayClip7/frames/dayClip7--02718.png,0,0,0
LISA_Traffic_Light/dayTrain/dayClip8/frames/dayClip8--01006.png,0,0,0
LISA_Traffic_Light/dayTrain/dayClip8/frames/dayClip8--01007.png,0,0,0
LISA_Traffic_Light/dayTrain/dayClip8/frames/dayClip8--01008.png,0,0,0
LISA_Traffic_Light/dayTrain/dayClip8/frames/dayClip8--01009.png,0,0,0
LISA_Traffic_Light/dayTrain/dayClip8/frames/dayClip8--01010.png,0,0,0
LISA_Traffic_Light/dayTrain/dayClip8/frames/dayClip8--01011.png,0,0,0
LISA_Traffic_Light/dayTrain/dayClip8/frames/dayClip8--01012.png,0,0,0
LISA_Traffic_Light/dayTrain/dayClip8/frames/dayClip8--01039.png,0,0,0
LISA_Traffic_Light/dayTrain/dayClip9/frames/dayClip9--00956.png,0,0,0
LISA_Traffic_Light/dayTrain/dayClip9/frames/dayClip9--00957.png,0,0,0
LISA_Traffic_Light/dayTrain/dayClip9/frames/dayClip9--00958.png,0,0,0
LISA_Traffic_Light/dayTrain/dayClip9/frames/dayClip9--00959.png,0,0,0
