/mnt/DADOS/horimoto/traffic_lights/balanced/Google_automatics/REGIONS/Sao_Paulo/014/IMG/SIGNAL/P00772I0000136/aug0.png,244,218,251,231,Red
/mnt/DADOS/horimoto/traffic_lights/balanced/Google_automatics/REGIONS/Sao_Paulo/016/IMG/SIGNAL/P00912I0000310/aug0.png,342,147,357,179,Green
/mnt/DADOS/horimoto/traffic_lights/balanced/Google_automatics/REGIONS/Sao_Paulo/017/IMG/SIGNAL/P00203I0000758/aug0.png,569,201,576,219,Green
/mnt/DADOS/horimoto/traffic_lights/balanced/Google_automatics/REGIONS/Sao_Paulo/020/IMG/SIGNAL/P00194I0000792/aug0.png,351,205,359,221,Green
/mnt/DADOS/horimoto/traffic_lights/balanced/Google_automatics/REGIONS/Sao_Paulo/014/IMG/SIGNAL/P00360I0000083/aug0.png,341,228,345,237,Green
/mnt/DADOS/horimoto/traffic_lights/balanced/Google_automatics/REGIONS/Sao_Paulo/002/IMG/SIGNAL/P00048I0000240/aug0.png,363,218,369,230,Green
/mnt/DADOS/horimoto/traffic_lights/balanced/Google_automatics/REGIONS/Aracaju/000/IMG/SIGNAL/P00232I0000019/aug0.png,302,185,312,208,Green
/mnt/DADOS/horimoto/traffic_lights/balanced/Google_automatics/REGIONS/Sao_Paulo/011/IMG/SIGNAL/P00302I0000228/aug0.png,56,161,70,190,Green
/mnt/DADOS/horimoto/traffic_lights/balanced/Google_automatics/REGIONS/Sao_Paulo/004/IMG/SIGNAL/P00147I0000166/aug0.png,229,208,235,221,Green
/mnt/DADOS/horimoto/traffic_lights/balanced/Google_automatics/REGIONS/Fortaleza/002/IMG/SIGNAL/P00129I0000088/aug0.png,297,223,302,230,Green
/mnt/DADOS/horimoto/traffic_lights/balanced/Google_automatics/REGIONS/Sao_Paulo/010/IMG/SIGNAL/P00135I0000196/aug0.png,231,227,234,238,Green
/mnt/DADOS/horimoto/traffic_lights/balanced/Google_automatics/REGIONS/Sao_Paulo/004/IMG/SIGNAL/P00082I0000144/aug0.png,372,178,382,198,Green
/mnt/DADOS/horimoto/traffic_lights/balanced/Google_automatics/REGIONS/Sao_Paulo/010/IMG/SIGNAL/P00037I0000000/aug0.png,334,151,344,174,Red
/mnt/DADOS/horimoto/traffic_lights/balanced/Google_automatics/REGIONS/Sao_Paulo/007/IMG/SIGNAL/P00214I0000121/aug0.png,295,221,299,231,Green
/mnt/DADOS/horimoto/traffic_lights/balanced/Google_automatics/REGIONS/Sao_Paulo/014/IMG/SIGNAL/P00147I0000007/aug0.png,119,238,123,254,Green
/mnt/DADOS/horimoto/traffic_lights/balanced/Google_automatics/REGIONS/Sao_Paulo/011/IMG/SIGNAL/P00302I0000143/aug0.png,372,204,381,221,Green
/mnt/DADOS/horimoto/traffic_lights/balanced/Google_automatics/REGIONS/Curitiba/000/IMG/SIGNAL/P00021I0000074/aug0.png,404,152,413,176,Red
/mnt/DADOS/horimoto/traffic_lights/balanced/Google_automatics/REGIONS/Sao_Paulo/004/IMG/SIGNAL/P00013I0000023/aug0.png,574,183,586,215,Green
/mnt/DADOS/horimoto/traffic_lights/balanced/Google_automatics/REGIONS/Fortaleza/002/IMG/SIGNAL/P00121I0000000/aug0.png,382,201,390,217,Green
/mnt/DADOS/horimoto/traffic_lights/balanced/Google_automatics/REGIONS/Fortaleza/002/IMG/SIGNAL/P00105I0000100/aug0.png,308,224,314,233,Green
/mnt/DADOS/horimoto/traffic_lights/balanced/Google_automatics/REGIONS/Sao_Paulo/011/IMG/SIGNAL/P00004I0000505/aug0.png,363,247,366,255,Green
/mnt/DADOS/horimoto/traffic_lights/balanced/Google_automatics/REGIONS/Sao_Paulo/020/IMG/SIGNAL/P00153I0000032/aug0.png,189,215,195,225,Green
/mnt/DADOS/horimoto/traffic_lights/balanced/Google_automatics/REGIONS/Sao_Paulo/011/IMG/SIGNAL/P00094I0000153/aug0.png,301,213,308,227,Green
/mnt/DADOS/horimoto/traffic_lights/balanced/Google_automatics/REGIONS/Sao_Paulo/016/IMG/SIGNAL/P00168I0000014/aug0.png,269,225,275,236,Green
/mnt/DADOS/horimoto/traffic_lights/balanced/Google_automatics/REGIONS/Sao_Paulo/011/IMG/SIGNAL/P00065I0000004/aug0.png,318,241,323,254,Red
/mnt/DADOS/horimoto/traffic_lights/balanced/Google_automatics/REGIONS/Fortaleza/002/IMG/SIGNAL/P00138I0000065/aug0.png,291,178,304,200,Green
/mnt/DADOS/horimoto/traffic_lights/balanced/Google_automatics/REGIONS/Sao_Paulo/011/IMG/SIGNAL/P00163I0000005/aug0.png,337,213,343,226,Green
/mnt/DADOS/horimoto/traffic_lights/balanced/Google_automatics/REGIONS/Sao_Paulo/016/IMG/SIGNAL/P00300I0000019/aug0.png,79,215,85,225,Green
/mnt/DADOS/horimoto/traffic_lights/balanced/Google_automatics/REGIONS/Sao_Paulo/016/IMG/SIGNAL/P00239I0000006/aug0.png,185,219,189,228,Green
/mnt/DADOS/horimoto/traffic_lights/balanced/Google_automatics/REGIONS/Sao_Paulo/012/IMG/SIGNAL/P00012I0000293/aug0.png,355,198,362,213,Green
/mnt/DADOS/horimoto/traffic_lights/balanced/Google_automatics/REGIONS/Sao_Paulo/014/IMG/SIGNAL/P00809I0000345/aug0.png,321,237,325,245,Red
/mnt/DADOS/horimoto/traffic_lights/balanced/Google_automatics/REGIONS/Sao_Paulo/011/IMG/SIGNAL/P00820I0000006/aug0.png,291,250,296,260,Red
/mnt/DADOS/horimoto/traffic_lights/balanced/Google_automatics/REGIONS/Campinas/002/IMG/SIGNAL/P00051I0000030/aug0.png,379,259,383,269,Green
/mnt/DADOS/horimoto/traffic_lights/balanced/Google_automatics/REGIONS/Campinas/002/IMG/SIGNAL/P00052I0000061/aug0.png,437,243,440,255,Green
/mnt/DADOS/horimoto/traffic_lights/balanced/Google_automatics/REGIONS/Curitiba/000/IMG/SIGNAL/P00163I0000044/aug0.png,359,38,387,97,Green
/mnt/DADOS/horimoto/traffic_lights/balanced/Google_automatics/REGIONS/Curitiba/000/IMG/SIGNAL/P00014I0000039/aug0.png,381,229,389,250,Green
/mnt/DADOS/horimoto/traffic_lights/balanced/Google_automatics/REGIONS/Sao_Paulo/014/IMG/SIGNAL/P00870I0000061/aug0.png,221,204,227,217,Green
/mnt/DADOS/horimoto/traffic_lights/balanced/Google_automatics/REGIONS/Fortaleza/001/IMG/SIGNAL/P00008I0000058/aug0.png,303,222,310,230,Green
/mnt/DADOS/horimoto/traffic_lights/balanced/Google_automatics/REGIONS/Curitiba/000/IMG/SIGNAL/P00011I0000012/aug0.png,96,229,106,260,Red
/mnt/DADOS/horimoto/traffic_lights/balanced/Google_automatics/REGIONS/Sao_Paulo/011/IMG/SIGNAL/P00037I0000050/aug0.png,273,193,279,207,Red
/mnt/DADOS/horimoto/traffic_lights/balanced/Google_automatics/REGIONS/Sao_Paulo/008/IMG/SIGNAL/P00008I0000104/aug0.png,442,175,453,203,Green
/mnt/DADOS/horimoto/traffic_lights/balanced/Google_automatics/REGIONS/Sao_Paulo/011/IMG/SIGNAL/P00637I0000064/aug0.png,326,216,331,229,Green
/mnt/DADOS/horimoto/traffic_lights/balanced/Google_automatics/REGIONS/Sao_Paulo/020/IMG/SIGNAL/P00467I0000048/aug0.png,344,228,348,237,Green
/mnt/DADOS/horimoto/traffic_lights/balanced/Google_automatics/REGIONS/Sao_Paulo/016/IMG/SIGNAL/P00458I0000004/aug0.png,371,221,376,231,Green
/mnt/DADOS/horimoto/traffic_lights/balanced/Google_automatics/REGIONS/Sao_Paulo/004/IMG/SIGNAL/P00209I0000064/aug0.png,317,209,323,222,Green
/mnt/DADOS/horimoto/traffic_lights/balanced/Google_automatics/REGIONS/Sao_Paulo/017/IMG/SIGNAL/P00153I0000146/aug0.png,310,217,316,228,Green
/mnt/DADOS/horimoto/traffic_lights/balanced/Google_automatics/REGIONS/Sao_Paulo/020/IMG/SIGNAL/P00346I0000061/aug0.png,291,211,297,225,Red
/mnt/DADOS/horimoto/traffic_lights/balanced/Google_automatics/REGIONS/Fortaleza/001/IMG/SIGNAL/P00116I0000008/aug0.png,341,106,362,140,Green
/mnt/DADOS/horimoto/traffic_lights/balanced/Google_automatics/REGIONS/Sao_Paulo/002/IMG/SIGNAL/P00158I0000235/aug0.png,372,157,386,186,Green
/mnt/DADOS/horimoto/traffic_lights/balanced/Google_automatics/REGIONS/Campinas/000/IMG/SIGNAL/P00030I0000053/aug0.png,408,230,412,243,Red
