path,label,prediction,n_detections
LARA_traffic_light/Lara3D_UrbanSeq1_JPG/frame_003566.png,0,0,0
LARA_traffic_light/Lara3D_UrbanSeq1_JPG/frame_003567.png,0,0,0
LARA_traffic_light/Lara3D_UrbanSeq1_JPG/frame_003568.png,0,0,0
LARA_traffic_light/Lara3D_UrbanSeq1_JPG/frame_003569.png,0,1,1
LARA_traffic_light/Lara3D_UrbanSeq1_JPG/frame_003570.png,0,0,0
LARA_traffic_light/Lara3D_UrbanSeq1_JPG/frame_003571.png,0,0,0
LARA_traffic_light/Lara3D_UrbanSeq1_JPG/frame_003572.png,0,1,1
LARA_traffic_light/Lara3D_UrbanSeq1_JPG/frame_003573.png,0,1,1
LARA_traffic_light/Lara3D_UrbanSeq1_JPG/frame_003574.png,0,0,0
LARA_traffic_light/Lara3D_UrbanSeq1_JPG/frame_003575.png,0,1,1
LARA_traffic_light/Lara3D_UrbanSeq1_JPG/frame_003576.png,0,1,1
LARA_traffic_light/Lara3D_UrbanSeq1_JPG/frame_003577.png,0,1,1
LARA_traffic_light/Lara3D_UrbanSeq1_JPG/frame_003578.png,0,1,1
LARA_traffic_light/Lara3D_UrbanSeq1_JPG/frame_003579.png,0,1,1
LARA_traffic_light/Lara3D_UrbanSeq1_JPG/frame_003580.png,0,0,0
LARA_traffic_light/Lara3D_UrbanSeq1_JPG/frame_003581.png,0,0,0
LARA_traffic_light/Lara3D_UrbanSeq1_JPG/frame_003582.png,0,0,0
LARA_traffic_light/Lara3D_UrbanSeq1_JPG/frame_003583.png,0,0,0
LARA_traffic_light/Lara3D_UrbanSeq1_JPG/frame_003584.png,0,0,0
LARA_traffic_light/Lara3D_UrbanSeq1_JPG/frame_006105.png,2,2,3
LARA_traffic_light/Lara3D_UrbanSeq1_JPG/frame_006106.png,2,1,2
LARA_traffic_light/Lara3D_UrbanSeq1_JPG/frame_006107.png,2,2,1
LARA_traffic_light/Lara3D_UrbanSeq1_JPG/frame_006108.png,2,1,2
LARA_traffic_light/Lara3D_UrbanSeq1_JPG/frame_006109.png,2,1,2
LARA_traffic_light/Lara3D_UrbanSeq1_JPG/frame_006110.png,2,1,2
LARA_traffic_light/Lara3D_UrbanSeq1_JPG/frame_006111.png,2,1,2
LARA_traffic_light/Lara3D_UrbanSeq1_JPG/frame_006112.png,2,2,3
LARA_traffic_light/Lara3D_UrbanSeq1_JPG/frame_006113.png,2,1,3
LARA_traffic_light/Lara3D_UrbanSeq1_JPG/frame_006114.png,2,2,1
LARA_traffic_light/Lara3D_UrbanSeq1_JPG/frame_006115.png,2,1,3
LARA_traffic_light/Lara3D_UrbanSeq1_JPG/frame_006116.png,2,2,1
LARA_traffic_light/Lara3D_UrbanSeq1_JPG/frame_006117.png,2,2,2
LARA_traffic_light/Lara3D_UrbanSeq1_JPG/frame_006118.png,2,2,3
LARA_traffic_light/Lara3D_UrbanSeq1_JPG/frame_006119.png,2,1,2
LARA_traffic_light/Lara3D_UrbanSeq1_JPG/frame_006120.png,2,2,2
LARA_traffic_light/Lara3D_UrbanSeq1_JPG/frame_006121.png,2,1,2
LARA_traffic_light/Lara3D_UrbanSeq1_JPG/frame_006122.png,2,2,1
LARA_traffic_light/Lara3D_UrbanSeq1_JPG/frame_006123.png,2,2,3
LARA_traffic_light/Lara3D_UrbanSeq1_JPG/frame_006124.png,2,2,2
LARA_traffic_light/Lara3D_UrbanSeq1_JPG/frame_006125.png,2,2,2
LARA_traffic_light/Lara3D_UrbanSeq1_JPG/frame_006126.png,2,2,3
LARA_traffic_light/Lara3D_UrbanSeq1_JPG/frame_006127.png,2,2,1
LARA_traffic_light/Lara3D_UrbanSeq1_JPG/frame_006128.png,2,1,3
LARA_traffic_light/Lara3D_UrbanSeq1_JPG/frame_006129.png,2,2,3
LARA_traffic_light/Lara3D_UrbanSeq1_JPG/frame_006130.png,2,2,2
LARA_traffic_light/Lara3D_UrbanSeq1_JPG/frame_006131.png,2,2,1
LARA_traffic_light/Lara3D_UrbanSeq1_JPG/frame_006132.png,2,2,3
LARA_traffic_light/Lara3D_UrbanSeq1_JPG/frame_006133.png,2,2,2
LARA_traffic_light/Lara3D_UrbanSeq1_JPG/frame_006134.png,2,2,3
LARA_traffic_light/Lara3D_UrbanSeq1_JPG/frame_006135.png,2,2,1
LARA_traffic_light/Lara3D_UrbanSeq1_JPG/frame_006136.png,2,1,2
LARA_traffic_light/Lara3D_UrbanSeq1_JPG/frame_006137.png,2,1,3
LARA_traffic_light/Lara3D_UrbanSeq1_JPG/frame_006138.png,2,2,2
LARA_traffic_light/Lara3D_UrbanSeq1_JPG/frame_006139.png,2,2,1
LARA_traffic_light/Lara3D_UrbanSeq1_JPG/frame_006140.png,2,2,2
LARA_traffic_light/Lara3D_UrbanSeq1_JPG/frame_006141.png,2,2,2
LARA_traffic_light/Lara3D_UrbanSeq1_JPG/frame_006142.png,2,2,2
LARA_traffic_light/Lara3D_UrbanSeq1_JPG/frame_006143.png,2,2,2
LARA_traffic_light/Lara3D_UrbanSeq1_JPG/frame_006144.png,2,2,2
LARA_traffic_light/Lara3D_UrbanSeq1_JPG/frame_006145.png,2,2,2
LARA_traffic_light/Lara3D_UrbanSeq1_JPG/frame_006146.png,2,2,3
LARA_traffic_light/Lara3D_UrbanSeq1_JPG/frame_006147.png,2,2,3
LARA_traffic_light/Lara3D_UrbanSeq1_JPG/frame_006148.png,2,2,2
LARA_traffic_light/Lara3D_UrbanSeq1_JPG/frame_006149.png,2,2,2
LARA_traffic_light/Lara3D_UrbanSeq1_JPG/frame_006150.png,2,2,2
LARA_traffic_light/Lara3D_UrbanSeq1_JPG/frame_006151.png,2,2,2
LARA_traffic_light/Lara3D_UrbanSeq1_JPG/frame_006152.png,2,2,2
LARA_traffic_light/Lara3D_UrbanSeq1_JPG/frame_006153.png,2,2,2
LARA_traffic_light/Lara3D_UrbanSeq1_JPG/frame_006154.png,2,2,2
LARA_traffic_light/Lara3D_UrbanSeq1_JPG/frame_006155.png,2,2,2
LARA_traffic_light/Lara3D_UrbanSeq1_JPG/frame_006156.png,2,2,2
LARA_traffic_light/Lara3D_UrbanSeq1_JPG/frame_006157.png,2,2,2
LARA_traffic_light/Lara3D_UrbanSeq1_JPG/frame_006158.png,2,2,2
LARA_traffic_light/Lara3D_UrbanSeq1_JPG/frame_006159.png,2,2,3
LARA_traffic_light/Lara3D_UrbanSeq1_JPG/frame_006160.png,2,2,3
LARA_traffic_light/Lara3D_UrbanSeq1_JPG/frame_006161.png,2,2,3
LARA_traffic_light/Lara3D_UrbanSeq1_JPG/frame_006162.png,2,2,4
LARA_traffic_light/Lara3D_UrbanSeq1_JPG/frame_006163.png,2,2,3
LARA_traffic_light/Lara3D_UrbanSeq1_JPG/frame_006164.png,2,2,3
LARA_traffic_light/Lara3D_UrbanSeq1_JPG/frame_006165.png,2,2,3
LARA_traffic_light/Lara3D_UrbanSeq1_JPG/frame_006166.png,2,2,3
LARA_traffic_light/Lara3D_UrbanSeq1_JPG/frame_006167.png,2,2,2
LARA_traffic_light/Lara3D_UrbanSeq1_JPG/frame_006168.png,2,2,2
LARA_traffic_light/Lara3D_UrbanSeq1_JPG/frame_006169.png,2,2,2
LARA_traffic_light/Lara3D_UrbanSeq1_JPG/frame_006170.png,2,2,2
LARA_traffic_light/Lara3D_UrbanSeq1_JPG/frame_006171.png,2,2,2
LARA_traffic_light/Lara3D_UrbanSeq1_JPG/frame_006172.png,2,2,2
LARA_traffic_light/Lara3D_UrbanSeq1_JPG/frame_006173.png,2,2,3
LARA_traffic_light/Lara3D_UrbanSeq1_JPG/frame_006174.png,2,2,3
LARA_traffic_light/Lara3D_UrbanSeq1_JPG/frame_006175.png,2,2,3
LARA_traffic_light/Lara3D_UrbanSeq1_JPG/frame_006176.png,2,2,3
LARA_traffic_light/Lara3D_UrbanSeq1_JPG/frame_006177.png,2,2,3
LARA_traffic_light/Lara3D_UrbanSeq1_JPG/frame_006178.png,2,2,2
LARA_traffic_light/Lara3D_UrbanSeq1_JPG/frame_006179.png,2,2,3
LARA_traffic_light/Lara3D_UrbanSeq1_JPG/frame_006180.png,2,2,3
LARA_traffic_light/Lara3D_UrbanSeq1_JPG/frame_006181.png,2,2,3
LARA_traffic_light/Lara3D_UrbanSeq1_JPG/frame_006182.png,2,2,3
LARA_traffic_light/Lara3D_UrbanSeq1_JPG/frame_006183.png,2,2,3
LARA_traffic_light/Lara3D_UrbanSeq1_JPG/frame_006184.png,2,2,2
LARA_traffic_light/Lara3D_UrbanSeq1_JPG/frame_006185.png,2,2,3
LARA_traffic_light/Lara3D_UrbanSeq1_JPG/frame_006186.png,2,2,2
LARA_traffic_light/Lara3D_UrbanSeq1_JPG/frame_006187.png,2,2,3
LARA_traffic_light/Lara3D_UrbanSeq1_JPG/frame_006188.png,2,2,3
LARA_traffic_light/Lara3D_UrbanSeq1_JPG/frame_006189.png,2,2,2
LARA_traffic_light/Lara3D_UrbanSeq1_JPG/frame_006190.png,2,2,2
LARA_traffic_light/Lara3D_UrbanSeq1_JPG/frame_006191.png,2,2,2
LARA_traffic_light/Lara3D_UrbanSeq1_JPG/frame_006192.png,2,2,2
LARA_traffic_light/Lara3D_UrbanSeq1_JPG/frame_006193.png,2,2,2
LARA_traffic_light/Lara3D_UrbanSeq1_JPG/frame_006194.png,2,2,3
LARA_traffic_light/Lara3D_UrbanSeq1_JPG/frame_006195.png,2,2,2
LARA_traffic_light/Lara3D_UrbanSeq1_JPG/frame_006196.png,2,2,2
LARA_traffic_light/Lara3D_UrbanSeq1_JPG/frame_006197.png,2,2,2
LARA_traffic_light/Lara3D_UrbanSeq1_JPG/frame_006198.png,2,2,2
LARA_traffic_light/Lara3D_UrbanSeq1_JPG/frame_006199.png,2,2,2
LARA_traffic_light/Lara3D_UrbanSeq1_JPG/frame_006200.png,2,2,2
LARA_traffic_light/Lara3D_UrbanSeq1_JPG/frame_006201.png,2,2,3
LARA_traffic_light/Lara3D_UrbanSeq1_JPG/frame_006202.png,2,2,2
LARA_traffic_light/Lara3D_UrbanSeq1_JPG/frame_006203.png,2,2,2
LARA_traffic_light/Lara3D_UrbanSeq1_JPG/frame_006204.png,2,2,2
LARA_traffic_light/Lara3D_UrbanSeq1_JPG/frame_006205.png,2,1,3
LARA_traffic_light/Lara3D_UrbanSeq1_JPG/frame_006206.png,2,2,2
LARA_traffic_light/Lara3D_UrbanSeq1_JPG/frame_006207.png,2,2,2
LARA_traffic_light/Lara3D_UrbanSeq1_JPG/frame_006208.png,2,2,2
LARA_traffic_light/Lara3D_UrbanSeq1_JPG/frame_006209.png,2,2,3
LARA_traffic_light/Lara3D_UrbanSeq1_JPG/frame_006210.png,2,2,2
LARA_traffic_light/Lara3D_UrbanSeq1_JPG/frame_006211.png,2,2,2
LARA_traffic_light/Lara3D_UrbanSeq1_JPG/frame_006212.png,2,2,2
LARA_traffic_light/Lara3D_UrbanSeq1_JPG/frame_006213.png,2,2,3
LARA_traffic_light/Lara3D_UrbanSeq1_JPG/frame_006214.png,2,2,3
LARA_traffic_light/Lara3D_UrbanSeq1_JPG/frame_006215.png,2,2,3
LARA_traffic_light/Lara3D_UrbanSeq1_JPG/frame_006216.png,2,2,3
LARA_traffic_light/Lara3D_UrbanSeq1_JPG/frame_006217.png,2,2,3
LARA_traffic_light/Lara3D_UrbanSeq1_JPG/frame_006218.png,2,2,3
LARA_traffic_light/Lara3D_UrbanSeq1_JPG/frame_006219.png,2,2,3
LARA_traffic_light/Lara3D_UrbanSeq1_JPG/frame_006220.png,2,2,3
LARA_traffic_light/Lara3D_UrbanSeq1_JPG/frame_006221.png,2,2,3
LARA_traffic_light/Lara3D_UrbanSeq1_JPG/frame_006222.png,2,2,3
LARA_traffic_light/Lara3D_UrbanSeq1_JPG/frame_006223.png,2,2,3
LARA_traffic_light/Lara3D_UrbanSeq1_JPG/frame_006224.png,2,2,2
LARA_traffic_light/Lara3D_UrbanSeq1_JPG/frame_006225.png,2,2,3
LARA_traffic_light/Lara3D_UrbanSeq1_JPG/frame_006226.png,2,2,3
LARA_traffic_light/Lara3D_UrbanSeq1_JPG/frame_006227.png,2,2,3
LARA_traffic_light/Lara3D_UrbanSeq1_JPG/frame_006228.png,2,2,2
LARA_traffic_light/Lara3D_UrbanSeq1_JPG/frame_006229.png,2,2,3
LARA_traffic_light/Lara3D_UrbanSeq1_JPG/frame_006230.png,2,2,3
LARA_traffic_light/Lara3D_UrbanSeq1_JPG/frame_006231.png,2,2,3
LARA_traffic_light/Lara3D_UrbanSeq1_JPG/frame_006232.png,2,2,2
LARA_traffic_light/Lara3D_UrbanSeq1_JPG/frame_006233.png,2,2,2
LARA_traffic_light/Lara3D_UrbanSeq1_JPG/frame_006234.png,2,1,3
LARA_traffic_light/Lara3D_UrbanSeq1_JPG/frame_006235.png,2,2,2
LARA_traffic_light/Lara3D_UrbanSeq1_JPG/frame_006236.png,2,2,2
LARA_traffic_light/Lara3D_UrbanSeq1_JPG/frame_006237.png,2,1,3
LARA_traffic_light/Lara3D_UrbanSeq1_JPG/frame_006238.png,2,1,3
LARA_traffic_light/Lara3D_UrbanSeq1_JPG/frame_006239.png,2,2,2
LARA_traffic_light/Lara3D_UrbanSeq1_JPG/frame_006240.png,2,2,2
LARA_traffic_light/Lara3D_UrbanSeq1_JPG/frame_006241.png,2,2,2
LARA_traffic_light/Lara3D_UrbanSeq1_JPG/frame_006242.png,2,1,3
LARA_traffic_light/Lara3D_UrbanSeq1_JPG/frame_006243.png,2,2,3
LARA_traffic_light/Lara3D_UrbanSeq1_JPG/frame_006244.png,2,2,2
LARA_traffic_light/Lara3D_UrbanSeq1_JPG/frame_006245.png,2,1,3
LARA_traffic_light/Lara3D_UrbanSeq1_JPG/frame_006246.png,2,1,3
LARA_traffic_light/Lara3D_UrbanSeq1_JPG/frame_006247.png,2,2,2
LARA_traffic_light/Lara3D_UrbanSeq1_JPG/frame_006248.png,2,2,3
LARA_traffic_light/Lara3D_UrbanSeq1_JPG/frame_006249.png,2,2,3
LARA_traffic_light/Lara3D_UrbanSeq1_JPG/frame_006250.png,2,2,3
LARA_traffic_light/Lara3D_UrbanSeq1_JPG/frame_006251.png,2,2,2
LARA_traffic_light/Lara3D_UrbanSeq1_JPG/frame_006252.png,2,2,2
LARA_traffic_light/Lara3D_UrbanSeq1_JPG/frame_006253.png,2,2,3
LARA_traffic_light/Lara3D_UrbanSeq1_JPG/frame_006254.png,2,2,2
LARA_traffic_light/Lara3D_UrbanSeq1_JPG/frame_006255.png,2,2,2
LARA_traffic_light/Lara3D_UrbanSeq1_JPG/frame_006256.png,2,2,2
LARA_traffic_light/Lara3D_UrbanSeq1_JPG/frame_006257.png,2,2,2
LARA_traffic_light/Lara3D_UrbanSeq1_JPG/frame_006258.png,2,2,3
LARA_traffic_light/Lara3D_UrbanSeq1_JPG/frame_006259.png,2,1,3
LARA_traffic_light/Lara3D_UrbanSeq1_JPG/frame_006260.png,2,1,3
LARA_traffic_light/Lara3D_UrbanSeq1_JPG/frame_006261.png,2,1,3
LARA_traffic_light/Lara3D_UrbanSeq1_JPG/frame_006262.png,2,1,3
LARA_traffic_light/Lara3D_UrbanSeq1_JPG/frame_006263.png,2,2,2
LARA_traffic_light/Lara3D_UrbanSeq1_JPG/frame_006264.png,2,1,3
LARA_traffic_light/Lara3D_UrbanSeq1_JPG/frame_006265.png,2,2,2
LARA_traffic_light/Lara3D_UrbanSeq1_JPG/frame_006266.png,2,2,2
LARA_traffic_light/Lara3D_UrbanSeq1_JPG/frame_006267.png,2,1,3
LARA_traffic_light/Lara3D_UrbanSeq1_JPG/frame_006268.png,2,2,2
LARA_traffic_light/Lara3D_UrbanSeq1_JPG/frame_006269.png,2,1,3
LARA_traffic_light/Lara3D_UrbanSeq1_JPG/frame_006270.png,2,1,3
LARA_traffic_light/Lara3D_UrbanSeq1_JPG/frame_006271.png,2,2,2
LARA_traffic_light/Lara3D_UrbanSeq1_JPG/frame_006272.png,2,2,2
LARA_traffic_light/Lara3D_UrbanSeq1_JPG/frame_006273.png,2,2,2
LARA_traffic_light/Lara3D_UrbanSeq1_JPG/frame_006274.png,2,2,2
LARA_traffic_light/Lara3D_UrbanSeq1_JPG/frame_006275.png,2,2,2
LARA_traffic_light/Lara3D_UrbanSeq1_JPG/frame_006276.png,2,2,2
LARA_traffic_light/Lara3D_UrbanSeq1_JPG/frame_006277.png,2,1,4
LARA_traffic_light/Lara3D_UrbanSeq1_JPG/frame_006278.png,2,2,2
LARA_traffic_light/Lara3D_UrbanSeq1_JPG/frame_006279.png,2,1,3
LARA_traffic_light/Lara3D_UrbanSeq1_JPG/frame_006280.png,2,1,3
LARA_traffic_light/Lara3D_UrbanSeq1_JPG/frame_006281.png,2,1,3
LARA_traffic_light/Lara3D_UrbanSeq1_JPG/frame_006282.png,2,1,3
LARA_traffic_light/Lara3D_UrbanSeq1_JPG/frame_006283.png,2,1,4
LARA_traffic_light/Lara3D_UrbanSeq1_JPG/frame_006284.png,2,2,3
LARA_traffic_light/Lara3D_UrbanSeq1_JPG/frame_006285.png,2,1,3
LARA_traffic_light/Lara3D_UrbanSeq1_JPG/frame_006286.png,2,2,2
LARA_traffic_light/Lara3D_UrbanSeq1_JPG/frame_006287.png,2,1,3
LARA_traffic_light/Lara3D_UrbanSeq1_JPG/frame_006288.png,2,2,2
LARA_traffic_light/Lara3D_UrbanSeq1_JPG/frame_006289.png,2,2,2
LARA_traffic_light/Lara3D_UrbanSeq1_JPG/frame_006290.png,2,1,3
LARA_traffic_light/Lara3D_UrbanSeq1_JPG/frame_006291.png,2,2,2
LARA_traffic_light/Lara3D_UrbanSeq1_JPG/frame_006292.png,2,2,2
LARA_traffic_light/Lara3D_UrbanSeq1_JPG/frame_006293.png,2,1,3
LARA_traffic_light/Lara3D_UrbanSeq1_JPG/frame_006294.png,2,1,3
LARA_traffic_light/Lara3D_UrbanSeq1_JPG/frame_006295.png,2,1,3
LARA_traffic_light/Lara3D_UrbanSeq1_JPG/frame_006296.png,2,2,2
LARA_traffic_light/Lara3D_UrbanSeq1_JPG/frame_006297.png,2,2,3
LARA_traffic_light/Lara3D_UrbanSeq1_JPG/frame_006298.png,2,1,5
LARA_traffic_light/Lara3D_UrbanSeq1_JPG/frame_006299.png,2,1,3
LARA_traffic_light/Lara3D_UrbanSeq1_JPG/frame_006300.png,2,1,4
LARA_traffic_light/Lara3D_UrbanSeq1_JPG/frame_006301.png,2,1,4
LARA_traffic_light/Lara3D_UrbanSeq1_JPG/frame_006302.png,2,1,4
LARA_traffic_light/Lara3D_UrbanSeq1_JPG/frame_006303.png,2,2,3
LARA_traffic_light/Lara3D_UrbanSeq1_JPG/frame_006304.png,2,1,4
LARA_traffic_light/Lara3D_UrbanSeq1_JPG/frame_006305.png,2,1,4
LARA_traffic_light/Lara3D_UrbanSeq1_JPG/frame_006306.png,2,1,4
LARA_traffic_light/Lara3D_UrbanSeq1_JPG/frame_006307.png,2,1,4
LARA_traffic_light/Lara3D_UrbanSeq1_JPG/frame_006308.png,2,1,4
LARA_traffic_light/Lara3D_UrbanSeq1_JPG/frame_006309.png,2,1,4
LARA_traffic_light/Lara3D_UrbanSeq1_JPG/frame_006310.png,2,2,4
LARA_traffic_light/Lara3D_UrbanSeq1_JPG/frame_006311.png,2,2,3
LARA_traffic_light/Lara3D_UrbanSeq1_JPG/frame_006312.png,2,2,3
LARA_traffic_light/Lara3D_UrbanSeq1_JPG/frame_006313.png,2,2,3
LARA_traffic_light/Lara3D_UrbanSeq1_JPG/frame_006314.png,2,2,3
LARA_traffic_light/Lara3D_UrbanSeq1_JPG/frame_006315.png,2,2,3
LARA_traffic_light/Lara3D_UrbanSeq1_JPG/frame_006316.png,2,2,3
LARA_traffic_light/Lara3D_UrbanSeq1_JPG/frame_006317.png,2,2,3
LARA_traffic_light/Lara3D_UrbanSeq1_JPG/frame_006318.png,2,2,3
LARA_traffic_light/Lara3D_UrbanSeq1_JPG/frame_006319.png,2,2,3
LARA_traffic_light/Lara3D_UrbanSeq1_JPG/frame_006320.png,2,2,3
LARA_traffic_light/Lara3D_UrbanSeq1_JPG/frame_006321.png,2,2,3
LARA_traffic_light/Lara3D_UrbanSeq1_JPG/frame_006322.png,2,2,3
LARA_traffic_light/Lara3D_UrbanSeq1_JPG/frame_006323.png,2,2,3
LARA_traffic_light/Lara3D_UrbanSeq1_JPG/frame_006324.png,2,2,3
LARA_traffic_light/Lara3D_UrbanSeq1_JPG/frame_006325.png,2,2,3
LARA_traffic_light/Lara3D_UrbanSeq1_JPG/frame_006326.png,2,2,3
LARA_traffic_light/Lara3D_UrbanSeq1_JPG/frame_006327.png,2,2,3
LARA_traffic_light/Lara3D_UrbanSeq1_JPG/frame_006328.png,2,2,3
LARA_traffic_light/Lara3D_UrbanSeq1_JPG/frame_006329.png,2,2,2
LARA_traffic_light/Lara3D_UrbanSeq1_JPG/frame_006330.png,2,2,2
LARA_traffic_light/Lara3D_UrbanSeq1_JPG/frame_008073.png,1,1,1
LARA_traffic_light/Lara3D_UrbanSeq1_JPG/frame_008074.png,1,2,1
LARA_traffic_light/Lara3D_UrbanSeq1_JPG/frame_008075.png,1,2,1
LARA_traffic_light/Lara3D_UrbanSeq1_JPG/frame_008076.png,1,2,1
LARA_traffic_light/Lara3D_UrbanSeq1_JPG/frame_008077.png,1,2,2
LARA_traffic_light/Lara3D_UrbanSeq1_JPG/frame_008078.png,1,2,1
LARA_traffic_light/Lara3D_UrbanSeq1_JPG/frame_008079.png,1,2,1
LARA_traffic_light/Lara3D_UrbanSeq1_JPG/frame_008080.png,1,2,1
LARA_traffic_light/Lara3D_UrbanSeq1_JPG/frame_008081.png,1,2,1
LARA_traffic_light/Lara3D_UrbanSeq1_JPG/frame_008082.png,1,2,1
LARA_traffic_light/Lara3D_UrbanSeq1_JPG/frame_008083.png,1,2,1
LARA_traffic_light/Lara3D_UrbanSeq1_JPG/frame_008084.png,1,2,1
LARA_traffic_light/Lara3D_UrbanSeq1_JPG/frame_008085.png,1,2,1
LARA_traffic_light/Lara3D_UrbanSeq1_JPG/frame_008086.png,1,2,1
LARA_traffic_light/Lara3D_UrbanSeq1_JPG/frame_008087.png,1,2,1
LARA_traffic_light/Lara3D_UrbanSeq1_JPG/frame_008088.png,1,2,1
LARA_traffic_light/Lara3D_UrbanSeq1_JPG/frame_008089.png,1,2,1
LARA_traffic_light/Lara3D_UrbanSeq1_JPG/frame_008090.png,1,2,1
LARA_traffic_light/Lara3D_UrbanSeq1_JPG/frame_008091.png,1,2,1
LARA_traffic_light/Lara3D_UrbanSeq1_JPG/frame_008092.png,1,2,1
LARA_traffic_light/Lara3D_UrbanSeq1_JPG/frame_008093.png,1,2,1
LARA_traffic_light/Lara3D_UrbanSeq1_JPG/frame_008094.png,1,2,1
LARA_traffic_light/Lara3D_UrbanSeq1_JPG/frame_008095.png,1,2,1
LARA_traffic_light/Lara3D_UrbanSeq1_JPG/frame_008096.png,1,2,1
LARA_traffic_light/Lara3D_UrbanSeq1_JPG/frame_008097.png,1,2,1
LARA_traffic_light/Lara3D_UrbanSeq1_JPG/frame_008098.png,1,2,1
LARA_traffic_light/Lara3D_UrbanSeq1_JPG/frame_008099.png,1,2,1
LARA_traffic_light/Lara3D_UrbanSeq1_JPG/frame_008100.png,1,2,1
LARA_traffic_light/Lara3D_UrbanSeq1_JPG/frame_008101.png,1,2,1
LARA_traffic_light/Lara3D_UrbanSeq1_JPG/frame_008102.png,1,2,1
LARA_traffic_light/Lara3D_UrbanSeq1_JPG/frame_008103.png,1,2,1
LARA_traffic_light/Lara3D_UrbanSeq1_JPG/frame_008104.png,1,2,1
LARA_traffic_light/Lara3D_UrbanSeq1_JPG/frame_008105.png,1,2,1
LARA_traffic_light/Lara3D_UrbanSeq1_JPG/frame_008106.png,1,2,1
LARA_traffic_light/Lara3D_UrbanSeq1_JPG/frame_008107.png,1,2,1
LARA_traffic_light/Lara3D_UrbanSeq1_JPG/frame_008108.png,1,2,1
LARA_traffic_light/Lara3D_UrbanSeq1_JPG/frame_008109.png,1,2,1
LARA_traffic_light/Lara3D_UrbanSeq1_JPG/frame_008110.png,1,2,1
LARA_traffic_light/Lara3D_UrbanSeq1_JPG/frame_008111.png,1,2,1
LARA_traffic_light/Lara3D_UrbanSeq1_JPG/frame_008112.png,1,2,1
LARA_traffic_light/Lara3D_UrbanSeq1_JPG/frame_008113.png,1,2,1
LARA_traffic_light/Lara3D_UrbanSeq1_JPG/frame_008114.png,1,2,1
LARA_traffic_light/Lara3D_UrbanSeq1_JPG/frame_008115.png,1,2,1
LARA_traffic_light/Lara3D_UrbanSeq1_JPG/frame_008116.png,1,2,1
LARA_traffic_light/Lara3D_UrbanSeq1_JPG/frame_008117.png,1,2,1
LARA_traffic_light/Lara3D_UrbanSeq1_JPG/frame_008118.png,1,2,1
LARA_traffic_light/Lara3D_UrbanSeq1_JPG/frame_008119.png,1,2,1
LARA_traffic_light/Lara3D_UrbanSeq1_JPG/frame_008120.png,1,2,1
LARA_traffic_light/Lara3D_UrbanSeq1_JPG/frame_008121.png,1,2,1
LARA_traffic_light/Lara3D_UrbanSeq1_JPG/frame_008122.png,1,2,1
LARA_traffic_light/Lara3D_UrbanSeq1_JPG/frame_008123.png,1,2,1
LARA_traffic_light/Lara3D_UrbanSeq1_JPG/frame_008124.png,1,2,1
LARA_traffic_light/Lara3D_UrbanSeq1_JPG/frame_008125.png,1,2,1
LARA_traffic_light/Lara3D_UrbanSeq1_JPG/frame_008126.png,1,2,1
LARA_traffic_light/Lara3D_UrbanSeq1_JPG/frame_008127.png,1,2,1
LARA_traffic_light/Lara3D_UrbanSeq1_JPG/frame_008128.png,1,2,1
LARA_traffic_light/Lara3D_UrbanSeq1_JPG/frame_008129.png,1,2,1
LARA_traffic_light/Lara3D_UrbanSeq1_JPG/frame_008130.png,1,2,1
LARA_traffic_light/Lara3D_UrbanSeq1_JPG/frame_008131.png,1,2,1
LARA_traffic_light/Lara3D_UrbanSeq1_JPG/frame_008132.png,1,2,1
LARA_traffic_light/Lara3D_UrbanSeq1_JPG/frame_008133.png,1,2,1
LARA_traffic_light/Lara3D_UrbanSeq1_JPG/frame_008134.png,1,2,1
LARA_traffic_light/Lara3D_UrbanSeq1_JPG/frame_008135.png,1,2,1
LARA_traffic_light/Lara3D_UrbanSeq1_JPG/frame_008136.png,1,2,1
LARA_traffic_light/Lara3D_UrbanSeq1_JPG/frame_008137.png,1,2,1
LARA_traffic_light/Lara3D_UrbanSeq1_JPG/frame_008138.png,1,2,1
LARA_traffic_light/Lara3D_UrbanSeq1_JPG/frame_008139.png,1,2,1
LARA_traffic_light/Lara3D_UrbanSeq1_JPG/frame_008140.png,1,2,1
LARA_traffic_light/Lara3D_UrbanSeq1_JPG/frame_008141.png,1,2,1
LARA_traffic_light/Lara3D_UrbanSeq1_JPG/frame_008142.png,1,2,1
LARA_traffic_light/Lara3D_UrbanSeq1_JPG/frame_008143.png,1,2,1
LARA_traffic_light/Lara3D_UrbanSeq1_JPG/frame_008144.png,1,2,1
LARA_traffic_light/Lara3D_UrbanSeq1_JPG/frame_008145.png,1,2,1
LARA_traffic_light/Lara3D_UrbanSeq1_JPG/frame_008146.png,1,2,1
LARA_traffic_light/Lara3D_UrbanSeq1_JPG/frame_008147.png,1,2,1
LARA_traffic_light/Lara3D_UrbanSeq1_JPG/frame_008148.png,1,2,1
LARA_traffic_light/Lara3D_UrbanSeq1_JPG/frame_008149.png,1,2,1
LARA_traffic_light/Lara3D_UrbanSeq1_JPG/frame_008150.png,1,2,1
LARA_traffic_light/Lara3D_UrbanSeq1_JPG/frame_008151.png,1,2,1
LARA_traffic_light/Lara3D_UrbanSeq1_JPG/frame_008152.png,1,2,1
LARA_traffic_light/Lara3D_UrbanSeq1_JPG/frame_008153.png,1,2,1
LARA_traffic_light/Lara3D_UrbanSeq1_JPG/frame_008154.png,1,2,1
LARA_traffic_light/Lara3D_UrbanSeq1_JPG/frame_008155.png,1,2,1
LARA_traffic_light/Lara3D_UrbanSeq1_JPG/frame_008156.png,1,2,1
LARA_traffic_light/Lara3D_UrbanSeq1_JPG/frame_008157.png,1,2,1
LARA_traffic_light/Lara3D_UrbanSeq1_JPG/frame_008158.png,1,2,1
LARA_traffic_light/Lara3D_UrbanSeq1_JPG/frame_008159.png,1,2,1
LARA_traffic_light/Lara3D_UrbanSeq1_JPG/frame_008160.png,1,2,1
LARA_traffic_light/Lara3D_UrbanSeq1_JPG/frame_008161.png,1,2,1
LARA_traffic_light/Lara3D_UrbanSeq1_JPG/frame_008162.png,1,2,1
LARA_traffic_light/Lara3D_UrbanSeq1_JPG/frame_008163.png,1,2,1
LARA_traffic_light/Lara3D_UrbanSeq1_JPG/frame_008164.png,1,2,1
LARA_traffic_light/Lara3D_UrbanSeq1_JPG/frame_008165.png,1,2,1
LARA_traffic_light/Lara3D_UrbanSeq1_JPG/frame_008166.png,1,2,1
LARA_traffic_light/Lara3D_UrbanSeq1_JPG/frame_008167.png,1,2,1
LARA_traffic_light/Lara3D_UrbanSeq1_JPG/frame_008168.png,1,2,1
LARA_traffic_light/Lara3D_UrbanSeq1_JPG/frame_008169.png,1,2,1
LARA_traffic_light/Lara3D_UrbanSeq1_JPG/frame_008170.png,1,2,1
LARA_traffic_light/Lara3D_UrbanSeq1_JPG/frame_008171.png,1,2,1
LARA_traffic_light/Lara3D_UrbanSeq1_JPG/frame_008172.png,1,2,1
LARA_traffic_light/Lara3D_UrbanSeq1_JPG/frame_008173.png,1,2,1
LARA_traffic_light/Lara3D_UrbanSeq1_JPG/frame_008174.png,1,2,1
LARA_traffic_light/Lara3D_UrbanSeq1_JPG/frame_008175.png,1,2,1
LARA_traffic_light/Lara3D_UrbanSeq1_JPG/frame_008176.png,1,2,1
LARA_traffic_light/Lara3D_UrbanSeq1_JPG/frame_008177.png,1,2,1
LARA_traffic_light/Lara3D_UrbanSeq1_JPG/frame_008178.png,1,2,1
LARA_traffic_light/Lara3D_UrbanSeq1_JPG/frame_008179.png,1,2,1
LARA_traffic_light/Lara3D_UrbanSeq1_JPG/frame_008180.png,1,2,1
LARA_traffic_light/Lara3D_UrbanSeq1_JPG/frame_008181.png,1,2,1
LARA_traffic_light/Lara3D_UrbanSeq1_JPG/frame_008182.png,1,2,1
LARA_traffic_light/Lara3D_UrbanSeq1_JPG/frame_008183.png,1,2,1
LARA_traffic_light/Lara3D_UrbanSeq1_JPG/frame_008184.png,1,2,1
LARA_traffic_light/Lara3D_UrbanSeq1_JPG/frame_008185.png,1,2,1
LARA_traffic_light/Lara3D_UrbanSeq1_JPG/frame_008186.png,1,2,1
LARA_traffic_light/Lara3D_UrbanSeq1_JPG/frame_008187.png,1,2,1
LARA_traffic_light/Lara3D_UrbanSeq1_JPG/frame_008188.png,1,2,1
LARA_traffic_light/Lara3D_UrbanSeq1_JPG/frame_008189.png,1,2,1
LARA_traffic_light/Lara3D_UrbanSeq1_JPG/frame_008190.png,1,2,1
LARA_traffic_light/Lara3D_UrbanSeq1_JPG/frame_008191.png,1,2,1
LARA_traffic_light/Lara3D_UrbanSeq1_JPG/frame_008192.png,1,2,1
LARA_traffic_light/Lara3D_UrbanSeq1_JPG/frame_008193.png,1,2,1
LARA_traffic_light/Lara3D_UrbanSeq1_JPG/frame_008194.png,1,2,2
LARA_traffic_light/Lara3D_UrbanSeq1_JPG/frame_008195.png,1,2,1
LARA_traffic_light/Lara3D_UrbanSeq1_JPG/frame_008196.png,1,2,1
LARA_traffic_light/Lara3D_UrbanSeq1_JPG/frame_008197.png,1,2,2
LARA_traffic_light/Lara3D_UrbanSeq1_JPG/frame_008198.png,1,2,2
LARA_traffic_light/Lara3D_UrbanSeq1_JPG/frame_008199.png,1,2,1
LARA_traffic_light/Lara3D_UrbanSeq1_JPG/frame_008200.png,1,2,1
LARA_traffic_light/Lara3D_UrbanSeq1_JPG/frame_008201.png,1,2,1
LARA_traffic_light/Lara3D_UrbanSeq1_JPG/frame_008202.png,1,2,1
LARA_traffic_light/Lara3D_UrbanSeq1_JPG/frame_008203.png,1,2,1
LARA_traffic_light/Lara3D_UrbanSeq1_JPG/frame_008204.png,1,2,1
LARA_traffic_light/Lara3D_UrbanSeq1_JPG/frame_008205.png,1,2,1
LARA_traffic_light/Lara3D_UrbanSeq1_JPG/frame_008206.png,1,2,1
LARA_traffic_light/Lara3D_UrbanSeq1_JPG/frame_008207.png,1,2,1
LARA_traffic_light/Lara3D_UrbanSeq1_JPG/frame_008208.png,1,2,1
LARA_traffic_light/Lara3D_UrbanSeq1_JPG/frame_008209.png,1,2,1
LARA_traffic_light/Lara3D_UrbanSeq1_JPG/frame_008210.png,1,2,1
LARA_traffic_light/Lara3D_UrbanSeq1_JPG/frame_008211.png,1,2,1
LARA_traffic_light/Lara3D_UrbanSeq1_JPG/frame_008212.png,1,2,1
LARA_traffic_light/Lara3D_UrbanSeq1_JPG/frame_008213.png,1,2,1
LARA_traffic_light/Lara3D_UrbanSeq1_JPG/frame_008214.png,1,2,1
LARA_traffic_light/Lara3D_UrbanSeq1_JPG/frame_008215.png,1,2,1
LARA_traffic_light/Lara3D_UrbanSeq1_JPG/frame_008216.png,1,2,1
LARA_traffic_light/Lara3D_UrbanSeq1_JPG/frame_008217.png,1,2,1
LARA_traffic_light/Lara3D_UrbanSeq1_JPG/frame_008218.png,1,2,1
LARA_traffic_light/Lara3D_UrbanSeq1_JPG/frame_008219.png,1,2,1
LARA_traffic_light/Lara3D_UrbanSeq1_JPG/frame_008220.png,1,2,1
LARA_traffic_light/Lara3D_UrbanSeq1_JPG/frame_008221.png,1,2,1
LARA_traffic_light/Lara3D_UrbanSeq1_JPG/frame_008222.png,1,2,1
LARA_traffic_light/Lara3D_UrbanSeq1_JPG/frame_008223.png,1,2,2
LARA_traffic_light/Lara3D_UrbanSeq1_JPG/frame_008224.png,1,2,1
LARA_traffic_light/Lara3D_UrbanSeq1_JPG/frame_008225.png,1,2,2
LARA_traffic_light/Lara3D_UrbanSeq1_JPG/frame_008226.png,1,2,2
LARA_traffic_light/Lara3D_UrbanSeq1_JPG/frame_008227.png,1,2,2
LARA_traffic_light/Lara3D_UrbanSeq1_JPG/frame_008228.png,1,2,2
LARA_traffic_light/Lara3D_UrbanSeq1_JPG/frame_008229.png,1,2,1
LARA_traffic_light/Lara3D_UrbanSeq1_JPG/frame_008230.png,1,2,2
LARA_traffic_light/Lara3D_UrbanSeq1_JPG/frame_008231.png,1,2,2
LARA_traffic_light/Lara3D_UrbanSeq1_JPG/frame_008232.png,1,2,2
LARA_traffic_light/Lara3D_UrbanSeq1_JPG/frame_008233.png,1,2,2
LARA_traffic_light/Lara3D_UrbanSeq1_JPG/frame_008234.png,1,2,1
LARA_traffic_light/Lara3D_UrbanSeq1_JPG/frame_008235.png,1,2,2
LARA_traffic_light/Lara3D_UrbanSeq1_JPG/frame_008236.png,1,2,2
LARA_traffic_light/Lara3D_UrbanSeq1_JPG/frame_008237.png,1,2,1
LARA_traffic_light/Lara3D_UrbanSeq1_JPG/frame_008238.png,1,2,1
LARA_traffic_light/Lara3D_UrbanSeq1_JPG/frame_008239.png,1,2,2
LARA_traffic_light/Lara3D_UrbanSeq1_JPG/frame_008240.png,1,2,1
LARA_traffic_light/Lara3D_UrbanSeq1_JPG/frame_008241.png,1,2,2
LARA_traffic_light/Lara3D_UrbanSeq1_JPG/frame_008242.png,1,2,2
LARA_traffic_light/Lara3D_UrbanSeq1_JPG/frame_008243.png,1,2,2
LARA_traffic_light/Lara3D_UrbanSeq1_JPG/frame_008244.png,1,2,2
LARA_traffic_light/Lara3D_UrbanSeq1_JPG/frame_008245.png,1,2,2
LARA_traffic_light/Lara3D_UrbanSeq1_JPG/frame_008246.png,1,2,2
LARA_traffic_light/Lara3D_UrbanSeq1_JPG/frame_008247.png,1,2,2
LARA_traffic_light/Lara3D_UrbanSeq1_JPG/frame_008248.png,1,2,2
LARA_traffic_light/Lara3D_UrbanSeq1_JPG/frame_008249.png,1,2,2
LARA_traffic_light/Lara3D_UrbanSeq1_JPG/frame_008250.png,1,2,2
LARA_traffic_light/Lara3D_UrbanSeq1_JPG/frame_008251.png,1,2,2
LARA_traffic_light/Lara3D_UrbanSeq1_JPG/frame_008252.png,1,2,2
LARA_traffic_light/Lara3D_UrbanSeq1_JPG/frame_008253.png,1,2,2
LARA_traffic_light/Lara3D_UrbanSeq1_JPG/frame_008254.png,1,2,2
LARA_traffic_light/Lara3D_UrbanSeq1_JPG/frame_008255.png,1,2,2
LARA_traffic_light/Lara3D_UrbanSeq1_JPG/frame_008256.png,1,2,1
LARA_traffic_light/Lara3D_UrbanSeq1_JPG/frame_008257.png,1,2,2
LARA_traffic_light/Lara3D_UrbanSeq1_JPG/frame_008258.png,1,2,2
LARA_traffic_light/Lara3D_UrbanSeq1_JPG/frame_008259.png,1,2,2
LARA_traffic_light/Lara3D_UrbanSeq1_JPG/frame_008260.png,1,2,1
LARA_traffic_light/Lara3D_UrbanSeq1_JPG/frame_008261.png,1,2,2
LARA_traffic_light/Lara3D_UrbanSeq1_JPG/frame_008262.png,1,2,1
LARA_traffic_light/Lara3D_UrbanSeq1_JPG/frame_008263.png,1,2,2
LARA_traffic_light/Lara3D_UrbanSeq1_JPG/frame_008264.png,1,2,2
LARA_traffic_light/Lara3D_UrbanSeq1_JPG/frame_008265.png,1,2,2
LARA_traffic_light/Lara3D_UrbanSeq1_JPG/frame_008266.png,1,2,2
LARA_traffic_light/Lara3D_UrbanSeq1_JPG/frame_008267.png,1,2,1
LARA_traffic_light/Lara3D_UrbanSeq1_JPG/frame_008268.png,1,2,1
LARA_traffic_light/Lara3D_UrbanSeq1_JPG/frame_008269.png,1,2,1
LARA_traffic_light/Lara3D_UrbanSeq1_JPG/frame_008270.png,1,2,2
LARA_traffic_light/Lara3D_UrbanSeq1_JPG/frame_008271.png,1,2,2
LARA_traffic_light/Lara3D_UrbanSeq1_JPG/frame_008272.png,1,2,2
LARA_traffic_light/Lara3D_UrbanSeq1_JPG/frame_008273.png,1,2,1
LARA_traffic_light/Lara3D_UrbanSeq1_JPG/frame_008274.png,1,2,2
LARA_traffic_light/Lara3D_UrbanSeq1_JPG/frame_008275.png,1,2,2
LARA_traffic_light/Lara3D_UrbanSeq1_JPG/frame_008276.png,1,2,2
LARA_traffic_light/Lara3D_UrbanSeq1_JPG/frame_008277.png,1,2,1
LARA_traffic_light/Lara3D_UrbanSeq1_JPG/frame_008278.png,1,2,2
LARA_traffic_light/Lara3D_UrbanSeq1_JPG/frame_008279.png,1,2,2
LARA_traffic_light/Lara3D_UrbanSeq1_JPG/frame_008280.png,1,2,1
LARA_traffic_light/Lara3D_UrbanSeq1_JPG/frame_008281.png,1,2,1
LARA_traffic_light/Lara3D_UrbanSeq1_JPG/frame_008282.png,1,2,1
LARA_traffic_light/Lara3D_UrbanSeq1_JPG/frame_008283.png,1,2,1
LARA_traffic_light/Lara3D_UrbanSeq1_JPG/frame_008284.png,1,2,1
LARA_traffic_light/Lara3D_UrbanSeq1_JPG/frame_008285.png,1,2,2
LARA_traffic_light/Lara3D_UrbanSeq1_JPG/frame_008286.png,1,2,1
LARA_traffic_light/Lara3D_UrbanSeq1_JPG/frame_008287.png,1,2,1
LARA_traffic_light/Lara3D_UrbanSeq1_JPG/frame_008288.png,1,2,1
LARA_traffic_light/Lara3D_UrbanSeq1_JPG/frame_008289.png,1,2,1
LARA_traffic_light/Lara3D_UrbanSeq1_JPG/frame_008290.png,1,2,1
LARA_traffic_light/Lara3D_UrbanSeq1_JPG/frame_008291.png,1,2,1
LARA_traffic_light/Lara3D_UrbanSeq1_JPG/frame_008292.png,1,2,1
LARA_traffic_light/Lara3D_UrbanSeq1_JPG/frame_008293.png,1,2,1
LARA_traffic_light/Lara3D_UrbanSeq1_JPG/frame_008294.png,1,2,1
LARA_traffic_light/Lara3D_UrbanSeq1_JPG/frame_008295.png,1,2,1
LARA_traffic_light/Lara3D_UrbanSeq1_JPG/frame_008296.png,1,2,1
LARA_traffic_light/Lara3D_UrbanSeq1_JPG/frame_008297.png,1,2,1
LARA_traffic_light/Lara3D_UrbanSeq1_JPG/frame_008298.png,1,2,1
LARA_traffic_light/Lara3D_UrbanSeq1_JPG/frame_008299.png,1,2,1
LARA_traffic_light/Lara3D_UrbanSeq1_JPG/frame_008300.png,1,2,1
LARA_traffic_light/Lara3D_UrbanSeq1_JPG/frame_008301.png,1,2,1
LARA_traffic_light/Lara3D_UrbanSeq1_JPG/frame_008302.png,1,2,1
LARA_traffic_light/Lara3D_UrbanSeq1_JPG/frame_008303.png,1,2,1
LARA_traffic_light/Lara3D_UrbanSeq1_JPG/frame_008304.png,1,2,1
LARA_traffic_light/Lara3D_UrbanSeq1_JPG/frame_008305.png,1,2,1
LARA_traffic_light/Lara3D_UrbanSeq1_JPG/frame_008306.png,1,2,1
LARA_traffic_light/Lara3D_UrbanSeq1_JPG/frame_008307.png,1,2,1
LARA_traffic_light/Lara3D_UrbanSeq1_JPG/frame_008308.png,1,2,1
LARA_traffic_light/Lara3D_UrbanSeq1_JPG/frame_008309.png,1,2,1
LARA_traffic_light/Lara3D_UrbanSeq1_JPG/frame_008310.png,1,2,1
LARA_traffic_light/Lara3D_UrbanSeq1_JPG/frame_008311.png,1,2,1
LARA_traffic_light/Lara3D_UrbanSeq1_JPG/frame_008312.png,1,2,1
LARA_traffic_light/Lara3D_UrbanSeq1_JPG/frame_008313.png,1,2,1
LARA_traffic_light/Lara3D_UrbanSeq1_JPG/frame_008314.png,1,2,1
LARA_traffic_light/Lara3D_UrbanSeq1_JPG/frame_008315.png,1,2,1
LARA_traffic_light/Lara3D_UrbanSeq1_JPG/frame_008316.png,1,2,1
LARA_traffic_light/Lara3D_UrbanSeq1_JPG/frame_008317.png,1,2,1
LARA_traffic_light/Lara3D_UrbanSeq1_JPG/frame_008318.png,1,2,1
LARA_traffic_light/Lara3D_UrbanSeq1_JPG/frame_008319.png,1,2,1
LARA_traffic_light/Lara3D_UrbanSeq1_JPG/frame_008320.png,1,2,1
LARA_traffic_light/Lara3D_UrbanSeq1_JPG/frame_008321.png,1,2,1
LARA_traffic_light/Lara3D_UrbanSeq1_JPG/frame_008322.png,1,2,1
LARA_traffic_light/Lara3D_UrbanSeq1_JPG/frame_008323.png,1,2,1
LARA_traffic_light/Lara3D_UrbanSeq1_JPG/frame_008324.png,1,2,1
LARA_traffic_light/Lara3D_UrbanSeq1_JPG/frame_008325.png,1,2,1
LARA_traffic_light/Lara3D_UrbanSeq1_JPG/frame_008326.png,1,2,1
LARA_traffic_light/Lara3D_UrbanSeq1_JPG/frame_008327.png,1,2,1
LARA_traffic_light/Lara3D_UrbanSeq1_JPG/frame_008328.png,1,2,1
LARA_traffic_light/Lara3D_UrbanSeq1_JPG/frame_008329.png,1,2,1
LARA_traffic_light/Lara3D_UrbanSeq1_JPG/frame_008330.png,1,2,1
LARA_traffic_light/Lara3D_UrbanSeq1_JPG/frame_008331.png,1,2,1
LARA_traffic_light/Lara3D_UrbanSeq1_JPG/frame_008332.png,1,2,1
LARA_traffic_light/Lara3D_UrbanSeq1_JPG/frame_008333.png,1,2,1
LARA_traffic_light/Lara3D_UrbanSeq1_JPG/frame_008334.png,1,2,1
LARA_traffic_light/Lara3D_UrbanSeq1_JPG/frame_008335.png,1,2,1
LARA_traffic_light/Lara3D_UrbanSeq1_JPG/frame_008336.png,1,2,1
LARA_traffic_light/Lara3D_UrbanSeq1_JPG/frame_008337.png,1,2,1
LARA_traffic_light/Lara3D_UrbanSeq1_JPG/frame_008338.png,1,2,1
LARA_traffic_light/Lara3D_UrbanSeq1_JPG/frame_008339.png,1,2,1
LARA_traffic_light/Lara3D_UrbanSeq1_JPG/frame_008340.png,1,2,1
LARA_traffic_light/Lara3D_UrbanSeq1_JPG/frame_008341.png,1,2,1
LARA_traffic_light/Lara3D_UrbanSeq1_JPG/frame_008342.png,1,2,1
LARA_traffic_light/Lara3D_UrbanSeq1_JPG/frame_008343.png,1,2,1
LARA_traffic_light/Lara3D_UrbanSeq1_JPG/frame_008344.png,1,2,1
LARA_traffic_light/Lara3D_UrbanSeq1_JPG/frame_008345.png,1,2,1
LARA_traffic_light/Lara3D_UrbanSeq1_JPG/frame_008346.png,1,2,1
LARA_traffic_light/Lara3D_UrbanSeq1_JPG/frame_008347.png,1,2,1
LARA_traffic_light/Lara3D_UrbanSeq1_JPG/frame_008348.png,1,2,1
LARA_traffic_light/Lara3D_UrbanSeq1_JPG/frame_008349.png,1,2,1
LARA_traffic_light/Lara3D_UrbanSeq1_JPG/frame_008350.png,1,2,1
LARA_traffic_light/Lara3D_UrbanSeq1_JPG/frame_008351.png,1,2,1
LARA_traffic_light/Lara3D_UrbanSeq1_JPG/frame_008352.png,1,2,1
LARA_traffic_light/Lara3D_UrbanSeq1_JPG/frame_008353.png,1,2,1
LARA_traffic_light/Lara3D_UrbanSeq1_JPG/frame_008354.png,1,2,1
LARA_traffic_light/Lara3D_UrbanSeq1_JPG/frame_008355.png,1,2,1
LARA_traffic_light/Lara3D_UrbanSeq1_JPG/frame_008356.png,1,2,1
LARA_traffic_light/Lara3D_UrbanSeq1_JPG/frame_008357.png,1,2,1
LARA_traffic_light/Lara3D_UrbanSeq1_JPG/frame_008358.png,1,2,1
LARA_traffic_light/Lara3D_UrbanSeq1_JPG/frame_008359.png,1,2,1
LARA_traffic_light/Lara3D_UrbanSeq1_JPG/frame_008360.png,1,2,1
LARA_traffic_light/Lara3D_UrbanSeq1_JPG/frame_008361.png,1,2,1
LARA_traffic_light/Lara3D_UrbanSeq1_JPG/frame_008362.png,1,2,1
LARA_traffic_light/Lara3D_UrbanSeq1_JPG/frame_008363.png,1,2,1
LARA_traffic_light/Lara3D_UrbanSeq1_JPG/frame_008364.png,1,2,1
LARA_traffic_light/Lara3D_UrbanSeq1_JPG/frame_008365.png,1,2,1
LARA_traffic_light/Lara3D_UrbanSeq1_JPG/frame_008366.png,1,2,1
LARA_traffic_light/Lara3D_UrbanSeq1_JPG/frame_008367.png,1,2,1
LARA_traffic_light/Lara3D_UrbanSeq1_JPG/frame_008368.png,1,2,1
LARA_traffic_light/Lara3D_UrbanSeq1_JPG/frame_008369.png,1,2,1
LARA_traffic_light/Lara3D_UrbanSeq1_JPG/frame_008370.png,1,2,1
LARA_traffic_light/Lara3D_UrbanSeq1_JPG/frame_008371.png,1,2,1
LARA_traffic_light/Lara3D_UrbanSeq1_JPG/frame_008372.png,1,2,1
LARA_traffic_light/Lara3D_UrbanSeq1_JPG/frame_008373.png,1,2,1
LARA_traffic_light/Lara3D_UrbanSeq1_JPG/frame_008374.png,1,2,1
LARA_traffic_light/Lara3D_UrbanSeq1_JPG/frame_008375.png,1,2,1
LARA_traffic_light/Lara3D_UrbanSeq1_JPG/frame_008376.png,1,2,1
LARA_traffic_light/Lara3D_UrbanSeq1_JPG/frame_008377.png,1,2,1
LARA_traffic_light/Lara3D_UrbanSeq1_JPG/frame_008378.png,1,2,1
LARA_traffic_light/Lara3D_UrbanSeq1_JPG/frame_008379.png,1,2,1
LARA_traffic_light/Lara3D_UrbanSeq1_JPG/frame_008380.png,1,2,1
LARA_traffic_light/Lara3D_UrbanSeq1_JPG/frame_008381.png,1,2,1
LARA_traffic_light/Lara3D_UrbanSeq1_JPG/frame_008382.png,1,2,1
LARA_traffic_light/Lara3D_UrbanSeq1_JPG/frame_008383.png,1,2,1
LARA_traffic_light/Lara3D_UrbanSeq1_JPG/frame_008384.png,1,2,1
LARA_traffic_light/Lara3D_UrbanSeq1_JPG/frame_008385.png,1,2,1
LARA_traffic_light/Lara3D_UrbanSeq1_JPG/frame_008386.png,1,2,1
LARA_traffic_light/Lara3D_UrbanSeq1_JPG/frame_008387.png,1,2,1
LARA_traffic_light/Lara3D_UrbanSeq1_JPG/frame_008388.png,1,2,1
LARA_traffic_light/Lara3D_UrbanSeq1_JPG/frame_008389.png,1,2,1
LARA_traffic_light/Lara3D_UrbanSeq1_JPG/frame_008390.png,1,2,1
LARA_traffic_light/Lara3D_UrbanSeq1_JPG/frame_008391.png,1,2,1
LARA_traffic_light/Lara3D_UrbanSeq1_JPG/frame_008392.png,1,2,1
LARA_traffic_light/Lara3D_UrbanSeq1_JPG/frame_008393.png,1,2,1
LARA_traffic_light/Lara3D_UrbanSeq1_JPG/frame_008394.png,1,2,1
LARA_traffic_light/Lara3D_UrbanSeq1_JPG/frame_008395.png,1,2,1
LARA_traffic_light/Lara3D_UrbanSeq1_JPG/frame_008396.png,1,2,1
LARA_traffic_light/Lara3D_UrbanSeq1_JPG/frame_008397.png,1,2,1
LARA_traffic_light/Lara3D_UrbanSeq1_JPG/frame_008398.png,1,2,1
LARA_traffic_light/Lara3D_UrbanSeq1_JPG/frame_008399.png,1,2,1
LARA_traffic_light/Lara3D_UrbanSeq1_JPG/frame_008400.png,1,2,1
LARA_traffic_light/Lara3D_UrbanSeq1_JPG/frame_008401.png,1,2,1
LARA_traffic_light/Lara3D_UrbanSeq1_JPG/frame_008402.png,1,2,1
LARA_traffic_light/Lara3D_UrbanSeq1_JPG/frame_008403.png,1,2,1
LARA_traffic_light/Lara3D_UrbanSeq1_JPG/frame_008404.png,1,2,1
LARA_traffic_light/Lara3D_UrbanSeq1_JPG/frame_008405.png,1,2,1
LARA_traffic_light/Lara3D_UrbanSeq1_JPG/frame_008406.png,1,2,1
LARA_traffic_light/Lara3D_UrbanSeq1_JPG/frame_008407.png,1,2,1
LARA_traffic_light/Lara3D_UrbanSeq1_JPG/frame_008408.png,1,2,1
LARA_traffic_light/Lara3D_UrbanSeq1_JPG/frame_008409.png,1,2,1
LARA_traffic_light/Lara3D_UrbanSeq1_JPG/frame_008410.png,1,2,1
LARA_traffic_light/Lara3D_UrbanSeq1_JPG/frame_008411.png,1,2,1
LARA_traffic_light/Lara3D_UrbanSeq1_JPG/frame_008412.png,1,2,1
LARA_traffic_light/Lara3D_UrbanSeq1_JPG/frame_008413.png,1,2,1
LARA_traffic_light/Lara3D_UrbanSeq1_JPG/frame_008414.png,1,2,1
LARA_traffic_light/Lara3D_UrbanSeq1_JPG/frame_008415.png,1,2,1
LARA_traffic_light/Lara3D_UrbanSeq1_JPG/frame_008416.png,1,2,1
LARA_traffic_light/Lara3D_UrbanSeq1_JPG/frame_008417.png,1,2,1
LARA_traffic_light/Lara3D_UrbanSeq1_JPG/frame_008418.png,1,2,1
LARA_traffic_light/Lara3D_UrbanSeq1_JPG/frame_008419.png,1,2,1
LARA_traffic_light/Lara3D_UrbanSeq1_JPG/frame_008420.png,1,2,1
LARA_traffic_light/Lara3D_UrbanSeq1_JPG/frame_008421.png,1,2,1
LARA_traffic_light/Lara3D_UrbanSeq1_JPG/frame_008422.png,1,2,1
LARA_traffic_light/Lara3D_UrbanSeq1_JPG/frame_008423.png,1,2,1
LARA_traffic_light/Lara3D_UrbanSeq1_JPG/frame_008424.png,1,2,1
LARA_traffic_light/Lara3D_UrbanSeq1_JPG/frame_008425.png,1,2,1
LARA_traffic_light/Lara3D_UrbanSeq1_JPG/frame_008426.png,1,2,1
LARA_traffic_light/Lara3D_UrbanSeq1_JPG/frame_008427.png,1,2,1
LARA_traffic_light/Lara3D_UrbanSeq1_JPG/frame_008428.png,1,2,1
LARA_traffic_light/Lara3D_UrbanSeq1_JPG/frame_008429.png,1,2,1
LARA_traffic_light/Lara3D_UrbanSeq1_JPG/frame_008430.png,1,2,1
LARA_traffic_light/Lara3D_UrbanSeq1_JPG/frame_008431.png,1,2,1
LARA_traffic_light/Lara3D_UrbanSeq1_JPG/frame_008432.png,1,2,1
LARA_traffic_light/Lara3D_UrbanSeq1_JPG/frame_008433.png,1,2,1
LARA_traffic_light/Lara3D_UrbanSeq1_JPG/frame_008434.png,1,2,1
LARA_traffic_light/Lara3D_UrbanSeq1_JPG/frame_008435.png,1,2,1
LARA_traffic_light/Lara3D_UrbanSeq1_JPG/frame_008436.png,1,2,1
LARA_traffic_light/Lara3D_UrbanSeq1_JPG/frame_008437.png,1,2,1
LARA_traffic_light/Lara3D_UrbanSeq1_JPG/frame_008438.png,1,2,1
LARA_traffic_light/Lara3D_UrbanSeq1_JPG/frame_008439.png,1,2,1
LARA_traffic_light/Lara3D_UrbanSeq1_JPG/frame_008440.png,1,2,1
LARA_traffic_light/Lara3D_UrbanSeq1_JPG/frame_008441.png,1,2,1
LARA_traffic_light/Lara3D_UrbanSeq1_JPG/frame_008442.png,1,2,1
LARA_traffic_light/Lara3D_UrbanSeq1_JPG/frame_008443.png,1,2,1
LARA_traffic_light/Lara3D_UrbanSeq1_JPG/frame_008444.png,1,2,1
LARA_traffic_light/Lara3D_UrbanSeq1_JPG/frame_008445.png,1,2,1
LARA_traffic_light/Lara3D_UrbanSeq1_JPG/frame_008446.png,1,2,1
LARA_traffic_light/Lara3D_UrbanSeq1_JPG/frame_008447.png,1,2,1
LARA_traffic_light/Lara3D_UrbanSeq1_JPG/frame_008448.png,1,2,1
LARA_traffic_light/Lara3D_UrbanSeq1_JPG/frame_008449.png,1,2,1
LARA_traffic_light/Lara3D_UrbanSeq1_JPG/frame_008450.png,1,2,1
LARA_traffic_light/Lara3D_UrbanSeq1_JPG/frame_008451.png,1,2,1
LARA_traffic_light/Lara3D_UrbanSeq1_JPG/frame_008452.png,1,2,1
LARA_traffic_light/Lara3D_UrbanSeq1_JPG/frame_008453.png,1,2,1
LARA_traffic_light/Lara3D_UrbanSeq1_JPG/frame_008454.png,1,2,1
LARA_traffic_light/Lara3D_UrbanSeq1_JPG/frame_008455.png,1,2,1
LARA_traffic_light/Lara3D_UrbanSeq1_JPG/frame_008456.png,1,2,1
LARA_traffic_light/Lara3D_UrbanSeq1_JPG/frame_008457.png,1,2,1
LARA_traffic_light/Lara3D_UrbanSeq1_JPG/frame_008458.png,1,2,1
LARA_traffic_light/Lara3D_UrbanSeq1_JPG/frame_008459.png,1,2,1
LARA_traffic_light/Lara3D_UrbanSeq1_JPG/frame_008460.png,1,2,1
LARA_traffic_light/Lara3D_UrbanSeq1_JPG/frame_008461.png,1,2,1
LARA_traffic_light/Lara3D_UrbanSeq1_JPG/frame_008462.png,1,2,1
LARA_traffic_light/Lara3D_UrbanSeq1_JPG/frame_008463.png,1,1,1
LARA_traffic_light/Lara3D_UrbanSeq1_JPG/frame_008464.png,1,1,1
LARA_traffic_light/Lara3D_UrbanSeq1_JPG/frame_008465.png,1,1,1
LARA_traffic_light/Lara3D_UrbanSeq1_JPG/frame_008466.png,1,1,1
LARA_traffic_light/Lara3D_UrbanSeq1_JPG/frame_008467.png,1,1,1
LARA_traffic_light/Lara3D_UrbanSeq1_JPG/frame_008468.png,1,1,1
LARA_traffic_light/Lara3D_UrbanSeq1_JPG/frame_008469.png,1,1,1
LARA_traffic_light/Lara3D_UrbanSeq1_JPG/frame_008470.png,1,1,1
LARA_traffic_light/Lara3D_UrbanSeq1_JPG/frame_008471.png,1,1,1
LARA_traffic_light/Lara3D_UrbanSeq1_JPG/frame_008472.png,1,1,1
LARA_traffic_light/Lara3D_UrbanSeq1_JPG/frame_008473.png,1,1,1
LARA_traffic_light/Lara3D_UrbanSeq1_JPG/frame_008474.png,1,1,1
LARA_traffic_light/Lara3D_UrbanSeq1_JPG/frame_008475.png,1,1,1
LARA_traffic_light/Lara3D_UrbanSeq1_JPG/frame_008476.png,1,1,1
LARA_traffic_light/Lara3D_UrbanSeq1_JPG/frame_008477.png,1,1,1
LARA_traffic_light/Lara3D_UrbanSeq1_JPG/frame_008478.png,1,1,1
LARA_traffic_light/Lara3D_UrbanSeq1_JPG/frame_008479.png,1,1,1
LARA_traffic_light/Lara3D_UrbanSeq1_JPG/frame_008480.png,1,1,1
LARA_traffic_light/Lara3D_UrbanSeq1_JPG/frame_008481.png,1,1,1
LARA_traffic_light/Lara3D_UrbanSeq1_JPG/frame_008482.png,1,1,1
LARA_traffic_light/Lara3D_UrbanSeq1_JPG/frame_008483.png,1,1,1
LARA_traffic_light/Lara3D_UrbanSeq1_JPG/frame_008484.png,1,1,1
LARA_traffic_light/Lara3D_UrbanSeq1_JPG/frame_008485.png,1,1,1
LARA_traffic_light/Lara3D_UrbanSeq1_JPG/frame_008486.png,1,1,1
LARA_traffic_light/Lara3D_UrbanSeq1_JPG/frame_008487.png,1,1,1
LARA_traffic_light/Lara3D_UrbanSeq1_JPG/frame_008488.png,1,1,1
LARA_traffic_light/Lara3D_UrbanSeq1_JPG/frame_008489.png,1,1,1
LARA_traffic_light/Lara3D_UrbanSeq1_JPG/frame_008490.png,1,1,1
LARA_traffic_light/Lara3D_UrbanSeq1_JPG/frame_008491.png,1,1,1
LARA_traffic_light/Lara3D_UrbanSeq1_JPG/frame_008492.png,1,1,1
LARA_traffic_light/Lara3D_UrbanSeq1_JPG/frame_008493.png,1,1,1
LARA_traffic_light/Lara3D_UrbanSeq1_JPG/frame_008494.png,1,1,1
LARA_traffic_light/Lara3D_UrbanSeq1_JPG/frame_008495.png,1,1,1
LARA_traffic_light/Lara3D_UrbanSeq1_JPG/frame_008496.png,1,1,1
LARA_traffic_light/Lara3D_UrbanSeq1_JPG/frame_008497.png,1,1,1
LARA_traffic_light/Lara3D_UrbanSeq1_JPG/frame_008498.png,1,1,1
LARA_traffic_light/Lara3D_UrbanSeq1_JPG/frame_008499.png,1,1,1
LARA_traffic_light/Lara3D_UrbanSeq1_JPG/frame_008500.png,1,1,1
LARA_traffic_light/Lara3D_UrbanSeq1_JPG/frame_008501.png,1,1,1
LARA_traffic_light/Lara3D_UrbanSeq1_JPG/frame_008502.png,1,1,1
LARA_traffic_light/Lara3D_UrbanSeq1_JPG/frame_008503.png,1,1,1
LARA_traffic_light/Lara3D_UrbanSeq1_JPG/frame_008504.png,1,1,1
LARA_traffic_light/Lara3D_UrbanSeq1_JPG/frame_008505.png,1,1,1
LARA_traffic_light/Lara3D_UrbanSeq1_JPG/frame_008506.png,1,1,1
LARA_traffic_light/Lara3D_UrbanSeq1_JPG/frame_008507.png,1,1,1
LARA_traffic_light/Lara3D_UrbanSeq1_JPG/frame_008508.png,1,1,1
LARA_traffic_light/Lara3D_UrbanSeq1_JPG/frame_008509.png,1,1,1
LARA_traffic_light/Lara3D_UrbanSeq1_JPG/frame_008510.png,1,1,1
LARA_traffic_light/Lara3D_UrbanSeq1_JPG/frame_008511.png,1,1,1
LARA_traffic_light/Lara3D_UrbanSeq1_JPG/frame_008512.png,1,1,1
LARA_traffic_light/Lara3D_UrbanSeq1_JPG/frame_008513.png,1,1,1
LARA_traffic_light/Lara3D_UrbanSeq1_JPG/frame_008514.png,1,1,1
LARA_traffic_light/Lara3D_UrbanSeq1_JPG/frame_008515.png,1,1,1
LARA_traffic_light/Lara3D_UrbanSeq1_JPG/frame_008516.png,1,1,1
LARA_traffic_light/Lara3D_UrbanSeq1_JPG/frame_008517.png,1,1,1
LARA_traffic_light/Lara3D_UrbanSeq1_JPG/frame_008518.png,1,1,1
LARA_traffic_light/Lara3D_UrbanSeq1_JPG/frame_008519.png,1,1,1
LARA_traffic_light/Lara3D_UrbanSeq1_JPG/frame_008520.png,1,1,1
LARA_traffic_light/Lara3D_UrbanSeq1_JPG/frame_008521.png,1,1,1
LARA_traffic_light/Lara3D_UrbanSeq1_JPG/frame_008522.png,1,1,1
LARA_traffic_light/Lara3D_UrbanSeq1_JPG/frame_008523.png,1,1,1
LARA_traffic_light/Lara3D_UrbanSeq1_JPG/frame_008524.png,1,1,1
LARA_traffic_light/Lara3D_UrbanSeq1_JPG/frame_008525.png,1,1,1
LARA_traffic_light/Lara3D_UrbanSeq1_JPG/frame_008526.png,1,1,1
LARA_traffic_light/Lara3D_UrbanSeq1_JPG/frame_008527.png,1,1,1
LARA_traffic_light/Lara3D_UrbanSeq1_JPG/frame_008528.png,1,1,1
LARA_traffic_light/Lara3D_UrbanSeq1_JPG/frame_008529.png,1,1,1
LARA_traffic_light/Lara3D_UrbanSeq1_JPG/frame_008530.png,1,1,1
LARA_traffic_light/Lara3D_UrbanSeq1_JPG/frame_008531.png,1,1,1
LARA_traffic_light/Lara3D_UrbanSeq1_JPG/frame_008532.png,1,1,1
LARA_traffic_light/Lara3D_UrbanSeq1_JPG/frame_008533.png,1,1,1
LARA_traffic_light/Lara3D_UrbanSeq1_JPG/frame_008534.png,1,1,1
LARA_traffic_light/Lara3D_UrbanSeq1_JPG/frame_008535.png,1,1,1
LARA_traffic_light/Lara3D_UrbanSeq1_JPG/frame_008536.png,1,1,1
LARA_traffic_light/Lara3D_UrbanSeq1_JPG/frame_008537.png,1,1,1
LARA_traffic_light/Lara3D_UrbanSeq1_JPG/frame_008538.png,1,1,1
LARA_traffic_light/Lara3D_UrbanSeq1_JPG/frame_008539.png,1,1,1
LARA_traffic_light/Lara3D_UrbanSeq1_JPG/frame_008540.png,1,1,1
LARA_traffic_light/Lara3D_UrbanSeq1_JPG/frame_008541.png,1,1,1
LARA_traffic_light/Lara3D_UrbanSeq1_JPG/frame_008542.png,1,1,1
LARA_traffic_light/Lara3D_UrbanSeq1_JPG/frame_008543.png,1,1,1
LARA_traffic_light/Lara3D_UrbanSeq1_JPG/frame_008544.png,1,1,1
LARA_traffic_light/Lara3D_UrbanSeq1_JPG/frame_008545.png,1,1,1
LARA_traffic_light/Lara3D_UrbanSeq1_JPG/frame_008546.png,1,1,1
LARA_traffic_light/Lara3D_UrbanSeq1_JPG/frame_008547.png,1,1,1
LARA_traffic_light/Lara3D_UrbanSeq1_JPG/frame_008548.png,1,1,1
LARA_traffic_light/Lara3D_UrbanSeq1_JPG/frame_008549.png,1,1,1
LARA_traffic_light/Lara3D_UrbanSeq1_JPG/frame_008550.png,1,1,1
LARA_traffic_light/Lara3D_UrbanSeq1_JPG/frame_008551.png,1,1,1
LARA_traffic_light/Lara3D_UrbanSeq1_JPG/frame_008552.png,1,1,1
LARA_traffic_light/Lara3D_UrbanSeq1_JPG/frame_008553.png,1,1,1
LARA_traffic_light/Lara3D_UrbanSeq1_JPG/frame_008583.png,2,1,2
LARA_traffic_light/Lara3D_UrbanSeq1_JPG/frame_008584.png,2,1,2
LARA_traffic_light/Lara3D_UrbanSeq1_JPG/frame_008585.png,2,1,2
LARA_traffic_light/Lara3D_UrbanSeq1_JPG/frame_008586.png,2,1,2
LARA_traffic_light/Lara3D_UrbanSeq1_JPG/frame_008587.png,2,1,2
LARA_traffic_light/Lara3D_UrbanSeq1_JPG/frame_008588.png,2,1,2
LARA_traffic_light/Lara3D_UrbanSeq1_JPG/frame_008589.png,2,1,2
LARA_traffic_light/Lara3D_UrbanSeq1_JPG/frame_008590.png,2,1,2
LARA_traffic_light/Lara3D_UrbanSeq1_JPG/frame_008591.png,2,1,2
LARA_traffic_light/Lara3D_UrbanSeq1_JPG/frame_008592.png,2,1,2
LARA_traffic_light/Lara3D_UrbanSeq1_JPG/frame_008593.png,2,1,2
LARA_traffic_light/Lara3D_UrbanSeq1_JPG/frame_008594.png,2,1,2
LARA_traffic_light/Lara3D_UrbanSeq1_JPG/frame_008595.png,2,1,2
LARA_traffic_light/Lara3D_UrbanSeq1_JPG/frame_008596.png,2,1,2
LARA_traffic_light/Lara3D_UrbanSeq1_JPG/frame_008597.png,2,1,2
LARA_traffic_light/Lara3D_UrbanSeq1_JPG/frame_008598.png,2,1,2
LARA_traffic_light/Lara3D_UrbanSeq1_JPG/frame_008599.png,2,1,2
LARA_traffic_light/Lara3D_UrbanSeq1_JPG/frame_008600.png,2,1,2
LARA_traffic_light/Lara3D_UrbanSeq1_JPG/frame_008601.png,2,1,2
LARA_traffic_light/Lara3D_UrbanSeq1_JPG/frame_008602.png,2,1,2
LARA_traffic_light/Lara3D_UrbanSeq1_JPG/frame_008603.png,2,1,2
LARA_traffic_light/Lara3D_UrbanSeq1_JPG/frame_008604.png,2,1,2
LARA_traffic_light/Lara3D_UrbanSeq1_JPG/frame_008605.png,2,1,2
LARA_traffic_light/Lara3D_UrbanSeq1_JPG/frame_008606.png,2,1,2
LARA_traffic_light/Lara3D_UrbanSeq1_JPG/frame_008607.png,2,1,2
LARA_traffic_light/Lara3D_UrbanSeq1_JPG/frame_008608.png,2,1,2
LARA_traffic_light/Lara3D_UrbanSeq1_JPG/frame_008609.png,2,1,2
LARA_traffic_light/Lara3D_UrbanSeq1_JPG/frame_008610.png,2,1,2
LARA_traffic_light/Lara3D_UrbanSeq1_JPG/frame_008611.png,2,1,2
LARA_traffic_light/Lara3D_UrbanSeq1_JPG/frame_008612.png,2,1,2
LARA_traffic_light/Lara3D_UrbanSeq1_JPG/frame_008613.png,2,1,2
LARA_traffic_light/Lara3D_UrbanSeq1_JPG/frame_008614.png,2,1,2
LARA_traffic_light/Lara3D_UrbanSeq1_JPG/frame_008615.png,2,1,2
LARA_traffic_light/Lara3D_UrbanSeq1_JPG/frame_008616.png,2,1,2
LARA_traffic_light/Lara3D_UrbanSeq1_JPG/frame_008617.png,2,1,2
LARA_traffic_light/Lara3D_UrbanSeq1_JPG/frame_008618.png,2,1,2
LARA_traffic_light/Lara3D_UrbanSeq1_JPG/frame_008619.png,2,1,2
LARA_traffic_light/Lara3D_UrbanSeq1_JPG/frame_008620.png,2,1,2
LARA_traffic_light/Lara3D_UrbanSeq1_JPG/frame_008621.png,2,1,2
LARA_traffic_light/Lara3D_UrbanSeq1_JPG/frame_008622.png,2,1,2
LARA_traffic_light/Lara3D_UrbanSeq1_JPG/frame_008623.png,2,1,2
LARA_traffic_light/Lara3D_UrbanSeq1_JPG/frame_008624.png,2,1,2
LARA_traffic_light/Lara3D_UrbanSeq1_JPG/frame_008625.png,2,1,2
LARA_traffic_light/Lara3D_UrbanSeq1_JPG/frame_008626.png,2,1,2
LARA_traffic_light/Lara3D_UrbanSeq1_JPG/frame_008627.png,2,1,2
LARA_traffic_light/Lara3D_UrbanSeq1_JPG/frame_008628.png,2,1,2
LARA_traffic_light/Lara3D_UrbanSeq1_JPG/frame_008629.png,2,1,2
LARA_traffic_light/Lara3D_UrbanSeq1_JPG/frame_008630.png,2,1,2
LARA_traffic_light/Lara3D_UrbanSeq1_JPG/frame_008631.png,2,1,2
LARA_traffic_light/Lara3D_UrbanSeq1_JPG/frame_008632.png,2,1,2
LARA_traffic_light/Lara3D_UrbanSeq1_JPG/frame_008633.png,2,1,2
LARA_traffic_light/Lara3D_UrbanSeq1_JPG/frame_008634.png,2,1,2
LARA_traffic_light/Lara3D_UrbanSeq1_JPG/frame_008635.png,2,1,2
LARA_traffic_light/Lara3D_UrbanSeq1_JPG/frame_008636.png,2,1,2
LARA_traffic_light/Lara3D_UrbanSeq1_JPG/frame_008637.png,2,1,2
LARA_traffic_light/Lara3D_UrbanSeq1_JPG/frame_008638.png,2,1,2
LARA_traffic_light/Lara3D_UrbanSeq1_JPG/frame_008639.png,2,1,2
LARA_traffic_light/Lara3D_UrbanSeq1_JPG/frame_008640.png,2,1,2
LARA_traffic_light/Lara3D_UrbanSeq1_JPG/frame_008641.png,2,1,2
LARA_traffic_light/Lara3D_UrbanSeq1_JPG/frame_008642.png,2,1,2
LARA_traffic_light/Lara3D_UrbanSeq1_JPG/frame_008643.png,2,1,2
LARA_traffic_light/Lara3D_UrbanSeq1_JPG/frame_008644.png,2,1,2
LARA_traffic_light/Lara3D_UrbanSeq1_JPG/frame_008645.png,2,1,2
LARA_traffic_light/Lara3D_UrbanSeq1_JPG/frame_008646.png,2,1,2
LARA_traffic_light/Lara3D_UrbanSeq1_JPG/frame_008647.png,2,1,2
LARA_traffic_light/Lara3D_UrbanSeq1_JPG/frame_008648.png,2,1,2
LARA_traffic_light/Lara3D_UrbanSeq1_JPG/frame_008649.png,2,1,2
LARA_traffic_light/Lara3D_UrbanSeq1_JPG/frame_008650.png,2,1,2
LARA_traffic_light/Lara3D_UrbanSeq1_JPG/frame_008651.png,2,1,2
LARA_traffic_light/Lara3D_UrbanSeq1_JPG/frame_008652.png,2,1,2
LARA_traffic_light/Lara3D_UrbanSeq1_JPG/frame_008653.png,2,1,2
LARA_traffic_light/Lara3D_UrbanSeq1_JPG/frame_008654.png,2,1,2
LARA_traffic_light/Lara3D_UrbanSeq1_JPG/frame_008655.png,2,1,2
LARA_traffic_light/Lara3D_UrbanSeq1_JPG/frame_008656.png,2,1,2
LARA_traffic_light/Lara3D_UrbanSeq1_JPG/frame_008657.png,2,1,2
LARA_traffic_light/Lara3D_UrbanSeq1_JPG/frame_008658.png,2,1,2
LARA_traffic_light/Lara3D_UrbanSeq1_JPG/frame_008659.png,2,1,2
LARA_traffic_light/Lara3D_UrbanSeq1_JPG/frame_008660.png,2,1,2
LARA_traffic_light/Lara3D_UrbanSeq1_JPG/frame_008661.png,2,1,2
LARA_traffic_light/Lara3D_UrbanSeq1_JPG/frame_008662.png,2,1,2
LARA_traffic_light/Lara3D_UrbanSeq1_JPG/frame_008663.png,2,1,2
LARA_traffic_light/Lara3D_UrbanSeq1_JPG/frame_008664.png,2,1,2
LARA_traffic_light/Lara3D_UrbanSeq1_JPG/frame_008665.png,2,1,2
LARA_traffic_light/Lara3D_UrbanSeq1_JPG/frame_008666.png,2,1,2
LARA_traffic_light/Lara3D_UrbanSeq1_JPG/frame_008667.png,2,1,2
LARA_traffic_light/Lara3D_UrbanSeq1_JPG/frame_008668.png,2,1,2
LARA_traffic_light/Lara3D_UrbanSeq1_JPG/frame_008669.png,2,1,2
LARA_traffic_light/Lara3D_UrbanSeq1_JPG/frame_008670.png,2,1,2
LARA_traffic_light/Lara3D_UrbanSeq1_JPG/frame_008671.png,2,1,2
LARA_traffic_light/Lara3D_UrbanSeq1_JPG/frame_008672.png,2,1,2
LARA_traffic_light/Lara3D_UrbanSeq1_JPG/frame_008673.png,2,1,2
LARA_traffic_light/Lara3D_UrbanSeq1_JPG/frame_008674.png,2,1,2
LARA_traffic_light/Lara3D_UrbanSeq1_JPG/frame_008675.png,2,1,2
LARA_traffic_light/Lara3D_UrbanSeq1_JPG/frame_008676.png,2,1,2
LARA_traffic_light/Lara3D_UrbanSeq1_JPG/frame_008677.png,2,1,2
LARA_traffic_light/Lara3D_UrbanSeq1_JPG/frame_008678.png,2,1,2
LARA_traffic_light/Lara3D_UrbanSeq1_JPG/frame_008679.png,2,1,2
LARA_traffic_light/Lara3D_UrbanSeq1_JPG/frame_008680.png,2,1,2
LARA_traffic_light/Lara3D_UrbanSeq1_JPG/frame_008681.png,2,1,2
LARA_traffic_light/Lara3D_UrbanSeq1_JPG/frame_008682.png,2,1,2
LARA_traffic_light/Lara3D_UrbanSeq1_JPG/frame_008683.png,2,1,2
LARA_traffic_light/Lara3D_UrbanSeq1_JPG/frame_008684.png,2,1,2
LARA_traffic_light/Lara3D_UrbanSeq1_JPG/frame_008685.png,2,1,1
LARA_traffic_light/Lara3D_UrbanSeq1_JPG/frame_008686.png,2,1,2
LARA_traffic_light/Lara3D_UrbanSeq1_JPG/frame_008687.png,2,1,2
LARA_traffic_light/Lara3D_UrbanSeq1_JPG/frame_008688.png,2,1,2
LARA_traffic_light/Lara3D_UrbanSeq1_JPG/frame_008689.png,2,1,2
LARA_traffic_light/Lara3D_UrbanSeq1_JPG/frame_008690.png,2,1,2
LARA_traffic_light/Lara3D_UrbanSeq1_JPG/frame_008691.png,2,1,2
LARA_traffic_light/Lara3D_UrbanSeq1_JPG/frame_008692.png,2,1,2
LARA_traffic_light/Lara3D_UrbanSeq1_JPG/frame_008693.png,2,1,2
LARA_traffic_light/Lara3D_UrbanSeq1_JPG/frame_008694.png,2,1,2
LARA_traffic_light/Lara3D_UrbanSeq1_JPG/frame_008695.png,2,1,2
LARA_traffic_light/Lara3D_UrbanSeq1_JPG/frame_008696.png,2,1,2
LARA_traffic_light/Lara3D_UrbanSeq1_JPG/frame_008697.png,2,1,2
LARA_traffic_light/Lara3D_UrbanSeq1_JPG/frame_008698.png,2,1,2
LARA_traffic_light/Lara3D_UrbanSeq1_JPG/frame_008699.png,2,1,2
LARA_traffic_light/Lara3D_UrbanSeq1_JPG/frame_008700.png,2,1,2
LARA_traffic_light/Lara3D_UrbanSeq1_JPG/frame_008701.png,2,1,2
LARA_traffic_light/Lara3D_UrbanSeq1_JPG/frame_008702.png,2,1,2
LARA_traffic_light/Lara3D_UrbanSeq1_JPG/frame_008703.png,2,1,2
LARA_traffic_light/Lara3D_UrbanSeq1_JPG/frame_008704.png,2,1,2
LARA_traffic_light/Lara3D_UrbanSeq1_JPG/frame_008705.png,2,1,2
LARA_traffic_light/Lara3D_UrbanSeq1_JPG/frame_008706.png,2,1,2
LARA_traffic_light/Lara3D_UrbanSeq1_JPG/frame_008707.png,2,1,2
LARA_traffic_light/Lara3D_UrbanSeq1_JPG/frame_008708.png,2,1,2
LARA_traffic_light/Lara3D_UrbanSeq1_JPG/frame_008709.png,2,1,2
LARA_traffic_light/Lara3D_UrbanSeq1_JPG/frame_008710.png,2,1,2
LARA_traffic_light/Lara3D_UrbanSeq1_JPG/frame_008711.png,2,1,2
LARA_traffic_light/Lara3D_UrbanSeq1_JPG/frame_008712.png,2,1,2
LARA_traffic_light/Lara3D_UrbanSeq1_JPG/frame_008713.png,2,1,2
LARA_traffic_light/Lara3D_UrbanSeq1_JPG/frame_008714.png,2,1,2
LARA_traffic_light/Lara3D_UrbanSeq1_JPG/frame_008715.png,2,1,2
LARA_traffic_light/Lara3D_UrbanSeq1_JPG/frame_008716.png,2,1,2
LARA_traffic_light/Lara3D_UrbanSeq1_JPG/frame_008717.png,2,1,2
LARA_traffic_light/Lara3D_UrbanSeq1_JPG/frame_008718.png,2,1,2
LARA_traffic_light/Lara3D_UrbanSeq1_JPG/frame_008719.png,2,1,2
LARA_traffic_light/Lara3D_UrbanSeq1_JPG/frame_008720.png,2,1,2
LARA_traffic_light/Lara3D_UrbanSeq1_JPG/frame_008721.png,2,1,2
LARA_traffic_light/Lara3D_UrbanSeq1_JPG/frame_008722.png,2,1,2
LARA_traffic_light/Lara3D_UrbanSeq1_JPG/frame_008723.png,2,1,2
LARA_traffic_light/Lara3D_UrbanSeq1_JPG/frame_008724.png,2,1,2
LARA_traffic_light/Lara3D_UrbanSeq1_JPG/frame_008725.png,2,2,3
LARA_traffic_light/Lara3D_UrbanSeq1_JPG/frame_008726.png,2,1,2
LARA_traffic_light/Lara3D_UrbanSeq1_JPG/frame_008727.png,2,2,3
LARA_traffic_light/Lara3D_UrbanSeq1_JPG/frame_008728.png,2,2,3
LARA_traffic_light/Lara3D_UrbanSeq1_JPG/frame_008729.png,2,2,3
LARA_traffic_light/Lara3D_UrbanSeq1_JPG/frame_008730.png,2,2,3
LARA_traffic_light/Lara3D_UrbanSeq1_JPG/frame_008731.png,2,2,3
LARA_traffic_light/Lara3D_UrbanSeq1_JPG/frame_008732.png,2,2,3
LARA_traffic_light/Lara3D_UrbanSeq1_JPG/frame_008733.png,2,2,3
LARA_traffic_light/Lara3D_UrbanSeq1_JPG/frame_008734.png,2,1,2
LARA_traffic_light/Lara3D_UrbanSeq1_JPG/frame_008735.png,2,1,2
LARA_traffic_light/Lara3D_UrbanSeq1_JPG/frame_008736.png,2,1,2
LARA_traffic_light/Lara3D_UrbanSeq1_JPG/frame_008737.png,2,1,2
LARA_traffic_light/Lara3D_UrbanSeq1_JPG/frame_008738.png,2,1,2
LARA_traffic_light/Lara3D_UrbanSeq1_JPG/frame_008739.png,2,1,2
LARA_traffic_light/Lara3D_UrbanSeq1_JPG/frame_008740.png,2,1,2
LARA_traffic_light/Lara3D_UrbanSeq1_JPG/frame_008741.png,2,1,2
LARA_traffic_light/Lara3D_UrbanSeq1_JPG/frame_008742.png,2,1,2
LARA_traffic_light/Lara3D_UrbanSeq1_JPG/frame_008743.png,2,1,2
LARA_traffic_light/Lara3D_UrbanSeq1_JPG/frame_008744.png,2,1,2
LARA_traffic_light/Lara3D_UrbanSeq1_JPG/frame_008745.png,2,1,2
LARA_traffic_light/Lara3D_UrbanSeq1_JPG/frame_008746.png,2,1,2
LARA_traffic_light/Lara3D_UrbanSeq1_JPG/frame_008747.png,2,1,2
LARA_traffic_light/Lara3D_UrbanSeq1_JPG/frame_008748.png,2,1,2
LARA_traffic_light/Lara3D_UrbanSeq1_JPG/frame_008749.png,2,1,2
LARA_traffic_light/Lara3D_UrbanSeq1_JPG/frame_008750.png,2,1,2
LARA_traffic_light/Lara3D_UrbanSeq1_JPG/frame_008751.png,2,1,2
LARA_traffic_light/Lara3D_UrbanSeq1_JPG/frame_008752.png,2,1,2
LARA_traffic_light/Lara3D_UrbanSeq1_JPG/frame_008753.png,2,1,2
LARA_traffic_light/Lara3D_UrbanSeq1_JPG/frame_008754.png,2,1,2
LARA_traffic_light/Lara3D_UrbanSeq1_JPG/frame_008755.png,2,1,2
LARA_traffic_light/Lara3D_UrbanSeq1_JPG/frame_008756.png,2,1,2
LARA_traffic_light/Lara3D_UrbanSeq1_JPG/frame_008757.png,2,1,2
LARA_traffic_light/Lara3D_UrbanSeq1_JPG/frame_008758.png,2,1,2
LARA_traffic_light/Lara3D_UrbanSeq1_JPG/frame_008759.png,2,1,2
LARA_traffic_light/Lara3D_UrbanSeq1_JPG/frame_008760.png,2,1,2
LARA_traffic_light/Lara3D_UrbanSeq1_JPG/frame_008761.png,2,1,2
LARA_traffic_light/Lara3D_UrbanSeq1_JPG/frame_008762.png,2,1,2
LARA_traffic_light/Lara3D_UrbanSeq1_JPG/frame_008763.png,2,1,2
LARA_traffic_light/Lara3D_UrbanSeq1_JPG/frame_008764.png,2,1,2
LARA_traffic_light/Lara3D_UrbanSeq1_JPG/frame_008765.png,2,1,2
LARA_traffic_light/Lara3D_UrbanSeq1_JPG/frame_008766.png,2,1,2
LARA_traffic_light/Lara3D_UrbanSeq1_JPG/frame_008767.png,2,1,2
LARA_traffic_light/Lara3D_UrbanSeq1_JPG/frame_008768.png,2,1,2
LARA_traffic_light/Lara3D_UrbanSeq1_JPG/frame_008769.png,2,1,2
LARA_traffic_light/Lara3D_UrbanSeq1_JPG/frame_008770.png,2,1,2
LARA_traffic_light/Lara3D_UrbanSeq1_JPG/frame_008771.png,2,1,2
LARA_traffic_light/Lara3D_UrbanSeq1_JPG/frame_008772.png,2,1,2
LARA_traffic_light/Lara3D_UrbanSeq1_JPG/frame_008773.png,2,1,2
LARA_traffic_light/Lara3D_UrbanSeq1_JPG/frame_008774.png,2,1,2
LARA_traffic_light/Lara3D_UrbanSeq1_JPG/frame_008775.png,2,1,2
LARA_traffic_light/Lara3D_UrbanSeq1_JPG/frame_008776.png,2,1,2
LARA_traffic_light/Lara3D_UrbanSeq1_JPG/frame_008777.png,2,1,2
LARA_traffic_light/Lara3D_UrbanSeq1_JPG/frame_008778.png,2,1,2
LARA_traffic_light/Lara3D_UrbanSeq1_JPG/frame_008779.png,2,1,2
LARA_traffic_light/Lara3D_UrbanSeq1_JPG/frame_008780.png,2,1,2
LARA_traffic_light/Lara3D_UrbanSeq1_JPG/frame_008781.png,2,1,2
LARA_traffic_light/Lara3D_UrbanSeq1_JPG/frame_008782.png,2,1,2
LARA_traffic_light/Lara3D_UrbanSeq1_JPG/frame_008783.png,2,1,2
LARA_traffic_light/Lara3D_UrbanSeq1_JPG/frame_008784.png,2,1,2
LARA_traffic_light/Lara3D_UrbanSeq1_JPG/frame_008785.png,2,1,2
LARA_traffic_light/Lara3D_UrbanSeq1_JPG/frame_008786.png,2,1,2
LARA_traffic_light/Lara3D_UrbanSeq1_JPG/frame_008787.png,2,1,2
LARA_traffic_light/Lara3D_UrbanSeq1_JPG/frame_008788.png,2,1,2
LARA_traffic_light/Lara3D_UrbanSeq1_JPG/frame_008789.png,2,1,2
LARA_traffic_light/Lara3D_UrbanSeq1_JPG/frame_008790.png,2,1,2
LARA_traffic_light/Lara3D_UrbanSeq1_JPG/frame_008791.png,2,1,2
LARA_traffic_light/Lara3D_UrbanSeq1_JPG/frame_008792.png,2,1,2
LARA_traffic_light/Lara3D_UrbanSeq1_JPG/frame_008793.png,2,1,2
LARA_traffic_light/Lara3D_UrbanSeq1_JPG/frame_008794.png,2,1,2
LARA_traffic_light/Lara3D_UrbanSeq1_JPG/frame_008795.png,2,1,2
LARA_traffic_light/Lara3D_UrbanSeq1_JPG/frame_008796.png,2,1,2
LARA_traffic_light/Lara3D_UrbanSeq1_JPG/frame_008797.png,2,1,2
LARA_traffic_light/Lara3D_UrbanSeq1_JPG/frame_008798.png,2,1,2
LARA_traffic_light/Lara3D_UrbanSeq1_JPG/frame_008799.png,2,1,2
LARA_traffic_light/Lara3D_UrbanSeq1_JPG/frame_008800.png,2,1,2
LARA_traffic_light/Lara3D_UrbanSeq1_JPG/frame_008801.png,2,1,2
LARA_traffic_light/Lara3D_UrbanSeq1_JPG/frame_008802.png,2,1,2
LARA_traffic_light/Lara3D_UrbanSeq1_JPG/frame_008803.png,2,1,2
LARA_traffic_light/Lara3D_UrbanSeq1_JPG/frame_008804.png,2,1,2
LARA_traffic_light/Lara3D_UrbanSeq1_JPG/frame_008805.png,2,1,2
LARA_traffic_light/Lara3D_UrbanSeq1_JPG/frame_008806.png,2,1,2
LARA_traffic_light/Lara3D_UrbanSeq1_JPG/frame_008807.png,2,1,2
LARA_traffic_light/Lara3D_UrbanSeq1_JPG/frame_008808.png,2,1,2
LARA_traffic_light/Lara3D_UrbanSeq1_JPG/frame_008809.png,2,1,2
LARA_traffic_light/Lara3D_UrbanSeq1_JPG/frame_008810.png,2,1,2
LARA_traffic_light/Lara3D_UrbanSeq1_JPG/frame_008811.png,2,1,2
LARA_traffic_light/Lara3D_UrbanSeq1_JPG/frame_008812.png,2,1,2
LARA_traffic_light/Lara3D_UrbanSeq1_JPG/frame_008813.png,2,1,2
LARA_traffic_light/Lara3D_UrbanSeq1_JPG/frame_008814.png,2,1,2
LARA_traffic_light/Lara3D_UrbanSeq1_JPG/frame_008815.png,2,1,2
LARA_traffic_light/Lara3D_UrbanSeq1_JPG/frame_008816.png,2,1,2
LARA_traffic_light/Lara3D_UrbanSeq1_JPG/frame_008817.png,2,1,2
LARA_traffic_light/Lara3D_UrbanSeq1_JPG/frame_008818.png,2,1,2
LARA_traffic_light/Lara3D_UrbanSeq1_JPG/frame_008819.png,2,1,2
LARA_traffic_light/Lara3D_UrbanSeq1_JPG/frame_008820.png,2,1,2
LARA_traffic_light/Lara3D_UrbanSeq1_JPG/frame_008821.png,2,1,2
LARA_traffic_light/Lara3D_UrbanSeq1_JPG/frame_008822.png,2,1,2
LARA_traffic_light/Lara3D_UrbanSeq1_JPG/frame_008823.png,2,1,2
LARA_traffic_light/Lara3D_UrbanSeq1_JPG/frame_008824.png,2,1,2
LARA_traffic_light/Lara3D_UrbanSeq1_JPG/frame_008825.png,2,1,2
LARA_traffic_light/Lara3D_UrbanSeq1_JPG/frame_008826.png,2,1,2
LARA_traffic_light/Lara3D_UrbanSeq1_JPG/frame_008827.png,2,1,2
LARA_traffic_light/Lara3D_UrbanSeq1_JPG/frame_008828.png,2,1,2
LARA_traffic_light/Lara3D_UrbanSeq1_JPG/frame_008829.png,2,1,2
LARA_traffic_light/Lara3D_UrbanSeq1_JPG/frame_008830.png,2,1,2
LARA_traffic_light/Lara3D_UrbanSeq1_JPG/frame_008831.png,2,1,2
LARA_traffic_light/Lara3D_UrbanSeq1_JPG/frame_008832.png,2,1,2
LARA_traffic_light/Lara3D_UrbanSeq1_JPG/frame_008833.png,2,1,2
LARA_traffic_light/Lara3D_UrbanSeq1_JPG/frame_008834.png,2,1,2
LARA_traffic_light/Lara3D_UrbanSeq1_JPG/frame_008835.png,2,1,2
LARA_traffic_light/Lara3D_UrbanSeq1_JPG/frame_008836.png,2,1,2
LARA_traffic_light/Lara3D_UrbanSeq1_JPG/frame_008837.png,2,1,2
LARA_traffic_light/Lara3D_UrbanSeq1_JPG/frame_008838.png,2,1,2
LARA_traffic_light/Lara3D_UrbanSeq1_JPG/frame_008839.png,2,2,3
LARA_traffic_light/Lara3D_UrbanSeq1_JPG/frame_008840.png,2,1,2
LARA_traffic_light/Lara3D_UrbanSeq1_JPG/frame_008841.png,2,1,2
LARA_traffic_light/Lara3D_UrbanSeq1_JPG/frame_008842.png,2,2,3
LARA_traffic_light/Lara3D_UrbanSeq1_JPG/frame_008843.png,2,2,3
LARA_traffic_light/Lara3D_UrbanSeq1_JPG/frame_008844.png,2,1,2
LARA_traffic_light/Lara3D_UrbanSeq1_JPG/frame_008845.png,2,1,2
LARA_traffic_light/Lara3D_UrbanSeq1_JPG/frame_008846.png,2,1,2
LARA_traffic_light/Lara3D_UrbanSeq1_JPG/frame_008847.png,2,2,3
LARA_traffic_light/Lara3D_UrbanSeq1_JPG/frame_008848.png,2,2,3
LARA_traffic_light/Lara3D_UrbanSeq1_JPG/frame_008849.png,2,2,3
LARA_traffic_light/Lara3D_UrbanSeq1_JPG/frame_008850.png,2,2,3
LARA_traffic_light/Lara3D_UrbanSeq1_JPG/frame_008851.png,2,2,3
LARA_traffic_light/Lara3D_UrbanSeq1_JPG/frame_008852.png,2,2,3
LARA_traffic_light/Lara3D_UrbanSeq1_JPG/frame_008853.png,2,2,3
LARA_traffic_light/Lara3D_UrbanSeq1_JPG/frame_008854.png,2,2,3
LARA_traffic_light/Lara3D_UrbanSeq1_JPG/frame_008855.png,2,2,3
LARA_traffic_light/Lara3D_UrbanSeq1_JPG/frame_008856.png,2,2,3
LARA_traffic_light/Lara3D_UrbanSeq1_JPG/frame_008857.png,2,1,2
LARA_traffic_light/Lara3D_UrbanSeq1_JPG/frame_008858.png,2,1,2
LARA_traffic_light/Lara3D_UrbanSeq1_JPG/frame_008859.png,2,2,3
LARA_traffic_light/Lara3D_UrbanSeq1_JPG/frame_008860.png,2,2,3
LARA_traffic_light/Lara3D_UrbanSeq1_JPG/frame_008861.png,2,2,3
LARA_traffic_light/Lara3D_UrbanSeq1_JPG/frame_008862.png,2,1,2
LARA_traffic_light/Lara3D_UrbanSeq1_JPG/frame_008863.png,2,2,3
LARA_traffic_light/Lara3D_UrbanSeq1_JPG/frame_008864.png,2,2,3
LARA_traffic_light/Lara3D_UrbanSeq1_JPG/frame_008865.png,2,2,3
LARA_traffic_light/Lara3D_UrbanSeq1_JPG/frame_008866.png,2,2,3
LARA_traffic_light/Lara3D_UrbanSeq1_JPG/frame_008867.png,2,2,3
LARA_traffic_light/Lara3D_UrbanSeq1_JPG/frame_008868.png,2,2,3
LARA_traffic_light/Lara3D_UrbanSeq1_JPG/frame_008869.png,2,2,3
LARA_traffic_light/Lara3D_UrbanSeq1_JPG/frame_008870.png,2,2,3
LARA_traffic_light/Lara3D_UrbanSeq1_JPG/frame_008871.png,2,2,3
LARA_traffic_light/Lara3D_UrbanSeq1_JPG/frame_008872.png,2,2,3
LARA_traffic_light/Lara3D_UrbanSeq1_JPG/frame_008873.png,2,2,3
LARA_traffic_light/Lara3D_UrbanSeq1_JPG/frame_008874.png,2,2,3
LARA_traffic_light/Lara3D_UrbanSeq1_JPG/frame_008875.png,2,2,3
LARA_traffic_light/Lara3D_UrbanSeq1_JPG/frame_008876.png,2,2,3
LARA_traffic_light/Lara3D_UrbanSeq1_JPG/frame_008877.png,2,2,3
LARA_traffic_light/Lara3D_UrbanSeq1_JPG/frame_008878.png,2,1,2
LARA_traffic_light/Lara3D_UrbanSeq1_JPG/frame_008879.png,2,1,2
LARA_traffic_light/Lara3D_UrbanSeq1_JPG/frame_008880.png,2,2,3
LARA_traffic_light/Lara3D_UrbanSeq1_JPG/frame_008881.png,2,1,2
LARA_traffic_light/Lara3D_UrbanSeq1_JPG/frame_008882.png,2,1,2
LARA_traffic_light/Lara3D_UrbanSeq1_JPG/frame_008883.png,2,1,2
LARA_traffic_light/Lara3D_UrbanSeq1_JPG/frame_008884.png,2,1,2
LARA_traffic_light/Lara3D_UrbanSeq1_JPG/frame_008885.png,2,1,2
LARA_traffic_light/Lara3D_UrbanSeq1_JPG/frame_008886.png,2,1,2
LARA_traffic_light/Lara3D_UrbanSeq1_JPG/frame_008887.png,2,2,3
LARA_traffic_light/Lara3D_UrbanSeq1_JPG/frame_008888.png,2,2,3
LARA_traffic_light/Lara3D_UrbanSeq1_JPG/frame_008889.png,2,1,2
LARA_traffic_light/Lara3D_UrbanSeq1_JPG/frame_008890.png,2,1,2
LARA_traffic_light/Lara3D_UrbanSeq1_JPG/frame_008891.png,2,2,3
LARA_traffic_light/Lara3D_UrbanSeq1_JPG/frame_008892.png,2,2,3
LARA_traffic_light/Lara3D_UrbanSeq1_JPG/frame_008893.png,2,2,3
LARA_traffic_light/Lara3D_UrbanSeq1_JPG/frame_008894.png,2,2,3
LARA_traffic_light/Lara3D_UrbanSeq1_JPG/frame_008895.png,2,2,3
LARA_traffic_light/Lara3D_UrbanSeq1_JPG/frame_008896.png,2,2,3
LARA_traffic_light/Lara3D_UrbanSeq1_JPG/frame_008897.png,2,2,3
LARA_traffic_light/Lara3D_UrbanSeq1_JPG/frame_008898.png,2,2,3
LARA_traffic_light/Lara3D_UrbanSeq1_JPG/frame_008899.png,2,2,3
LARA_traffic_light/Lara3D_UrbanSeq1_JPG/frame_008900.png,2,2,3
LARA_traffic_light/Lara3D_UrbanSeq1_JPG/frame_008901.png,2,2,3
LARA_traffic_light/Lara3D_UrbanSeq1_JPG/frame_008902.png,2,2,3
LARA_traffic_light/Lara3D_UrbanSeq1_JPG/frame_008903.png,2,2,3
LARA_traffic_light/Lara3D_UrbanSeq1_JPG/frame_008904.png,2,2,3
LARA_traffic_light/Lara3D_UrbanSeq1_JPG/frame_008905.png,2,2,3
LARA_traffic_light/Lara3D_UrbanSeq1_JPG/frame_008906.png,2,2,3
LARA_traffic_light/Lara3D_UrbanSeq1_JPG/frame_008907.png,2,2,3
LARA_traffic_light/Lara3D_UrbanSeq1_JPG/frame_008908.png,2,2,3
LARA_traffic_light/Lara3D_UrbanSeq1_JPG/frame_008909.png,2,2,4
LARA_traffic_light/Lara3D_UrbanSeq1_JPG/frame_008910.png,2,2,4
LARA_traffic_light/Lara3D_UrbanSeq1_JPG/frame_008911.png,2,2,4
LARA_traffic_light/Lara3D_UrbanSeq1_JPG/frame_008912.png,2,2,4
LARA_traffic_light/Lara3D_UrbanSeq1_JPG/frame_008913.png,2,2,4
LARA_traffic_light/Lara3D_UrbanSeq1_JPG/frame_008914.png,2,2,4
LARA_traffic_light/Lara3D_UrbanSeq1_JPG/frame_008915.png,2,2,4
LARA_traffic_light/Lara3D_UrbanSeq1_JPG/frame_008916.png,2,2,4
LARA_traffic_light/Lara3D_UrbanSeq1_JPG/frame_008917.png,2,2,4
LARA_traffic_light/Lara3D_UrbanSeq1_JPG/frame_008918.png,2,2,4
LARA_traffic_light/Lara3D_UrbanSeq1_JPG/frame_008919.png,2,2,4
LARA_traffic_light/Lara3D_UrbanSeq1_JPG/frame_008920.png,2,2,4
LARA_traffic_light/Lara3D_UrbanSeq1_JPG/frame_008921.png,2,2,3
LARA_traffic_light/Lara3D_UrbanSeq1_JPG/frame_008922.png,2,2,3
LARA_traffic_light/Lara3D_UrbanSeq1_JPG/frame_008923.png,2,2,4
LARA_traffic_light/Lara3D_UrbanSeq1_JPG/frame_008924.png,2,2,4
LARA_traffic_light/Lara3D_UrbanSeq1_JPG/frame_008925.png,2,2,4
LARA_traffic_light/Lara3D_UrbanSeq1_JPG/frame_008926.png,2,2,4
LARA_traffic_light/Lara3D_UrbanSeq1_JPG/frame_008927.png,2,2,4
LARA_traffic_light/Lara3D_UrbanSeq1_JPG/frame_008928.png,2,2,4
LARA_traffic_light/Lara3D_UrbanSeq1_JPG/frame_008929.png,2,2,4
LARA_traffic_light/Lara3D_UrbanSeq1_JPG/frame_008930.png,2,2,4
LARA_traffic_light/Lara3D_UrbanSeq1_JPG/frame_008931.png,2,2,4
LARA_traffic_light/Lara3D_UrbanSeq1_JPG/frame_008932.png,2,2,4
LARA_traffic_light/Lara3D_UrbanSeq1_JPG/frame_008933.png,2,2,4
LARA_traffic_light/Lara3D_UrbanSeq1_JPG/frame_008934.png,2,2,4
LARA_traffic_light/Lara3D_UrbanSeq1_JPG/frame_008935.png,2,2,4
LARA_traffic_light/Lara3D_UrbanSeq1_JPG/frame_008936.png,2,2,4
LARA_traffic_light/Lara3D_UrbanSeq1_JPG/frame_008937.png,2,2,4
LARA_traffic_light/Lara3D_UrbanSeq1_JPG/frame_008938.png,2,2,4
LARA_traffic_light/Lara3D_UrbanSeq1_JPG/frame_008939.png,2,2,4
LARA_traffic_light/Lara3D_UrbanSeq1_JPG/frame_008940.png,2,2,4
LARA_traffic_light/Lara3D_UrbanSeq1_JPG/frame_008941.png,2,2,4
LARA_traffic_light/Lara3D_UrbanSeq1_JPG/frame_008942.png,2,2,4
LARA_traffic_light/Lara3D_UrbanSeq1_JPG/frame_008943.png,2,2,2
LARA_traffic_light/Lara3D_UrbanSeq1_JPG/frame_008944.png,2,2,3
LARA_traffic_light/Lara3D_UrbanSeq1_JPG/frame_008945.png,2,2,3
LARA_traffic_light/Lara3D_UrbanSeq1_JPG/frame_008946.png,2,2,2
LARA_traffic_light/Lara3D_UrbanSeq1_JPG/frame_008947.png,2,2,3
LARA_traffic_light/Lara3D_UrbanSeq1_JPG/frame_008948.png,2,2,4
LARA_traffic_light/Lara3D_UrbanSeq1_JPG/frame_008949.png,2,2,4
LARA_traffic_light/Lara3D_UrbanSeq1_JPG/frame_008950.png,2,2,4
LARA_traffic_light/Lara3D_UrbanSeq1_JPG/frame_008951.png,2,2,4
LARA_traffic_light/Lara3D_UrbanSeq1_JPG/frame_009000.png,0,2,1
LARA_traffic_light/Lara3D_UrbanSeq1_JPG/frame_009001.png,0,2,1
LARA_traffic_light/Lara3D_UrbanSeq1_JPG/frame_009002.png,0,2,1
LARA_traffic_light/Lara3D_UrbanSeq1_JPG/frame_009003.png,0,2,1
LARA_traffic_light/Lara3D_UrbanSeq1_JPG/frame_009004.png,0,2,1
LARA_traffic_light/Lara3D_UrbanSeq1_JPG/frame_009005.png,0,2,1
LARA_traffic_light/Lara3D_UrbanSeq1_JPG/frame_009006.png,0,2,1
LARA_traffic_light/Lara3D_UrbanSeq1_JPG/frame_009007.png,0,2,1
LARA_traffic_light/Lara3D_UrbanSeq1_JPG/frame_009008.png,0,2,1
LARA_traffic_light/Lara3D_UrbanSeq1_JPG/frame_009009.png,0,2,1
LARA_traffic_light/Lara3D_UrbanSeq1_JPG/frame_009010.png,0,2,1
LARA_traffic_light/Lara3D_UrbanSeq1_JPG/frame_009011.png,0,2,1
LARA_traffic_light/Lara3D_UrbanSeq1_JPG/frame_009012.png,0,2,1
LARA_traffic_light/Lara3D_UrbanSeq1_JPG/frame_009013.png,0,2,1
LARA_traffic_light/Lara3D_UrbanSeq1_JPG/frame_009014.png,0,2,1
LARA_traffic_light/Lara3D_UrbanSeq1_JPG/frame_009015.png,0,2,1
LARA_traffic_light/Lara3D_UrbanSeq1_JPG/frame_009016.png,0,2,1
LARA_traffic_light/Lara3D_UrbanSeq1_JPG/frame_009017.png,0,2,1
LARA_traffic_light/Lara3D_UrbanSeq1_JPG/frame_009018.png,0,2,1
LARA_traffic_light/Lara3D_UrbanSeq1_JPG/frame_009019.png,0,2,1
LARA_traffic_light/Lara3D_UrbanSeq1_JPG/frame_009020.png,0,2,1
LARA_traffic_light/Lara3D_UrbanSeq1_JPG/frame_009021.png,0,2,1
LARA_traffic_light/Lara3D_UrbanSeq1_JPG/frame_009022.png,0,2,1
LARA_traffic_light/Lara3D_UrbanSeq1_JPG/frame_009023.png,0,2,1
LARA_traffic_light/Lara3D_UrbanSeq1_JPG/frame_009024.png,0,2,1
LARA_traffic_light/Lara3D_UrbanSeq1_JPG/frame_009025.png,0,2,1
LARA_traffic_light/Lara3D_UrbanSeq1_JPG/frame_009026.png,0,2,1
LARA_traffic_light/Lara3D_UrbanSeq1_JPG/frame_009027.png,0,2,1
LARA_traffic_light/Lara3D_UrbanSeq1_JPG/frame_009028.png,0,2,1
LARA_traffic_light/Lara3D_UrbanSeq1_JPG/frame_009029.png,0,2,1
LARA_traffic_light/Lara3D_UrbanSeq1_JPG/frame_009030.png,0,2,1
LARA_traffic_light/Lara3D_UrbanSeq1_JPG/frame_009031.png,0,2,1
LARA_traffic_light/Lara3D_UrbanSeq1_JPG/frame_009032.png,0,2,1
LARA_traffic_light/Lara3D_UrbanSeq1_JPG/frame_009033.png,0,2,1
LARA_traffic_light/Lara3D_UrbanSeq1_JPG/frame_009034.png,0,2,1
LARA_traffic_light/Lara3D_UrbanSeq1_JPG/frame_009035.png,0,2,1
LARA_traffic_light/Lara3D_UrbanSeq1_JPG/frame_009036.png,0,2,1
LARA_traffic_light/Lara3D_UrbanSeq1_JPG/frame_009037.png,0,2,1
LARA_traffic_light/Lara3D_UrbanSeq1_JPG/frame_009038.png,0,2,1
LARA_traffic_light/Lara3D_UrbanSeq1_JPG/frame_009039.png,0,2,1
LARA_traffic_light/Lara3D_UrbanSeq1_JPG/frame_009040.png,0,2,1
LARA_traffic_light/Lara3D_UrbanSeq1_JPG/frame_009041.png,0,2,1
LARA_traffic_light/Lara3D_UrbanSeq1_JPG/frame_009042.png,0,2,1
LARA_traffic_light/Lara3D_UrbanSeq1_JPG/frame_009043.png,0,2,1
LARA_traffic_light/Lara3D_UrbanSeq1_JPG/frame_009044.png,0,2,1
LARA_traffic_light/Lara3D_UrbanSeq1_JPG/frame_009045.png,0,2,1
LARA_traffic_light/Lara3D_UrbanSeq1_JPG/frame_009046.png,0,2,1
LARA_traffic_light/Lara3D_UrbanSeq1_JPG/frame_009047.png,0,2,1
LARA_traffic_light/Lara3D_UrbanSeq1_JPG/frame_009048.png,0,2,1
LARA_traffic_light/Lara3D_UrbanSeq1_JPG/frame_009049.png,0,2,1
LARA_traffic_light/Lara3D_UrbanSeq1_JPG/frame_009050.png,0,2,1
LARA_traffic_light/Lara3D_UrbanSeq1_JPG/frame_009051.png,0,2,1
LARA_traffic_light/Lara3D_UrbanSeq1_JPG/frame_009052.png,0,2,1
LARA_traffic_light/Lara3D_UrbanSeq1_JPG/frame_009053.png,0,2,1
LARA_traffic_light/Lara3D_UrbanSeq1_JPG/frame_009054.png,0,2,1
LARA_traffic_light/Lara3D_UrbanSeq1_JPG/frame_009055.png,0,2,1
LARA_traffic_light/Lara3D_UrbanSeq1_JPG/frame_009056.png,0,2,1
LARA_traffic_light/Lara3D_UrbanSeq1_JPG/frame_009057.png,0,2,1
LARA_traffic_light/Lara3D_UrbanSeq1_JPG/frame_009058.png,0,2,1
LARA_traffic_light/Lara3D_UrbanSeq1_JPG/frame_009059.png,0,2,1
LARA_traffic_light/Lara3D_UrbanSeq1_JPG/frame_009364.png,0,0,0
LARA_traffic_light/Lara3D_UrbanSeq1_JPG/frame_009365.png,0,0,0
LARA_traffic_light/Lara3D_UrbanSeq1_JPG/frame_009366.png,0,0,0
LARA_traffic_light/Lara3D_UrbanSeq1_JPG/frame_009367.png,0,0,0
LARA_traffic_light/Lara3D_UrbanSeq1_JPG/frame_009385.png,2,0,0
LARA_traffic_light/Lara3D_UrbanSeq1_JPG/frame_009386.png,2,0,0
